﻿Log file open, 07/28/20 16:28:24
LogInit: Display: Running engine for game: BombermanTest
LogPlatformFile: Not using cached read wrapper
LogTaskGraph: Started task graph with 5 named threads and 23 total threads with 3 sets of task threads.
LogStats: Stats thread started at 0.155492
LogD3D11RHI: Loaded GFSDK_Aftermath_Lib.x64.dll
LogICUInternationalization: ICU TimeZone Detection - Raw Offset: +1:00, Platform Override: ''
LogPluginManager: Mounting plugin Paper2D
LogPluginManager: Mounting plugin AISupport
LogPluginManager: Mounting plugin LightPropagationVolume
LogPluginManager: Mounting plugin CameraShakePreviewer
LogPluginManager: Mounting plugin ActorLayerUtilities
LogPluginManager: Mounting plugin AnimationSharing
LogPluginManager: Mounting plugin CLionSourceCodeAccess
LogPluginManager: Mounting plugin CodeLiteSourceCodeAccess
LogPluginManager: Mounting plugin GitSourceControl
LogPluginManager: Mounting plugin KDevelopSourceCodeAccess
LogPluginManager: Mounting plugin NullSourceCodeAccess
LogPluginManager: Mounting plugin PerforceSourceControl
LogPluginManager: Mounting plugin PlasticSourceControl
LogPluginManager: Mounting plugin RiderSourceCodeAccess
LogPluginManager: Mounting plugin SubversionSourceControl
LogPluginManager: Mounting plugin UObjectPlugin
LogPluginManager: Mounting plugin VisualStudioCodeSourceCodeAccess
LogPluginManager: Mounting plugin VisualStudioSourceCodeAccess
LogPluginManager: Mounting plugin XCodeSourceCodeAccess
LogPluginManager: Mounting plugin AssetManagerEditor
LogPluginManager: Mounting plugin CryptoKeys
LogPluginManager: Mounting plugin CurveEditorTools
LogPluginManager: Mounting plugin DataValidation
LogPluginManager: Mounting plugin EditorScriptingUtilities
LogPluginManager: Mounting plugin FacialAnimation
LogPluginManager: Mounting plugin GameplayTagsEditor
LogPluginManager: Mounting plugin GeometryMode
LogPluginManager: Mounting plugin MacGraphicsSwitching
LogPluginManager: Mounting plugin MaterialAnalyzer
LogPluginManager: Mounting plugin MobileLauncherProfileWizard
LogPluginManager: Mounting plugin PluginBrowser
LogPluginManager: Mounting plugin SpeedTreeImporter
LogPluginManager: Mounting plugin DatasmithContent
LogPluginManager: Mounting plugin VariantManagerContent
LogPluginManager: Mounting plugin AlembicImporter
LogPluginManager: Mounting plugin AutomationUtils
LogPluginManager: Mounting plugin BackChannel
LogPluginManager: Mounting plugin ChaosCloth
LogPluginManager: Mounting plugin ChaosClothEditor
LogPluginManager: Mounting plugin ChaosEditor
LogPluginManager: Mounting plugin ChaosNiagara
LogPluginManager: Mounting plugin ChaosSolverPlugin
LogPluginManager: Mounting plugin CharacterAI
LogPluginManager: Mounting plugin GeometryCache
LogPluginManager: Mounting plugin GeometryCollectionPlugin
LogPluginManager: Mounting plugin GeometryProcessing
LogPluginManager: Mounting plugin PlanarCut
LogPluginManager: Mounting plugin PlatformCrypto
LogPluginManager: Mounting plugin ProxyLODPlugin
LogPluginManager: Mounting plugin SkeletalReduction
LogPluginManager: Mounting plugin Niagara
LogPluginManager: Mounting plugin MagicLeap
LogPluginManager: Mounting plugin MagicLeapLightEstimation
LogPluginManager: Mounting plugin MagicLeapMedia
LogPluginManager: Mounting plugin MagicLeapPassableWorld
LogPluginManager: Mounting plugin MLSDK
LogPluginManager: Mounting plugin AndroidMedia
LogPluginManager: Mounting plugin AvfMedia
LogPluginManager: Mounting plugin ImgMedia
LogPluginManager: Mounting plugin MediaCompositing
LogPluginManager: Mounting plugin MediaPlayerEditor
LogPluginManager: Mounting plugin WebMMedia
LogPluginManager: Mounting plugin WmfMedia
LogPluginManager: Mounting plugin MeshPainting
LogPluginManager: Mounting plugin TcpMessaging
LogPluginManager: Mounting plugin UdpMessaging
LogPluginManager: Mounting plugin ActorSequence
LogPluginManager: Mounting plugin LevelSequenceEditor
LogPluginManager: Mounting plugin MatineeToLevelSequence
LogPluginManager: Mounting plugin MovieRenderPipeline
LogPluginManager: Mounting plugin TemplateSequence
LogPluginManager: Mounting plugin NetcodeUnitTest
LogPluginManager: Mounting plugin NUTUnrealEngine4
LogPluginManager: Mounting plugin OnlineSubsystemGooglePlay
LogPluginManager: Mounting plugin OnlineSubsystemIOS
LogPluginManager: Mounting plugin OnlineSubsystem
LogPluginManager: Mounting plugin OnlineSubsystemNull
LogPluginManager: Mounting plugin OnlineSubsystemUtils
LogPluginManager: Mounting plugin LauncherChunkInstaller
LogPluginManager: Mounting plugin AndroidDeviceProfileSelector
LogPluginManager: Mounting plugin AndroidMoviePlayer
LogPluginManager: Mounting plugin AndroidPermission
LogPluginManager: Mounting plugin AppleImageUtils
LogPluginManager: Mounting plugin AppleMoviePlayer
LogPluginManager: Mounting plugin ArchVisCharacter
LogPluginManager: Mounting plugin AssetTags
LogPluginManager: Mounting plugin AudioCapture
LogPluginManager: Mounting plugin CableComponent
LogPluginManager: Mounting plugin CustomMeshComponent
LogPluginManager: Mounting plugin EditableMesh
LogPluginManager: Mounting plugin ExampleDeviceProfileSelector
LogPluginManager: Mounting plugin GoogleCloudMessaging
LogPluginManager: Mounting plugin GooglePAD
LogPluginManager: Mounting plugin IOSDeviceProfileSelector
LogPluginManager: Mounting plugin LinuxDeviceProfileSelector
LogPluginManager: Mounting plugin LocationServicesBPLibrary
LogPluginManager: Mounting plugin MobilePatchingUtils
LogPluginManager: Mounting plugin OculusVR
LogPluginManager: Mounting plugin PhysXVehicles
LogPluginManager: Mounting plugin PostSplashScreen
LogPluginManager: Mounting plugin ProceduralMeshComponent
LogPluginManager: Mounting plugin RuntimePhysXCooking
LogPluginManager: Mounting plugin SignificanceManager
LogPluginManager: Mounting plugin SoundFields
LogPluginManager: Mounting plugin SteamVR
LogPluginManager: Mounting plugin Synthesis
LogPluginManager: Mounting plugin WebMMoviePlayer
LogPluginManager: Mounting plugin WindowsMoviePlayer
LogPluginManager: Mounting plugin ScreenshotTools
LogInit: Using libcurl 7.55.1-DEV
LogInit:  - built for x86_64-pc-win32
LogInit:  - supports SSL with OpenSSL/1.1.1
LogInit:  - supports HTTP deflate (compression) using libz 1.2.8
LogInit:  - other features:
LogInit:      CURL_VERSION_SSL
LogInit:      CURL_VERSION_LIBZ
LogInit:      CURL_VERSION_IPV6
LogInit:      CURL_VERSION_ASYNCHDNS
LogInit:      CURL_VERSION_LARGEFILE
LogInit:      CURL_VERSION_IDN
LogInit:  CurlRequestOptions (configurable via config and command line):
LogInit:  - bVerifyPeer = true  - Libcurl will verify peer certificate
LogInit:  - bUseHttpProxy = false  - Libcurl will NOT use HTTP proxy
LogInit:  - bDontReuseConnections = false  - Libcurl will reuse connections
LogInit:  - MaxHostConnections = 16  - Libcurl will limit the number of connections to a host
LogInit:  - LocalHostAddr = Default
LogInit:  - BufferSize = 65536
LogOnline: OSS: Creating online subsystem instance for: NULL
LogInit: WinSock: version 1.1 (2.2), MaxSocks=32767, MaxUdp=65467
LogOnline: OSS: TryLoadSubsystemAndSetDefault: Loaded subsystem for module [NULL]
LogInit: Build: ++UE4+Release-4.25-CL-13908680
LogInit: Engine Version: 4.25.2-13908680+++UE4+Release-4.25
LogInit: Compatible Engine Version: 4.25.0-13144385+++UE4+Release-4.25
LogInit: Net CL: 13144385
LogInit: OS: Windows 10 (Release 1909) (), CPU: Intel(R) Core(TM) i7-7700K CPU @ 4.20GHz, GPU: Radeon Pro 580
LogInit: Compiled (64-bit): Jul 22 2020 02:11:51
LogInit: Compiled with Visual C++: 19.24.28315.00
LogInit: Build Configuration: Development
LogInit: Branch Name: ++UE4+Release-4.25
LogInit: Command Line: 
LogInit: Base Directory: C:/Program Files/Epic Games/UE_4.25/Engine/Binaries/Win64/
LogInit: Allocator: TBB
LogInit: Installed Engine Build: 1
LogDevObjectVersion: Number of dev versions registered: 26
LogDevObjectVersion:   Dev-Blueprints (B0D832E4-1F89-4F0D-ACCF-7EB736FD4AA2): 10
LogDevObjectVersion:   Dev-Build (E1C64328-A22C-4D53-A36C-8E866417BD8C): 0
LogDevObjectVersion:   Dev-Core (375EC13C-06E4-48FB-B500-84F0262A717E): 4
LogDevObjectVersion:   Dev-Editor (E4B068ED-F494-42E9-A231-DA0B2E46BB41): 38
LogDevObjectVersion:   Dev-Framework (CFFC743F-43B0-4480-9391-14DF171D2073): 37
LogDevObjectVersion:   Dev-Mobile (B02B49B5-BB20-44E9-A304-32B752E40360): 2
LogDevObjectVersion:   Dev-Networking (A4E4105C-59A1-49B5-A7C5-40C4547EDFEE): 0
LogDevObjectVersion:   Dev-Online (39C831C9-5AE6-47DC-9A44-9C173E1C8E7C): 0
LogDevObjectVersion:   Dev-Physics (78F01B33-EBEA-4F98-B9B4-84EACCB95AA2): 4
LogDevObjectVersion:   Dev-Platform (6631380F-2D4D-43E0-8009-CF276956A95A): 0
LogDevObjectVersion:   Dev-Rendering (12F88B9F-8875-4AFC-A67C-D90C383ABD29): 43
LogDevObjectVersion:   Dev-Sequencer (7B5AE74C-D270-4C10-A958-57980B212A5A): 12
LogDevObjectVersion:   Dev-VR (D7296918-1DD6-4BDD-9DE2-64A83CC13884): 3
LogDevObjectVersion:   Dev-LoadTimes (C2A15278-BFE7-4AFE-6C17-90FF531DF755): 1
LogDevObjectVersion:   Private-Geometry (6EACA3D4-40EC-4CC1-B786-8BED09428FC5): 3
LogDevObjectVersion:   Dev-AnimPhys (29E575DD-E0A3-4627-9D10-D276232CDCEA): 17
LogDevObjectVersion:   Dev-Anim (AF43A65D-7FD3-4947-9873-3E8ED9C1BB05): 7
LogDevObjectVersion:   Dev-ReflectionCapture (6B266CEC-1EC7-4B8F-A30B-E4D90942FC07): 1
LogDevObjectVersion:   Dev-Automation (0DF73D61-A23F-47EA-B727-89E90C41499A): 1
LogDevObjectVersion:   FortniteMain (601D1886-AC64-4F84-AA16-D3DE0DEAC7D6): 31
LogDevObjectVersion:   Dev-Enterprise (9DFFBCD6-494F-0158-E221-12823C92A888): 10
LogDevObjectVersion:   Dev-Niagara (F2AED0AC-9AFE-416F-8664-AA7FFA26D6FC): 1
LogDevObjectVersion:   Dev-Destruction (174F1F0B-B4C6-45A5-B13F-2EE8D0FB917D): 10
LogDevObjectVersion:   Dev-Physics-Ext (35F94A83-E258-406C-A318-09F59610247C): 37
LogDevObjectVersion:   Dev-PhysicsMaterial-Chaos (B68FC16E-8B1B-42E2-B453-215C058844FE): 1
LogDevObjectVersion:   Dev-CineCamera (B2E18506-4273-CFC2-A54E-F4BB758BBA07): 1
LogInit: Presizing for max 25165824 objects, including 0 objects not considered by GC, pre-allocating 0 bytes for permanent pool.
LogConfig: Applying CVar settings from Section [/Script/Engine.StreamingSettings] File [C:/Users/AleixParellada/Desktop/Bomberman/BombermanTest/Saved/Config/Windows/Engine.ini]
LogConfig: Setting CVar [[s.MinBulkDataSizeForAsyncLoading:131072]]
LogConfig: Setting CVar [[s.AsyncLoadingThreadEnabled:0]]
LogConfig: Setting CVar [[s.EventDrivenLoaderEnabled:1]]
LogConfig: Setting CVar [[s.WarnIfTimeLimitExceeded:0]]
LogConfig: Setting CVar [[s.TimeLimitExceededMultiplier:1.5]]
LogConfig: Setting CVar [[s.TimeLimitExceededMinTime:0.005]]
LogConfig: Setting CVar [[s.UseBackgroundLevelStreaming:1]]
LogConfig: Setting CVar [[s.PriorityAsyncLoadingExtraTime:15.0]]
LogConfig: Setting CVar [[s.LevelStreamingActorsUpdateTimeLimit:5.0]]
LogConfig: Setting CVar [[s.PriorityLevelStreamingActorsUpdateExtraTime:5.0]]
LogConfig: Setting CVar [[s.LevelStreamingComponentsRegistrationGranularity:10]]
LogConfig: Setting CVar [[s.UnregisterComponentsTimeLimit:1.0]]
LogConfig: Setting CVar [[s.LevelStreamingComponentsUnregistrationGranularity:5]]
LogConfig: Setting CVar [[s.FlushStreamingOnExit:1]]
LogInit: Object subsystem initialized
LogConfig: Setting CVar [[con.DebugEarlyDefault:1]]
LogConfig: Setting CVar [[r.setres:1280x720]]
[2020.07.28-14.28.25:181][  0]LogConfig: Setting CVar [[r.VSync:0]]
[2020.07.28-14.28.25:181][  0]LogConfig: Setting CVar [[r.RHICmdBypass:0]]
[2020.07.28-14.28.25:181][  0]LogConfig: Applying CVar settings from Section [/Script/Engine.RendererSettings] File [C:/Users/AleixParellada/Desktop/Bomberman/BombermanTest/Saved/Config/Windows/Engine.ini]
[2020.07.28-14.28.25:181][  0]LogConfig: Setting CVar [[r.GPUCrashDebugging:0]]
[2020.07.28-14.28.25:181][  0]LogConfig: Applying CVar settings from Section [/Script/Engine.RendererOverrideSettings] File [C:/Users/AleixParellada/Desktop/Bomberman/BombermanTest/Saved/Config/Windows/Engine.ini]
[2020.07.28-14.28.25:181][  0]LogConfig: Applying CVar settings from Section [/Script/Engine.StreamingSettings] File [C:/Users/AleixParellada/Desktop/Bomberman/BombermanTest/Saved/Config/Windows/Engine.ini]
[2020.07.28-14.28.25:181][  0]LogConfig: Setting CVar [[s.MinBulkDataSizeForAsyncLoading:131072]]
[2020.07.28-14.28.25:181][  0]LogConfig: Setting CVar [[s.AsyncLoadingThreadEnabled:0]]
[2020.07.28-14.28.25:181][  0]LogConfig: Setting CVar [[s.EventDrivenLoaderEnabled:1]]
[2020.07.28-14.28.25:181][  0]LogConfig: Setting CVar [[s.WarnIfTimeLimitExceeded:0]]
[2020.07.28-14.28.25:181][  0]LogConfig: Setting CVar [[s.TimeLimitExceededMultiplier:1.5]]
[2020.07.28-14.28.25:181][  0]LogConfig: Setting CVar [[s.TimeLimitExceededMinTime:0.005]]
[2020.07.28-14.28.25:181][  0]LogConfig: Setting CVar [[s.UseBackgroundLevelStreaming:1]]
[2020.07.28-14.28.25:181][  0]LogConfig: Setting CVar [[s.PriorityAsyncLoadingExtraTime:15.0]]
[2020.07.28-14.28.25:181][  0]LogConfig: Setting CVar [[s.LevelStreamingActorsUpdateTimeLimit:5.0]]
[2020.07.28-14.28.25:181][  0]LogConfig: Setting CVar [[s.PriorityLevelStreamingActorsUpdateExtraTime:5.0]]
[2020.07.28-14.28.25:181][  0]LogConfig: Setting CVar [[s.LevelStreamingComponentsRegistrationGranularity:10]]
[2020.07.28-14.28.25:181][  0]LogConfig: Setting CVar [[s.UnregisterComponentsTimeLimit:1.0]]
[2020.07.28-14.28.25:181][  0]LogConfig: Setting CVar [[s.LevelStreamingComponentsUnregistrationGranularity:5]]
[2020.07.28-14.28.25:181][  0]LogConfig: Setting CVar [[s.FlushStreamingOnExit:1]]
[2020.07.28-14.28.25:182][  0]LogConfig: Applying CVar settings from Section [/Script/Engine.GarbageCollectionSettings] File [C:/Users/AleixParellada/Desktop/Bomberman/BombermanTest/Saved/Config/Windows/Engine.ini]
[2020.07.28-14.28.25:182][  0]LogConfig: Setting CVar [[gc.MaxObjectsNotConsideredByGC:1]]
[2020.07.28-14.28.25:182][  0]LogConfig: Setting CVar [[gc.SizeOfPermanentObjectPool:0]]
[2020.07.28-14.28.25:182][  0]LogConfig: Setting CVar [[gc.FlushStreamingOnGC:0]]
[2020.07.28-14.28.25:182][  0]LogConfig: Setting CVar [[gc.NumRetriesBeforeForcingGC:10]]
[2020.07.28-14.28.25:182][  0]LogConfig: Setting CVar [[gc.AllowParallelGC:1]]
[2020.07.28-14.28.25:182][  0]LogConfig: Setting CVar [[gc.TimeBetweenPurgingPendingKillObjects:61.1]]
[2020.07.28-14.28.25:182][  0]LogConfig: Setting CVar [[gc.MaxObjectsInEditor:25165824]]
[2020.07.28-14.28.25:182][  0]LogConfig: Setting CVar [[gc.IncrementalBeginDestroyEnabled:1]]
[2020.07.28-14.28.25:182][  0]LogConfig: Setting CVar [[gc.CreateGCClusters:1]]
[2020.07.28-14.28.25:182][  0]LogConfig: Setting CVar [[gc.MinGCClusterSize:5]]
[2020.07.28-14.28.25:182][  0]LogConfig: Setting CVar [[gc.ActorClusteringEnabled:0]]
[2020.07.28-14.28.25:182][  0]LogConfig: Setting CVar [[gc.BlueprintClusteringEnabled:0]]
[2020.07.28-14.28.25:182][  0]LogConfig: Setting CVar [[gc.UseDisregardForGCOnDedicatedServers:0]]
[2020.07.28-14.28.25:182][  0]LogConfig: Applying CVar settings from Section [/Script/Engine.NetworkSettings] File [C:/Users/AleixParellada/Desktop/Bomberman/BombermanTest/Saved/Config/Windows/Engine.ini]
[2020.07.28-14.28.25:182][  0]LogConfig: Applying CVar settings from Section [/Script/UnrealEd.CookerSettings] File [C:/Users/AleixParellada/Desktop/Bomberman/BombermanTest/Saved/Config/Windows/Engine.ini]
[2020.07.28-14.28.25:188][  0]LogConfig: Applying CVar settings from Section [ViewDistanceQuality@3] File [C:/Users/AleixParellada/Desktop/Bomberman/BombermanTest/Saved/Config/Windows/Scalability.ini]
[2020.07.28-14.28.25:188][  0]LogConfig: Setting CVar [[r.SkeletalMeshLODBias:0]]
[2020.07.28-14.28.25:188][  0]LogConfig: Setting CVar [[r.ViewDistanceScale:1.0]]
[2020.07.28-14.28.25:188][  0]LogConfig: Applying CVar settings from Section [AntiAliasingQuality@3] File [C:/Users/AleixParellada/Desktop/Bomberman/BombermanTest/Saved/Config/Windows/Scalability.ini]
[2020.07.28-14.28.25:188][  0]LogConfig: Setting CVar [[r.PostProcessAAQuality:4]]
[2020.07.28-14.28.25:188][  0]LogConfig: Applying CVar settings from Section [ShadowQuality@3] File [C:/Users/AleixParellada/Desktop/Bomberman/BombermanTest/Saved/Config/Windows/Scalability.ini]
[2020.07.28-14.28.25:188][  0]LogConfig: Setting CVar [[r.LightFunctionQuality:1]]
[2020.07.28-14.28.25:188][  0]LogConfig: Setting CVar [[r.ShadowQuality:5]]
[2020.07.28-14.28.25:188][  0]LogConfig: Setting CVar [[r.Shadow.CSM.MaxCascades:10]]
[2020.07.28-14.28.25:188][  0]LogConfig: Setting CVar [[r.Shadow.MaxResolution:2048]]
[2020.07.28-14.28.25:188][  0]LogConfig: Setting CVar [[r.Shadow.MaxCSMResolution:2048]]
[2020.07.28-14.28.25:188][  0]LogConfig: Setting CVar [[r.Shadow.RadiusThreshold:0.01]]
[2020.07.28-14.28.25:188][  0]LogConfig: Setting CVar [[r.Shadow.DistanceScale:1.0]]
[2020.07.28-14.28.25:188][  0]LogConfig: Setting CVar [[r.Shadow.CSM.TransitionScale:1.0]]
[2020.07.28-14.28.25:188][  0]LogConfig: Setting CVar [[r.Shadow.PreShadowResolutionFactor:1.0]]
[2020.07.28-14.28.25:188][  0]LogConfig: Setting CVar [[r.DistanceFieldShadowing:1]]
[2020.07.28-14.28.25:188][  0]LogConfig: Setting CVar [[r.DistanceFieldAO:1]]
[2020.07.28-14.28.25:189][  0]LogConfig: Setting CVar [[r.AOQuality:2]]
[2020.07.28-14.28.25:189][  0]LogConfig: Setting CVar [[r.VolumetricFog:1]]
[2020.07.28-14.28.25:189][  0]LogConfig: Setting CVar [[r.VolumetricFog.GridPixelSize:8]]
[2020.07.28-14.28.25:189][  0]LogConfig: Setting CVar [[r.VolumetricFog.GridSizeZ:128]]
[2020.07.28-14.28.25:189][  0]LogConfig: Setting CVar [[r.VolumetricFog.HistoryMissSupersampleCount:4]]
[2020.07.28-14.28.25:189][  0]LogConfig: Setting CVar [[r.LightMaxDrawDistanceScale:1]]
[2020.07.28-14.28.25:189][  0]LogConfig: Setting CVar [[r.CapsuleShadows:1]]
[2020.07.28-14.28.25:189][  0]LogConfig: Applying CVar settings from Section [PostProcessQuality@3] File [C:/Users/AleixParellada/Desktop/Bomberman/BombermanTest/Saved/Config/Windows/Scalability.ini]
[2020.07.28-14.28.25:189][  0]LogConfig: Setting CVar [[r.MotionBlurQuality:4]]
[2020.07.28-14.28.25:189][  0]LogConfig: Setting CVar [[r.AmbientOcclusionMipLevelFactor:0.4]]
[2020.07.28-14.28.25:189][  0]LogConfig: Setting CVar [[r.AmbientOcclusionMaxQuality:100]]
[2020.07.28-14.28.25:189][  0]LogConfig: Setting CVar [[r.AmbientOcclusionLevels:-1]]
[2020.07.28-14.28.25:189][  0]LogConfig: Setting CVar [[r.AmbientOcclusionRadiusScale:1.0]]
[2020.07.28-14.28.25:189][  0]LogConfig: Setting CVar [[r.DepthOfFieldQuality:2]]
[2020.07.28-14.28.25:189][  0]LogConfig: Setting CVar [[r.RenderTargetPoolMin:400]]
[2020.07.28-14.28.25:189][  0]LogConfig: Setting CVar [[r.LensFlareQuality:2]]
[2020.07.28-14.28.25:189][  0]LogConfig: Setting CVar [[r.SceneColorFringeQuality:1]]
[2020.07.28-14.28.25:189][  0]LogConfig: Setting CVar [[r.EyeAdaptationQuality:2]]
[2020.07.28-14.28.25:189][  0]LogConfig: Setting CVar [[r.BloomQuality:5]]
[2020.07.28-14.28.25:189][  0]LogConfig: Setting CVar [[r.FastBlurThreshold:100]]
[2020.07.28-14.28.25:189][  0]LogConfig: Setting CVar [[r.Upscale.Quality:3]]
[2020.07.28-14.28.25:189][  0]LogConfig: Setting CVar [[r.Tonemapper.GrainQuantization:1]]
[2020.07.28-14.28.25:189][  0]LogConfig: Setting CVar [[r.LightShaftQuality:1]]
[2020.07.28-14.28.25:189][  0]LogConfig: Setting CVar [[r.Filter.SizeScale:1]]
[2020.07.28-14.28.25:189][  0]LogConfig: Setting CVar [[r.Tonemapper.Quality:5]]
[2020.07.28-14.28.25:189][  0]LogConfig: Setting CVar [[r.DOF.Gather.AccumulatorQuality:1        ; higher gathering accumulator quality]]
[2020.07.28-14.28.25:189][  0]LogConfig: Setting CVar [[r.DOF.Gather.PostfilterMethod:1          ; Median3x3 postfilering method]]
[2020.07.28-14.28.25:189][  0]LogConfig: Setting CVar [[r.DOF.Gather.EnableBokehSettings:0       ; no bokeh simulation when gathering]]
[2020.07.28-14.28.25:189][  0]LogConfig: Setting CVar [[r.DOF.Gather.RingCount:4                 ; medium number of samples when gathering]]
[2020.07.28-14.28.25:189][  0]LogConfig: Setting CVar [[r.DOF.Scatter.ForegroundCompositing:1    ; additive foreground scattering]]
[2020.07.28-14.28.25:189][  0]LogConfig: Setting CVar [[r.DOF.Scatter.BackgroundCompositing:2    ; additive background scattering]]
[2020.07.28-14.28.25:189][  0]LogConfig: Setting CVar [[r.DOF.Scatter.EnableBokehSettings:1      ; bokeh simulation when scattering]]
[2020.07.28-14.28.25:189][  0]LogConfig: Setting CVar [[r.DOF.Scatter.MaxSpriteRatio:0.1         ; only a maximum of 10% of scattered bokeh]]
[2020.07.28-14.28.25:189][  0]LogConfig: Setting CVar [[r.DOF.Recombine.Quality:1                ; cheap slight out of focus]]
[2020.07.28-14.28.25:189][  0]LogConfig: Setting CVar [[r.DOF.Recombine.EnableBokehSettings:0    ; no bokeh simulation on slight out of focus]]
[2020.07.28-14.28.25:189][  0]LogConfig: Setting CVar [[r.DOF.TemporalAAQuality:1                ; more stable temporal accumulation]]
[2020.07.28-14.28.25:189][  0]LogConfig: Setting CVar [[r.DOF.Kernel.MaxForegroundRadius:0.025]]
[2020.07.28-14.28.25:189][  0]LogConfig: Setting CVar [[r.DOF.Kernel.MaxBackgroundRadius:0.025]]
[2020.07.28-14.28.25:189][  0]LogConfig: Applying CVar settings from Section [TextureQuality@3] File [C:/Users/AleixParellada/Desktop/Bomberman/BombermanTest/Saved/Config/Windows/Scalability.ini]
[2020.07.28-14.28.25:189][  0]LogConfig: Setting CVar [[r.Streaming.MipBias:0]]
[2020.07.28-14.28.25:189][  0]LogConfig: Setting CVar [[r.Streaming.AmortizeCPUToGPUCopy:0]]
[2020.07.28-14.28.25:189][  0]LogConfig: Setting CVar [[r.Streaming.MaxNumTexturesToStreamPerFrame:0]]
[2020.07.28-14.28.25:189][  0]LogConfig: Setting CVar [[r.Streaming.Boost:1]]
[2020.07.28-14.28.25:189][  0]LogConfig: Setting CVar [[r.MaxAnisotropy:8]]
[2020.07.28-14.28.25:189][  0]LogConfig: Setting CVar [[r.VT.MaxAnisotropy:8]]
[2020.07.28-14.28.25:189][  0]LogConfig: Setting CVar [[r.Streaming.LimitPoolSizeToVRAM:0]]
[2020.07.28-14.28.25:189][  0]LogConfig: Setting CVar [[r.Streaming.PoolSize:1000]]
[2020.07.28-14.28.25:189][  0]LogConfig: Setting CVar [[r.Streaming.MaxEffectiveScreenSize:0]]
[2020.07.28-14.28.25:189][  0]LogConfig: Applying CVar settings from Section [EffectsQuality@3] File [C:/Users/AleixParellada/Desktop/Bomberman/BombermanTest/Saved/Config/Windows/Scalability.ini]
[2020.07.28-14.28.25:189][  0]LogConfig: Setting CVar [[r.TranslucencyLightingVolumeDim:64]]
[2020.07.28-14.28.25:189][  0]LogConfig: Setting CVar [[r.RefractionQuality:2]]
[2020.07.28-14.28.25:189][  0]LogConfig: Setting CVar [[r.SSR.Quality:3]]
[2020.07.28-14.28.25:189][  0]LogConfig: Setting CVar [[r.SSR.HalfResSceneColor:0]]
[2020.07.28-14.28.25:189][  0]LogConfig: Setting CVar [[r.SceneColorFormat:4]]
[2020.07.28-14.28.25:189][  0]LogConfig: Setting CVar [[r.DetailMode:2]]
[2020.07.28-14.28.25:189][  0]LogConfig: Setting CVar [[r.TranslucencyVolumeBlur:1]]
[2020.07.28-14.28.25:189][  0]LogConfig: Setting CVar [[r.MaterialQualityLevel:1 ; High quality]]
[2020.07.28-14.28.25:189][  0]LogConfig: Setting CVar [[r.SSS.Scale:1]]
[2020.07.28-14.28.25:189][  0]LogConfig: Setting CVar [[r.SSS.SampleSet:2]]
[2020.07.28-14.28.25:189][  0]LogConfig: Setting CVar [[r.SSS.Quality:1]]
[2020.07.28-14.28.25:189][  0]LogConfig: Setting CVar [[r.SSS.HalfRes:0]]
[2020.07.28-14.28.25:189][  0]LogConfig: Setting CVar [[r.SSGI.Quality:3]]
[2020.07.28-14.28.25:189][  0]LogConfig: Setting CVar [[r.EmitterSpawnRateScale:1.0]]
[2020.07.28-14.28.25:189][  0]LogConfig: Setting CVar [[r.ParticleLightQuality:2]]
[2020.07.28-14.28.25:189][  0]LogConfig: Setting CVar [[r.SkyAtmosphere.AerialPerspectiveLUT.FastApplyOnOpaque:1 ; Always have FastSkyLUT 1 in this case to avoid wrong sky]]
[2020.07.28-14.28.25:189][  0]LogConfig: Setting CVar [[r.SkyAtmosphere.AerialPerspectiveLUT.SampleCountPerSlice:1]]
[2020.07.28-14.28.25:189][  0]LogConfig: Setting CVar [[r.SkyAtmosphere.AerialPerspectiveLUT.DepthResolution:16.0]]
[2020.07.28-14.28.25:189][  0]LogConfig: Setting CVar [[r.SkyAtmosphere.FastSkyLUT:1]]
[2020.07.28-14.28.25:189][  0]LogConfig: Setting CVar [[r.SkyAtmosphere.FastSkyLUT.SampleCountMin:4.0]]
[2020.07.28-14.28.25:189][  0]LogConfig: Setting CVar [[r.SkyAtmosphere.FastSkyLUT.SampleCountMax:32.0]]
[2020.07.28-14.28.25:189][  0]LogConfig: Setting CVar [[r.SkyAtmosphere.SampleCountMin:4.0]]
[2020.07.28-14.28.25:189][  0]LogConfig: Setting CVar [[r.SkyAtmosphere.SampleCountMax:32.0]]
[2020.07.28-14.28.25:189][  0]LogConfig: Setting CVar [[r.SkyAtmosphere.TransmittanceLUT.UseSmallFormat:0]]
[2020.07.28-14.28.25:189][  0]LogConfig: Setting CVar [[r.SkyAtmosphere.TransmittanceLUT.SampleCount:10.0]]
[2020.07.28-14.28.25:189][  0]LogConfig: Setting CVar [[r.SkyAtmosphere.MultiScatteringLUT.SampleCount:15.0]]
[2020.07.28-14.28.25:189][  0]LogConfig: Applying CVar settings from Section [FoliageQuality@3] File [C:/Users/AleixParellada/Desktop/Bomberman/BombermanTest/Saved/Config/Windows/Scalability.ini]
[2020.07.28-14.28.25:189][  0]LogConfig: Setting CVar [[foliage.DensityScale:1.0]]
[2020.07.28-14.28.25:189][  0]LogConfig: Setting CVar [[grass.DensityScale:1.0]]
[2020.07.28-14.28.25:189][  0]LogConfig: Applying CVar settings from Section [ShadingQuality@3] File [C:/Users/AleixParellada/Desktop/Bomberman/BombermanTest/Saved/Config/Windows/Scalability.ini]
[2020.07.28-14.28.25:189][  0]LogConfig: Setting CVar [[r.HairStrands.SkyLighting.SampleCount:16]]
[2020.07.28-14.28.25:189][  0]LogConfig: Setting CVar [[r.HairStrands.SkyLighting.JitterIntegration:0]]
[2020.07.28-14.28.25:189][  0]LogConfig: Setting CVar [[r.HairStrands.SkyAO.SampleCount:16]]
[2020.07.28-14.28.25:189][  0]LogConfig: Setting CVar [[r.HairStrands.DeepShadow.SuperSampling:0]]
[2020.07.28-14.28.25:190][  0]LogConfig: Setting CVar [[r.HairStrands.VisibilityPPLL:0]]
[2020.07.28-14.28.25:190][  0]LogConfig: Setting CVar [[r.HairStrands.RasterizationScale:0.5]]
[2020.07.28-14.28.25:190][  0]LogConfig: Setting CVar [[r.HairStrands.VelocityRasterizationScale:1]]
[2020.07.28-14.28.25:190][  0]LogInit: Selected Device Profile: [Windows]
[2020.07.28-14.28.25:190][  0]LogInit: Applying CVar settings loaded from the selected device profile: [Windows]
[2020.07.28-14.28.25:190][  0]LogHAL: Display: Platform has ~ 40 GB [42842025984 / 68719476736 / 40], which maps to Largest [LargestMinGB=32, LargerMinGB=12, DefaultMinGB=8, SmallerMinGB=6, SmallestMinGB=0)
[2020.07.28-14.28.25:190][  0]LogInit: Going up to parent DeviceProfile []
[2020.07.28-14.28.25:190][  0]LogConfig: Applying CVar settings from Section [ViewDistanceQuality@3] File [C:/Users/AleixParellada/Desktop/Bomberman/BombermanTest/Saved/Config/Windows/Scalability.ini]
[2020.07.28-14.28.25:190][  0]LogConfig: Setting CVar [[r.SkeletalMeshLODBias:0]]
[2020.07.28-14.28.25:190][  0]LogConfig: Setting CVar [[r.ViewDistanceScale:1.0]]
[2020.07.28-14.28.25:190][  0]LogConfig: Applying CVar settings from Section [AntiAliasingQuality@3] File [C:/Users/AleixParellada/Desktop/Bomberman/BombermanTest/Saved/Config/Windows/Scalability.ini]
[2020.07.28-14.28.25:190][  0]LogConfig: Setting CVar [[r.PostProcessAAQuality:4]]
[2020.07.28-14.28.25:190][  0]LogConfig: Applying CVar settings from Section [ShadowQuality@3] File [C:/Users/AleixParellada/Desktop/Bomberman/BombermanTest/Saved/Config/Windows/Scalability.ini]
[2020.07.28-14.28.25:190][  0]LogConfig: Setting CVar [[r.LightFunctionQuality:1]]
[2020.07.28-14.28.25:190][  0]LogConfig: Setting CVar [[r.ShadowQuality:5]]
[2020.07.28-14.28.25:190][  0]LogConfig: Setting CVar [[r.Shadow.CSM.MaxCascades:10]]
[2020.07.28-14.28.25:190][  0]LogConfig: Setting CVar [[r.Shadow.MaxResolution:2048]]
[2020.07.28-14.28.25:190][  0]LogConfig: Setting CVar [[r.Shadow.MaxCSMResolution:2048]]
[2020.07.28-14.28.25:190][  0]LogConfig: Setting CVar [[r.Shadow.RadiusThreshold:0.01]]
[2020.07.28-14.28.25:190][  0]LogConfig: Setting CVar [[r.Shadow.DistanceScale:1.0]]
[2020.07.28-14.28.25:190][  0]LogConfig: Setting CVar [[r.Shadow.CSM.TransitionScale:1.0]]
[2020.07.28-14.28.25:190][  0]LogConfig: Setting CVar [[r.Shadow.PreShadowResolutionFactor:1.0]]
[2020.07.28-14.28.25:190][  0]LogConfig: Setting CVar [[r.DistanceFieldShadowing:1]]
[2020.07.28-14.28.25:190][  0]LogConfig: Setting CVar [[r.DistanceFieldAO:1]]
[2020.07.28-14.28.25:190][  0]LogConfig: Setting CVar [[r.AOQuality:2]]
[2020.07.28-14.28.25:190][  0]LogConfig: Setting CVar [[r.VolumetricFog:1]]
[2020.07.28-14.28.25:190][  0]LogConfig: Setting CVar [[r.VolumetricFog.GridPixelSize:8]]
[2020.07.28-14.28.25:190][  0]LogConfig: Setting CVar [[r.VolumetricFog.GridSizeZ:128]]
[2020.07.28-14.28.25:190][  0]LogConfig: Setting CVar [[r.VolumetricFog.HistoryMissSupersampleCount:4]]
[2020.07.28-14.28.25:190][  0]LogConfig: Setting CVar [[r.LightMaxDrawDistanceScale:1]]
[2020.07.28-14.28.25:190][  0]LogConfig: Setting CVar [[r.CapsuleShadows:1]]
[2020.07.28-14.28.25:190][  0]LogConfig: Applying CVar settings from Section [PostProcessQuality@3] File [C:/Users/AleixParellada/Desktop/Bomberman/BombermanTest/Saved/Config/Windows/Scalability.ini]
[2020.07.28-14.28.25:190][  0]LogConfig: Setting CVar [[r.MotionBlurQuality:4]]
[2020.07.28-14.28.25:190][  0]LogConfig: Setting CVar [[r.AmbientOcclusionMipLevelFactor:0.4]]
[2020.07.28-14.28.25:190][  0]LogConfig: Setting CVar [[r.AmbientOcclusionMaxQuality:100]]
[2020.07.28-14.28.25:190][  0]LogConfig: Setting CVar [[r.AmbientOcclusionLevels:-1]]
[2020.07.28-14.28.25:190][  0]LogConfig: Setting CVar [[r.AmbientOcclusionRadiusScale:1.0]]
[2020.07.28-14.28.25:190][  0]LogConfig: Setting CVar [[r.DepthOfFieldQuality:2]]
[2020.07.28-14.28.25:190][  0]LogConfig: Setting CVar [[r.RenderTargetPoolMin:400]]
[2020.07.28-14.28.25:190][  0]LogConfig: Setting CVar [[r.LensFlareQuality:2]]
[2020.07.28-14.28.25:190][  0]LogConfig: Setting CVar [[r.SceneColorFringeQuality:1]]
[2020.07.28-14.28.25:190][  0]LogConfig: Setting CVar [[r.EyeAdaptationQuality:2]]
[2020.07.28-14.28.25:190][  0]LogConfig: Setting CVar [[r.BloomQuality:5]]
[2020.07.28-14.28.25:190][  0]LogConfig: Setting CVar [[r.FastBlurThreshold:100]]
[2020.07.28-14.28.25:190][  0]LogConfig: Setting CVar [[r.Upscale.Quality:3]]
[2020.07.28-14.28.25:190][  0]LogConfig: Setting CVar [[r.Tonemapper.GrainQuantization:1]]
[2020.07.28-14.28.25:190][  0]LogConfig: Setting CVar [[r.LightShaftQuality:1]]
[2020.07.28-14.28.25:190][  0]LogConfig: Setting CVar [[r.Filter.SizeScale:1]]
[2020.07.28-14.28.25:190][  0]LogConfig: Setting CVar [[r.Tonemapper.Quality:5]]
[2020.07.28-14.28.25:190][  0]LogConfig: Setting CVar [[r.DOF.Gather.AccumulatorQuality:1        ; higher gathering accumulator quality]]
[2020.07.28-14.28.25:190][  0]LogConfig: Setting CVar [[r.DOF.Gather.PostfilterMethod:1          ; Median3x3 postfilering method]]
[2020.07.28-14.28.25:190][  0]LogConfig: Setting CVar [[r.DOF.Gather.EnableBokehSettings:0       ; no bokeh simulation when gathering]]
[2020.07.28-14.28.25:190][  0]LogConfig: Setting CVar [[r.DOF.Gather.RingCount:4                 ; medium number of samples when gathering]]
[2020.07.28-14.28.25:190][  0]LogConfig: Setting CVar [[r.DOF.Scatter.ForegroundCompositing:1    ; additive foreground scattering]]
[2020.07.28-14.28.25:190][  0]LogConfig: Setting CVar [[r.DOF.Scatter.BackgroundCompositing:2    ; additive background scattering]]
[2020.07.28-14.28.25:190][  0]LogConfig: Setting CVar [[r.DOF.Scatter.EnableBokehSettings:1      ; bokeh simulation when scattering]]
[2020.07.28-14.28.25:190][  0]LogConfig: Setting CVar [[r.DOF.Scatter.MaxSpriteRatio:0.1         ; only a maximum of 10% of scattered bokeh]]
[2020.07.28-14.28.25:190][  0]LogConfig: Setting CVar [[r.DOF.Recombine.Quality:1                ; cheap slight out of focus]]
[2020.07.28-14.28.25:190][  0]LogConfig: Setting CVar [[r.DOF.Recombine.EnableBokehSettings:0    ; no bokeh simulation on slight out of focus]]
[2020.07.28-14.28.25:190][  0]LogConfig: Setting CVar [[r.DOF.TemporalAAQuality:1                ; more stable temporal accumulation]]
[2020.07.28-14.28.25:190][  0]LogConfig: Setting CVar [[r.DOF.Kernel.MaxForegroundRadius:0.025]]
[2020.07.28-14.28.25:190][  0]LogConfig: Setting CVar [[r.DOF.Kernel.MaxBackgroundRadius:0.025]]
[2020.07.28-14.28.25:190][  0]LogConfig: Applying CVar settings from Section [TextureQuality@3] File [C:/Users/AleixParellada/Desktop/Bomberman/BombermanTest/Saved/Config/Windows/Scalability.ini]
[2020.07.28-14.28.25:190][  0]LogConfig: Setting CVar [[r.Streaming.MipBias:0]]
[2020.07.28-14.28.25:190][  0]LogConfig: Setting CVar [[r.Streaming.AmortizeCPUToGPUCopy:0]]
[2020.07.28-14.28.25:190][  0]LogConfig: Setting CVar [[r.Streaming.MaxNumTexturesToStreamPerFrame:0]]
[2020.07.28-14.28.25:190][  0]LogConfig: Setting CVar [[r.Streaming.Boost:1]]
[2020.07.28-14.28.25:190][  0]LogConfig: Setting CVar [[r.MaxAnisotropy:8]]
[2020.07.28-14.28.25:190][  0]LogConfig: Setting CVar [[r.VT.MaxAnisotropy:8]]
[2020.07.28-14.28.25:190][  0]LogConfig: Setting CVar [[r.Streaming.LimitPoolSizeToVRAM:0]]
[2020.07.28-14.28.25:190][  0]LogConfig: Setting CVar [[r.Streaming.PoolSize:1000]]
[2020.07.28-14.28.25:190][  0]LogConfig: Setting CVar [[r.Streaming.MaxEffectiveScreenSize:0]]
[2020.07.28-14.28.25:190][  0]LogConfig: Applying CVar settings from Section [EffectsQuality@3] File [C:/Users/AleixParellada/Desktop/Bomberman/BombermanTest/Saved/Config/Windows/Scalability.ini]
[2020.07.28-14.28.25:190][  0]LogConfig: Setting CVar [[r.TranslucencyLightingVolumeDim:64]]
[2020.07.28-14.28.25:190][  0]LogConfig: Setting CVar [[r.RefractionQuality:2]]
[2020.07.28-14.28.25:190][  0]LogConfig: Setting CVar [[r.SSR.Quality:3]]
[2020.07.28-14.28.25:190][  0]LogConfig: Setting CVar [[r.SSR.HalfResSceneColor:0]]
[2020.07.28-14.28.25:190][  0]LogConfig: Setting CVar [[r.SceneColorFormat:4]]
[2020.07.28-14.28.25:190][  0]LogConfig: Setting CVar [[r.DetailMode:2]]
[2020.07.28-14.28.25:191][  0]LogConfig: Setting CVar [[r.TranslucencyVolumeBlur:1]]
[2020.07.28-14.28.25:191][  0]LogConfig: Setting CVar [[r.MaterialQualityLevel:1 ; High quality]]
[2020.07.28-14.28.25:191][  0]LogConfig: Setting CVar [[r.SSS.Scale:1]]
[2020.07.28-14.28.25:191][  0]LogConfig: Setting CVar [[r.SSS.SampleSet:2]]
[2020.07.28-14.28.25:191][  0]LogConfig: Setting CVar [[r.SSS.Quality:1]]
[2020.07.28-14.28.25:191][  0]LogConfig: Setting CVar [[r.SSS.HalfRes:0]]
[2020.07.28-14.28.25:191][  0]LogConfig: Setting CVar [[r.SSGI.Quality:3]]
[2020.07.28-14.28.25:191][  0]LogConfig: Setting CVar [[r.EmitterSpawnRateScale:1.0]]
[2020.07.28-14.28.25:191][  0]LogConfig: Setting CVar [[r.ParticleLightQuality:2]]
[2020.07.28-14.28.25:191][  0]LogConfig: Setting CVar [[r.SkyAtmosphere.AerialPerspectiveLUT.FastApplyOnOpaque:1 ; Always have FastSkyLUT 1 in this case to avoid wrong sky]]
[2020.07.28-14.28.25:191][  0]LogConfig: Setting CVar [[r.SkyAtmosphere.AerialPerspectiveLUT.SampleCountPerSlice:1]]
[2020.07.28-14.28.25:191][  0]LogConfig: Setting CVar [[r.SkyAtmosphere.AerialPerspectiveLUT.DepthResolution:16.0]]
[2020.07.28-14.28.25:191][  0]LogConfig: Setting CVar [[r.SkyAtmosphere.FastSkyLUT:1]]
[2020.07.28-14.28.25:191][  0]LogConfig: Setting CVar [[r.SkyAtmosphere.FastSkyLUT.SampleCountMin:4.0]]
[2020.07.28-14.28.25:191][  0]LogConfig: Setting CVar [[r.SkyAtmosphere.FastSkyLUT.SampleCountMax:32.0]]
[2020.07.28-14.28.25:191][  0]LogConfig: Setting CVar [[r.SkyAtmosphere.SampleCountMin:4.0]]
[2020.07.28-14.28.25:191][  0]LogConfig: Setting CVar [[r.SkyAtmosphere.SampleCountMax:32.0]]
[2020.07.28-14.28.25:191][  0]LogConfig: Setting CVar [[r.SkyAtmosphere.TransmittanceLUT.UseSmallFormat:0]]
[2020.07.28-14.28.25:191][  0]LogConfig: Setting CVar [[r.SkyAtmosphere.TransmittanceLUT.SampleCount:10.0]]
[2020.07.28-14.28.25:191][  0]LogConfig: Setting CVar [[r.SkyAtmosphere.MultiScatteringLUT.SampleCount:15.0]]
[2020.07.28-14.28.25:191][  0]LogConfig: Applying CVar settings from Section [FoliageQuality@3] File [C:/Users/AleixParellada/Desktop/Bomberman/BombermanTest/Saved/Config/Windows/Scalability.ini]
[2020.07.28-14.28.25:191][  0]LogConfig: Setting CVar [[foliage.DensityScale:1.0]]
[2020.07.28-14.28.25:191][  0]LogConfig: Setting CVar [[grass.DensityScale:1.0]]
[2020.07.28-14.28.25:191][  0]LogConfig: Applying CVar settings from Section [ShadingQuality@3] File [C:/Users/AleixParellada/Desktop/Bomberman/BombermanTest/Saved/Config/Windows/Scalability.ini]
[2020.07.28-14.28.25:191][  0]LogConfig: Setting CVar [[r.HairStrands.SkyLighting.SampleCount:16]]
[2020.07.28-14.28.25:191][  0]LogConfig: Setting CVar [[r.HairStrands.SkyLighting.JitterIntegration:0]]
[2020.07.28-14.28.25:191][  0]LogConfig: Setting CVar [[r.HairStrands.SkyAO.SampleCount:16]]
[2020.07.28-14.28.25:191][  0]LogConfig: Setting CVar [[r.HairStrands.DeepShadow.SuperSampling:0]]
[2020.07.28-14.28.25:191][  0]LogConfig: Setting CVar [[r.HairStrands.VisibilityPPLL:0]]
[2020.07.28-14.28.25:191][  0]LogConfig: Setting CVar [[r.HairStrands.RasterizationScale:0.5]]
[2020.07.28-14.28.25:191][  0]LogConfig: Setting CVar [[r.HairStrands.VelocityRasterizationScale:1]]
[2020.07.28-14.28.25:191][  0]LogConfig: Applying CVar settings from Section [Startup] File [../../../Engine/Config/ConsoleVariables.ini]
[2020.07.28-14.28.25:191][  0]LogConfig: Setting CVar [[net.UseAdaptiveNetUpdateFrequency:0]]
[2020.07.28-14.28.25:191][  0]LogConfig: Setting CVar [[p.chaos.AllowCreatePhysxBodies:1]]
[2020.07.28-14.28.25:191][  0]LogConfig: Setting CVar [[fx.SkipVectorVMBackendOptimizations:1]]
[2020.07.28-14.28.25:191][  0]LogConfig: Applying CVar settings from Section [ConsoleVariables] File [C:/Users/AleixParellada/Desktop/Bomberman/BombermanTest/Saved/Config/Windows/Engine.ini]
[2020.07.28-14.28.25:191][  0]LogInit: Computer: DESKTOP-KJT7HP6
[2020.07.28-14.28.25:191][  0]LogInit: User: AleixParellada
[2020.07.28-14.28.25:191][  0]LogInit: CPU Page size=4096, Cores=4
[2020.07.28-14.28.25:191][  0]LogInit: High frequency timer resolution =10.000000 MHz
[2020.07.28-14.28.25:191][  0]LogMemory: Memory total: Physical=39.9GB (40GB approx)
[2020.07.28-14.28.25:191][  0]LogMemory: Platform Memory Stats for Windows
[2020.07.28-14.28.25:191][  0]LogMemory: Process Physical Memory: 114.26 MB used, 114.27 MB peak
[2020.07.28-14.28.25:191][  0]LogMemory: Process Virtual Memory: 96.24 MB used, 96.24 MB peak
[2020.07.28-14.28.25:191][  0]LogMemory: Physical Memory: 13197.38 MB used,  27659.96 MB free, 40857.34 MB total
[2020.07.28-14.28.25:191][  0]LogMemory: Virtual Memory: 5143.57 MB used,  134212584.00 MB free, 134217728.00 MB total
[2020.07.28-14.28.25:196][  0]LogWindows: WindowsPlatformFeatures enabled
[2020.07.28-14.28.25:219][  0]LogInit: Physics initialised using underlying interface: PhysX
[2020.07.28-14.28.25:220][  0]LogInit: Overriding language with editor language configuration option (en).
[2020.07.28-14.28.25:220][  0]LogInit: Overriding locale with editor locale configuration option (en).
[2020.07.28-14.28.25:370][  0]LogInit: Setting process to per monitor DPI aware
[2020.07.28-14.28.25:417][  0]LogSlate: New Slate User Created.  User Index 0, Is Virtual User: 0
[2020.07.28-14.28.25:417][  0]LogSlate: Slate User Registered.  User Index 0, Is Virtual User: 0
[2020.07.28-14.28.25:561][  0]LogHMD: Failed to initialize OpenVR with code 110
[2020.07.28-14.28.25:561][  0]LogD3D11RHI: D3D11 min allowed feature level: 11_0
[2020.07.28-14.28.25:561][  0]LogD3D11RHI: D3D11 max allowed feature level: 11_0
[2020.07.28-14.28.25:561][  0]LogD3D11RHI: D3D11 adapters:
[2020.07.28-14.28.25:639][  0]LogD3D11RHI:    0. 'Radeon Pro 580' (Feature Level 11_0)
[2020.07.28-14.28.25:639][  0]LogD3D11RHI:       8137/0/20428 MB DedicatedVideo/DedicatedSystem/SharedSystem, Outputs:2, VendorId:0x1002
[2020.07.28-14.28.25:641][  0]LogD3D11RHI:    1. 'Microsoft Basic Render Driver' (Feature Level 11_0)
[2020.07.28-14.28.25:641][  0]LogD3D11RHI:       0/0/20428 MB DedicatedVideo/DedicatedSystem/SharedSystem, Outputs:0, VendorId:0x1414
[2020.07.28-14.28.25:641][  0]LogD3D11RHI: Chosen D3D11 Adapter: 0
[2020.07.28-14.28.25:648][  0]LogD3D11RHI: Creating new Direct3DDevice
[2020.07.28-14.28.25:648][  0]LogD3D11RHI:     GPU DeviceId: 0x67df (for the marketing name, search the web for "GPU Device Id")
[2020.07.28-14.28.25:648][  0]LogWindows: EnumDisplayDevices:
[2020.07.28-14.28.25:649][  0]LogWindows:    0. 'Radeon Pro 580' (P:1 D:1)
[2020.07.28-14.28.25:649][  0]LogWindows:    1. 'Radeon Pro 580' (P:0 D:1)
[2020.07.28-14.28.25:649][  0]LogWindows:    2. 'Radeon Pro 580' (P:0 D:0)
[2020.07.28-14.28.25:650][  0]LogWindows:    3. 'Radeon Pro 580' (P:0 D:0)
[2020.07.28-14.28.25:650][  0]LogWindows:    4. 'Radeon Pro 580' (P:0 D:0)
[2020.07.28-14.28.25:650][  0]LogWindows:    5. 'Radeon Pro 580' (P:0 D:0)
[2020.07.28-14.28.25:651][  0]LogWindows:    6. 'Radeon Pro 580' (P:0 D:0)
[2020.07.28-14.28.25:651][  0]LogWindows:    7. 'Radeon Pro 580' (P:0 D:0)
[2020.07.28-14.28.25:651][  0]LogWindows: DebugString: FoundDriverCount:8 
[2020.07.28-14.28.25:651][  0]LogD3D11RHI:     Adapter Name: Radeon Pro 580
[2020.07.28-14.28.25:651][  0]LogD3D11RHI:   Driver Version: Adrenalin 19.30.01.33 (internal:26.20.13001.33012, unified:26.20.13001.33012)
[2020.07.28-14.28.25:651][  0]LogD3D11RHI:      Driver Date: 11-21-2019
[2020.07.28-14.28.25:651][  0]LogRHI: Texture pool is 4841 MB (70% of 6916 MB)
[2020.07.28-14.28.25:734][  0]LogD3D11RHI: RHI does not have support for 64 bit atomics
[2020.07.28-14.28.25:734][  0]LogD3D11RHI: Async texture creation enabled
[2020.07.28-14.28.25:734][  0]LogD3D11RHI: Array index from any shader is supported
[2020.07.28-14.28.25:749][  0]LogD3D11RHI: GPU Timing Frequency: 25.000000 (Debug: 2 1)
[2020.07.28-14.28.25:989][  0]LogTargetPlatformManager: Display: Loaded TargetPlatform 'AllDesktop'
[2020.07.28-14.28.26:008][  0]LogTargetPlatformManager: Display: Loaded TargetPlatform 'Android'
[2020.07.28-14.28.26:008][  0]LogTargetPlatformManager: Display: Loaded TargetPlatform 'Android_ASTC'
[2020.07.28-14.28.26:008][  0]LogTargetPlatformManager: Display: Loaded TargetPlatform 'Android_DXT'
[2020.07.28-14.28.26:008][  0]LogTargetPlatformManager: Display: Loaded TargetPlatform 'Android_ETC2'
[2020.07.28-14.28.26:008][  0]LogTargetPlatformManager: Display: Loaded TargetPlatform 'AndroidClient'
[2020.07.28-14.28.26:008][  0]LogTargetPlatformManager: Display: Loaded TargetPlatform 'Android_ASTCClient'
[2020.07.28-14.28.26:008][  0]LogTargetPlatformManager: Display: Loaded TargetPlatform 'Android_DXTClient'
[2020.07.28-14.28.26:008][  0]LogTargetPlatformManager: Display: Loaded TargetPlatform 'Android_ETC2Client'
[2020.07.28-14.28.26:008][  0]LogTargetPlatformManager: Display: Loaded TargetPlatform 'Android_Multi'
[2020.07.28-14.28.26:008][  0]LogTargetPlatformManager: Display: Loaded TargetPlatform 'Android_MultiClient'
[2020.07.28-14.28.26:027][  0]LogTargetPlatformManager: Display: Loaded TargetPlatform 'IOSClient'
[2020.07.28-14.28.26:027][  0]LogTargetPlatformManager: Display: Loaded TargetPlatform 'IOS'
[2020.07.28-14.28.26:035][  0]LogTargetPlatformManager: Display: Loaded TargetPlatform 'Linux'
[2020.07.28-14.28.26:043][  0]LogTargetPlatformManager: Display: Loaded TargetPlatform 'LinuxNoEditor'
[2020.07.28-14.28.26:052][  0]LogTargetPlatformManager: Display: Loaded TargetPlatform 'LinuxClient'
[2020.07.28-14.28.26:060][  0]LogTargetPlatformManager: Display: Loaded TargetPlatform 'LinuxServer'
[2020.07.28-14.28.26:068][  0]LogTargetPlatformManager: Display: Loaded TargetPlatform 'LinuxAArch64NoEditor'
[2020.07.28-14.28.26:076][  0]LogTargetPlatformManager: Display: Loaded TargetPlatform 'LinuxAArch64Client'
[2020.07.28-14.28.26:084][  0]LogTargetPlatformManager: Display: Loaded TargetPlatform 'LinuxAArch64Server'
[2020.07.28-14.28.26:106][  0]LogTargetPlatformManager: Display: Loaded TargetPlatform 'Lumin'
[2020.07.28-14.28.26:106][  0]LogTargetPlatformManager: Display: Loaded TargetPlatform 'LuminClient'
[2020.07.28-14.28.26:119][  0]LogTargetPlatformManager: Display: Loaded TargetPlatform 'TVOSClient'
[2020.07.28-14.28.26:120][  0]LogTargetPlatformManager: Display: Loaded TargetPlatform 'TVOS'
[2020.07.28-14.28.26:127][  0]LogTargetPlatformManager: Display: Loaded TargetPlatform 'WindowsNoEditor'
[2020.07.28-14.28.26:135][  0]LogTargetPlatformManager: Display: Loaded TargetPlatform 'Windows'
[2020.07.28-14.28.26:142][  0]LogTargetPlatformManager: Display: Loaded TargetPlatform 'WindowsClient'
[2020.07.28-14.28.26:150][  0]LogTargetPlatformManager: Display: Loaded TargetPlatform 'WindowsServer'
[2020.07.28-14.28.26:150][  0]LogTargetPlatformManager: Display: Building Assets For Windows
[2020.07.28-14.28.26:156][  0]LogAudioDebug: Display: Lib vorbis DLL was dynamically loaded.
[2020.07.28-14.28.26:203][  0]LogShaderCompilers: Guid format shader working directory is -16 characters bigger than the processId version (../../../../../../Users/AleixParellada/Desktop/Bomberman/BombermanTest/Intermediate/Shaders/WorkingDirectory/14880/).
[2020.07.28-14.28.26:203][  0]LogShaderCompilers: Cleaned the shader compiler working directory 'C:/Users/AleixParellada/AppData/Local/Temp/UnrealShaderWorkingDir/A88BCABC4724E0D0C2640B9FF9D0BFB0/'.
[2020.07.28-14.28.26:203][  0]LogXGEController: Cleaning working directory: C:/Users/AleixParellada/AppData/Local/Temp/UnrealXGEWorkingDir/
[2020.07.28-14.28.26:204][  0]LogShaderCompilers: Display: Using XGE Shader Compiler (Interception Interface).
[2020.07.28-14.28.26:803][  0]LogDerivedDataCache: Display: Max Cache Size: 512 MB
[2020.07.28-14.28.26:852][  0]LogDerivedDataCache: Loaded boot cache 0.05s 75MB C:/Users/AleixParellada/AppData/Local/UnrealEngine/4.25/DerivedDataCache/Boot.ddc.
[2020.07.28-14.28.26:852][  0]LogDerivedDataCache: Display: Loaded Boot cache: C:/Users/AleixParellada/AppData/Local/UnrealEngine/4.25/DerivedDataCache/Boot.ddc
[2020.07.28-14.28.26:852][  0]LogDerivedDataCache: FDerivedDataBackendGraph:  Pak pak cache file ../../../../../../Users/AleixParellada/Desktop/Bomberman/BombermanTest/DerivedDataCache/DDC.ddp not found, will not use a pak cache.
[2020.07.28-14.28.26:852][  0]LogDerivedDataCache: Unable to find inner node Pak for hierarchical cache Hierarchy.
[2020.07.28-14.28.26:852][  0]LogDerivedDataCache: FDerivedDataBackendGraph:  CompressedPak pak cache file ../../../../../../Users/AleixParellada/Desktop/Bomberman/BombermanTest/DerivedDataCache/Compressed.ddp not found, will not use a pak cache.
[2020.07.28-14.28.26:852][  0]LogDerivedDataCache: Unable to find inner node CompressedPak for hierarchical cache Hierarchy.
[2020.07.28-14.28.26:860][  0]LogDerivedDataCache: Display: Pak cache opened for reading ../../../Engine/DerivedDataCache/Compressed.ddp.
[2020.07.28-14.28.26:860][  0]LogDerivedDataCache: FDerivedDataBackendGraph:  EnterprisePak pak cache file ../../../Enterprise/DerivedDataCache/Compressed.ddp not found, will not use a pak cache.
[2020.07.28-14.28.26:860][  0]LogDerivedDataCache: Unable to find inner node EnterprisePak for hierarchical cache Hierarchy.
[2020.07.28-14.28.26:862][  0]LogDerivedDataCache: Using Local data cache path C:/Users/AleixParellada/AppData/Local/UnrealEngine/Common/DerivedDataCache: Writable
[2020.07.28-14.28.26:862][  0]LogDerivedDataCache: Shared data cache path not found in *engine.ini, will not use an Shared cache.
[2020.07.28-14.28.26:862][  0]LogDerivedDataCache: Unable to find inner node Shared for hierarchical cache Hierarchy.
[2020.07.28-14.28.26:905][  0]LogSlate: Using FreeType 2.10.0
[2020.07.28-14.28.26:905][  0]LogSlate: SlateFontServices - WITH_FREETYPE: 1, WITH_HARFBUZZ: 1
[2020.07.28-14.28.26:925][  0]LogAssetRegistry: FAssetRegistry took 0.0022 seconds to start up
[2020.07.28-14.28.27:125][  0]LogInit: Selected Device Profile: [Windows]
[2020.07.28-14.28.27:216][  0]LogMeshReduction: Using QuadricMeshReduction for automatic static mesh reduction
[2020.07.28-14.28.27:216][  0]LogMeshReduction: Using SimplygonMeshReduction for automatic skeletal mesh reduction
[2020.07.28-14.28.27:216][  0]LogMeshReduction: Using ProxyLODMeshReduction for automatic mesh merging
[2020.07.28-14.28.27:216][  0]LogMeshReduction: No distributed automatic mesh merging module available
[2020.07.28-14.28.27:216][  0]LogMeshMerging: No distributed automatic mesh merging module available
[2020.07.28-14.28.27:231][  0]LogNetVersion: BombermanTest 1.0.0, NetCL: 13144385, EngineNetVer: 14, GameNetVer: 0 (Checksum: 2821703811)
[2020.07.28-14.28.27:568][  0]LogAISub: UAISubsystem::UAISubsystem AISubsystem (00000174AE698380), frame # 0
[2020.07.28-14.28.27:568][  0]LogAISub: UAISubsystem::UAISubsystem AIPerceptionSystem (00000174AE5D2AC0), frame # 0
[2020.07.28-14.28.27:569][  0]LogAISub: UAISubsystem::UAISubsystem EnvQueryManager (00000174AE629E00), frame # 0
[2020.07.28-14.28.27:626][  0]LogPackageLocalizationCache: Processed 19 localized package path(s) for 1 prioritized culture(s) in 0.052362 seconds
[2020.07.28-14.28.27:631][  0]LogUObjectArray: 15917 objects as part of root set at end of initial load.
[2020.07.28-14.28.27:631][  0]LogUObjectAllocator: 3965568 out of 0 bytes used by permanent object pool.
[2020.07.28-14.28.27:631][  0]LogUObjectArray: CloseDisregardForGC: 0/0 objects in disregard for GC pool
[2020.07.28-14.28.27:896][  0]LogTcpMessaging: Initializing TcpMessaging bridge
[2020.07.28-14.28.27:900][  0]LogUdpMessaging: Initializing bridge on interface 0.0.0.0:0 to multicast group 230.0.0.1:6666.
[2020.07.28-14.28.27:940][  0]LogLinker: Warning: Failed to load '/Game/StarterContent/Shapes/Shape_Sphere': Can't find file.
[2020.07.28-14.28.27:940][  0]LogLinker: Warning: Failed to load '/Game/StarterContent/Shapes/Shape_Sphere': Can't find file.
[2020.07.28-14.28.27:941][  0]LogUObjectGlobals: Warning: Failed to find object 'StaticMesh /Game/StarterContent/Shapes/Shape_Sphere.Shape_Sphere'
[2020.07.28-14.28.27:941][  0]Error: CDO Constructor (MapGrid): Failed to find StaticMesh'/Game/StarterContent/Shapes/Shape_Sphere.Shape_Sphere'

[2020.07.28-14.28.27:941][  0]LogUObjectBase: Warning: -------------- Default Property warnings and errors:
[2020.07.28-14.28.27:941][  0]LogUObjectBase: Warning: Error: CDO Constructor (MapGrid): Failed to find StaticMesh'/Game/StarterContent/Shapes/Shape_Sphere.Shape_Sphere'

[2020.07.28-14.28.51:487][  0]LogWindowsTextInputMethodSystem: Display: IME system now deactivated.
[2020.07.28-14.28.51:490][  0]LogWindowsTextInputMethodSystem: Display: IME system now deactivated.
[2020.07.28-14.28.51:497][  0]Message dialog closed, result: Ok, title: Message, text: Default Property warnings and errors:
Error: CDO Constructor (MapGrid): Failed to find StaticMesh'/Game/StarterContent/Shapes/Shape_Sphere.Shape_Sphere'


[2020.07.28-14.28.51:533][  0]SourceControl: Source control is disabled
[2020.07.28-14.28.51:533][  0]SourceControl: Source control is disabled
[2020.07.28-14.28.51:536][  0]SourceControl: Source control is disabled
[2020.07.28-14.28.51:538][  0]SourceControl: Source control is disabled
[2020.07.28-14.28.51:544][  0]SourceControl: Source control is disabled
[2020.07.28-14.28.51:736][  0]LogAndroidPermission: UAndroidPermissionCallbackProxy::GetInstance
[2020.07.28-14.28.51:752][  0]LogAudioCaptureCore: Display: No Audio Capture implementations found. Audio input will be silent.
[2020.07.28-14.28.51:752][  0]LogAudioCaptureCore: Display: No Audio Capture implementations found. Audio input will be silent.
[2020.07.28-14.28.51:791][  0]LogOcInput: OculusInput pre-init called
[2020.07.28-14.28.51:800][  0]LogWindows: Failed to load 'OVRPlugin.dll' (GetLastError=126)
[2020.07.28-14.28.51:800][  0]LogWindows: File 'OVRPlugin.dll' does not exist
[2020.07.28-14.28.51:848][  0]LogEngine: Initializing Engine...
[2020.07.28-14.28.51:849][  0]LogHMD: Failed to initialize OpenVR with code 110
[2020.07.28-14.28.51:849][  0]LogMagicLeap: Warning: VR disabled because ZI is not enabled.  To enable, in the editor, Edit -> Project Settings -> Plugins -> Magic Leap Plugin -> Enable Zero Iteration
[2020.07.28-14.28.51:850][  0]LogStats: UGameplayTagsManager::InitializeManager -  0.000 s
[2020.07.28-14.28.51:956][  0]LogInit: Initializing FReadOnlyCVARCache
[2020.07.28-14.28.51:962][  0]LogAIModule: Creating AISystem for world Untitled
[2020.07.28-14.28.51:962][  0]LogAISub: UAISubsystem::UAISubsystem EnvQueryManager (00000174B0F14600), frame # 0
[2020.07.28-14.28.51:962][  0]LogAISub: UAISubsystem::UAISubsystem AIPerceptionSystem (00000174B0F2C680), frame # 0
[2020.07.28-14.28.51:983][  0]LogAudioMixer: Display: Audio Mixer Platform Settings:
[2020.07.28-14.28.51:983][  0]LogAudioMixer: Display: 	Sample Rate:						  48000
[2020.07.28-14.28.51:983][  0]LogAudioMixer: Display: 	Callback Buffer Frame Size Requested: 1024
[2020.07.28-14.28.51:983][  0]LogAudioMixer: Display: 	Callback Buffer Frame Size To Use:	  1024
[2020.07.28-14.28.51:983][  0]LogAudioMixer: Display: 	Number of buffers to queue:			  2
[2020.07.28-14.28.51:983][  0]LogAudioMixer: Display: 	Max Channels (voices):				  32
[2020.07.28-14.28.51:983][  0]LogAudioMixer: Display: 	Number of Async Source Workers:		  0
[2020.07.28-14.28.51:983][  0]LogAudio: Display: AudioDevice MaxSources: 32
[2020.07.28-14.28.51:983][  0]LogAudio: Display: Using built-in audio occlusion.
[2020.07.28-14.28.51:983][  0]LogAudioMixer: Display: Initializing audio mixer.
[2020.07.28-14.28.51:995][  0]LogAudioMixer: Display: 0: FrontLeft
[2020.07.28-14.28.51:995][  0]LogAudioMixer: Display: 1: FrontRight
[2020.07.28-14.28.51:995][  0]LogAudioMixer: Display: 2: BackLeft
[2020.07.28-14.28.51:995][  0]LogAudioMixer: Display: 3: BackRight
[2020.07.28-14.28.52:033][  0]LogAudioMixer: Display: Using Audio Device Altavoces (Cirrus Logic CS8409 (AB 16))
[2020.07.28-14.28.52:036][  0]LogAudioMixer: Display: Initializing Sound Submixes...
[2020.07.28-14.28.52:038][  0]LogAudioMixer: Display: Creating Master Submix 'MasterSubmixDefault'
[2020.07.28-14.28.52:039][  0]LogAudioMixer: Display: Creating Master Submix 'MasterReverbSubmixDefault'
[2020.07.28-14.28.52:039][  0]LogAudioMixer: Display: Creating Master Submix 'MasterEQSubmixDefault'
[2020.07.28-14.28.52:040][  0]LogInit: FAudioDevice initialized.
[2020.07.28-14.28.52:040][  0]LogNetVersion: Set ProjectVersion to 1.0.0.0. Version Checksum will be recalculated on next use.
[2020.07.28-14.28.52:192][  0]LogDerivedDataCache: Saved boot cache 0.15s 75MB C:/Users/AleixParellada/AppData/Local/UnrealEngine/4.25/DerivedDataCache/Boot.ddc.
[2020.07.28-14.28.52:196][  0]LogInit: Texture streaming: Enabled
[2020.07.28-14.28.52:209][  0]LogEngineSessionManager: EngineSessionManager initialized
[2020.07.28-14.28.52:209][  0]LogEngineSessionManager: EngineSessionManager sent abnormal shutdown report. Type=Crashed, SessionId={EB1F580C-47BD-D414-1707-89B95D257AC0}
[2020.07.28-14.28.52:209][  0]LogEditorSessionSummary: Verbose: Initializing EditorSessionSummaryWriter for editor session tracking
[2020.07.28-14.28.52:210][  0]LogEditorSessionSummary: EditorSessionSummaryWriter initialized
[2020.07.28-14.28.52:252][  0]LogInit: Transaction tracking system initialized
[2020.07.28-14.28.52:268][  0]BlueprintLog: New page: Editor Load
[2020.07.28-14.28.52:326][  0]LocalizationService: Localization service is disabled
[2020.07.28-14.28.52:449][  0]LogCook: Display: Max memory allowance for cook 16384mb min free memory 0mb
[2020.07.28-14.28.52:449][  0]LogCook: Display: Mobile HDR setting 1
[2020.07.28-14.28.52:560][  0]LogFileCache: Scanning file cache for directory 'C:/Users/AleixParellada/Desktop/Bomberman/BombermanTest/Content/' took 0.00s
[2020.07.28-14.28.52:749][  0]SourceControl: Source control is disabled
[2020.07.28-14.28.52:749][  0]LogUnrealEdMisc: Loading editor; pre map load, took 28.724
[2020.07.28-14.28.52:749][  0]Cmd: MAP LOAD FILE="../../../../../../Users/AleixParellada/Desktop/Bomberman/BombermanTest/Content/Maps/TestMap.umap" TEMPLATE=0 SHOWPROGRESS=1 FEATURELEVEL=3
[2020.07.28-14.28.52:749][  0]LightingResults: New page: Lighting Build
[2020.07.28-14.28.52:750][  0]LogWorld: UWorld::CleanupWorld for Untitled, bSessionEnded=true, bCleanupResources=true
[2020.07.28-14.28.52:750][  0]LogSlate: InvalidateAllWidgets triggered.  All widgets were invalidated
[2020.07.28-14.28.52:750][  0]MapCheck: New page: Map Check
[2020.07.28-14.28.52:750][  0]LightingResults: New page: Lighting Build
[2020.07.28-14.28.52:758][  0]LogAISub: UAISubsystem::~UAISubsystem EnvQueryManager (00000174B0F14600), frame # 0
[2020.07.28-14.28.52:758][  0]LogAISub: UAISubsystem::~UAISubsystem AIPerceptionSystem (00000174B0F2C680), frame # 0
[2020.07.28-14.28.52:758][  0]LogUObjectHash: Compacting FUObjectHashTables data took   0.61ms
[2020.07.28-14.28.52:818][  0]Error: CDO Constructor (BP_MapGrid_C): Failed to find StaticMesh'/Game/StarterContent/Shapes/Shape_Sphere.Shape_Sphere'

[2020.07.28-14.28.52:819][  0]Error: CDO Constructor (SKEL_BP_MapGrid_C): Failed to find StaticMesh'/Game/StarterContent/Shapes/Shape_Sphere.Shape_Sphere'

[2020.07.28-14.28.52:820][  0]Error: CDO Constructor (BP_MapGrid_C): Failed to find StaticMesh'/Game/StarterContent/Shapes/Shape_Sphere.Shape_Sphere'

[2020.07.28-14.28.52:831][  0]LogAIModule: Creating AISystem for world TestMap
[2020.07.28-14.28.52:831][  0]LogAISub: UAISubsystem::UAISubsystem EnvQueryManager (00000174A27E2200), frame # 0
[2020.07.28-14.28.52:831][  0]LogAISub: UAISubsystem::UAISubsystem AIPerceptionSystem (00000174A292AC00), frame # 0
[2020.07.28-14.28.52:834][  0]LogEditorServer: Finished looking for orphan Actors (0.000 secs)
[2020.07.28-14.28.52:850][  0]LogUObjectHash: Compacting FUObjectHashTables data took   0.63ms
[2020.07.28-14.28.52:851][  0]Cmd: MAP CHECKDEP NOCLEARLOG
[2020.07.28-14.28.52:851][  0]MapCheck: Map check complete: 0 Error(s), 0 Warning(s), took 0.138ms to complete.
[2020.07.28-14.28.52:851][  0]LogFileHelpers: Loading map 'TestMap' took 0.101
[2020.07.28-14.28.52:853][  0]LogUnrealEdMisc: Total Editor Startup Time, took 28.828
[2020.07.28-14.28.52:987][  0]LogSlate: Updating window title bar state: overlay mode, drag disabled, window buttons hidden, title bar hidden
[2020.07.28-14.28.52:993][  0]LogSlate: Updating window title bar state: overlay mode, drag disabled, window buttons hidden, title bar hidden
[2020.07.28-14.28.52:999][  0]LogSlate: Updating window title bar state: overlay mode, drag disabled, window buttons hidden, title bar hidden
[2020.07.28-14.28.53:005][  0]LogSlate: Updating window title bar state: overlay mode, drag disabled, window buttons hidden, title bar hidden
[2020.07.28-14.28.53:011][  0]LogCollectionManager: Loaded 0 collections in 0.001491 seconds
[2020.07.28-14.28.53:023][  0]LogFileCache: Scanning file cache for directory 'C:/Users/AleixParellada/Desktop/Bomberman/BombermanTest/Saved/Collections/' took 0.00s
[2020.07.28-14.28.53:023][  0]LogFileCache: Scanning file cache for directory 'C:/Users/AleixParellada/Desktop/Bomberman/BombermanTest/Content/Developers/AleixParellada/Collections/' took 0.00s
[2020.07.28-14.28.53:023][  0]LogFileCache: Scanning file cache for directory 'C:/Users/AleixParellada/Desktop/Bomberman/BombermanTest/Content/Collections/' took 0.00s
[2020.07.28-14.28.53:023][  0]LogContentBrowser: Native class hierarchy populated in 0.0078 seconds. Added 3429 classes and 823 folders.
[2020.07.28-14.28.53:025][  0]LogContentBrowser: Native class hierarchy updated for 'WidgetCarousel' in 0.0003 seconds. Added 0 classes and 0 folders.
[2020.07.28-14.28.53:063][  0]LogContentBrowser: Native class hierarchy updated for 'AddContentDialog' in 0.0005 seconds. Added 0 classes and 0 folders.
[2020.07.28-14.28.53:064][  0]LogContentBrowser: Native class hierarchy updated for 'SceneOutliner' in 0.0003 seconds. Added 2 classes and 0 folders.
[2020.07.28-14.28.53:106][  0]LogSlate: Took 0.000148 seconds to synchronously load lazily loaded font '../../../Engine/Content/Slate/Fonts/Roboto-Regular.ttf' (155K)
[2020.07.28-14.28.53:107][  0]LogSlate: Took 0.000106 seconds to synchronously load lazily loaded font '../../../Engine/Content/Slate/Fonts/Roboto-Bold.ttf' (160K)
[2020.07.28-14.28.53:111][  0]LogSlate: Took 0.000130 seconds to synchronously load lazily loaded font '../../../Engine/Content/Editor/Slate/Fonts/FontAwesome.ttf' (139K)
[2020.07.28-14.28.53:178][  0]LogRenderer: Reallocating scene render targets to support 1616x816 Format 10 NumSamples 1 (Frame:1).
[2020.07.28-14.28.53:331][  0]LogContentBrowser: Native class hierarchy updated for 'HierarchicalLODOutliner' in 0.0003 seconds. Added 0 classes and 0 folders.
[2020.07.28-14.28.53:331][  0]LogLoad: (Engine Initialization) Total time: 29.31 seconds
[2020.07.28-14.28.53:331][  0]LogLoad: (Engine Initialization) Total Blueprint compile time: 0.00 seconds
[2020.07.28-14.28.53:362][  0]LogAssetRegistry: Asset discovery search completed in 26.4384 seconds
[2020.07.28-14.28.53:365][  0]LogCollectionManager: Fixed up redirectors for 0 collections in 0.000003 seconds (updated 0 objects)
[2020.07.28-14.28.53:366][  0]LogContentStreaming: Texture pool size now 1000 MB
[2020.07.28-14.28.53:411][  0]LogSlate: Took 0.000112 seconds to synchronously load lazily loaded font '../../../Engine/Content/Slate/Fonts/Roboto-Light.ttf' (167K)
[2020.07.28-14.28.53:425][  1]Error: CDO Constructor (BP_MapGrid_C): Failed to find StaticMesh'/Game/StarterContent/Shapes/Shape_Sphere.Shape_Sphere'

[2020.07.28-14.29.06:569][168]LogActorFactory: Actor Factory created Sphere
[2020.07.28-14.29.06:846][193]LogActorFactory: Actor Factory created Sphere
[2020.07.28-14.30.03:619][556]LogHotReload: New module detected: UE4Editor-BombermanTest-0001.dll
[2020.07.28-14.30.04:301][559]LogHotReload: Starting Hot-Reload from IDE
[2020.07.28-14.30.04:303][559]LogSlate: Took 0.000132 seconds to synchronously load lazily loaded font '../../../Engine/Content/Slate/Fonts/Roboto-Light.ttf' (167K)
[2020.07.28-14.30.04:335][559]LogContentBrowser: Native class hierarchy updated for 'BombermanTest' in 0.0003 seconds. Added 2 classes and 2 folders.
[2020.07.28-14.30.04:335][559]Display: HotReload successful (0 functions remapped  0 scriptstructs remapped)
[2020.07.28-14.30.04:370][559]LogContentBrowser: Native class hierarchy populated in 0.0072 seconds. Added 3429 classes and 823 folders.
[2020.07.28-14.30.04:374][559]Display: HotReload took  0.1s.
[2020.07.28-14.30.07:709][745]LogEditorViewport: Clicking on Actor (LMB): BP_MapGrid_C (BP_MapGrid)
[2020.07.28-14.30.09:327][913]Cmd: DELETE
[2020.07.28-14.30.09:327][913]Cmd: ACTOR DELETE
[2020.07.28-14.30.09:331][913]LogEditorActor: Deleted Actor: BP_MapGrid_C
[2020.07.28-14.30.09:349][913]LogUObjectHash: Compacting FUObjectHashTables data took   0.53ms
[2020.07.28-14.30.09:350][913]LogEditorActor: Deleted 1 Actors (0.023 secs)
[2020.07.28-14.31.00:209][725]LogHotReload: New module detected: UE4Editor-BombermanTest-0002.dll
[2020.07.28-14.31.01:226][729]LogHotReload: Starting Hot-Reload from IDE
[2020.07.28-14.31.01:275][729]LogContentBrowser: Native class hierarchy updated for 'BombermanTest' in 0.0003 seconds. Added 2 classes and 2 folders.
[2020.07.28-14.31.01:276][729]Display: HotReload successful (0 functions remapped  0 scriptstructs remapped)
[2020.07.28-14.31.01:308][729]LogContentBrowser: Native class hierarchy populated in 0.0072 seconds. Added 3429 classes and 823 folders.
[2020.07.28-14.31.01:311][729]Display: HotReload took  0.1s.
[2020.07.28-14.31.04:583][977]Cmd: DELETE
[2020.07.28-14.31.04:583][977]Cmd: ACTOR DELETE
[2020.07.28-14.31.04:583][977]LogEditorActor: Deleted Actor: BP_MapGrid_C
[2020.07.28-14.31.04:592][977]LogUObjectHash: Compacting FUObjectHashTables data took   0.34ms
[2020.07.28-14.31.04:593][977]LogEditorActor: Deleted 1 Actors (0.010 secs)
[2020.07.28-14.31.24:206][346]LogHotReload: New module detected: UE4Editor-BombermanTest-0003.dll
[2020.07.28-14.31.24:890][349]LogHotReload: Starting Hot-Reload from IDE
[2020.07.28-14.31.24:924][349]LogContentBrowser: Native class hierarchy updated for 'BombermanTest' in 0.0004 seconds. Added 2 classes and 2 folders.
[2020.07.28-14.31.24:925][349]Display: HotReload successful (0 functions remapped  0 scriptstructs remapped)
[2020.07.28-14.31.24:957][349]LogContentBrowser: Native class hierarchy populated in 0.0077 seconds. Added 3429 classes and 823 folders.
[2020.07.28-14.31.24:959][349]Display: HotReload took  0.1s.
[2020.07.28-14.31.40:342][ 59]LogHotReload: New module detected: UE4Editor-BombermanTest-0004.dll
[2020.07.28-14.31.41:042][ 62]LogHotReload: Starting Hot-Reload from IDE
[2020.07.28-14.31.41:089][ 62]LogContentBrowser: Native class hierarchy updated for 'BombermanTest' in 0.0005 seconds. Added 2 classes and 2 folders.
[2020.07.28-14.31.41:089][ 62]Display: HotReload successful (0 functions remapped  0 scriptstructs remapped)
[2020.07.28-14.31.41:125][ 62]LogContentBrowser: Native class hierarchy populated in 0.0075 seconds. Added 3429 classes and 823 folders.
[2020.07.28-14.31.41:129][ 62]Display: HotReload took  0.1s.
[2020.07.28-14.31.42:009][ 64]LogEditorViewport: Clicking on Actor (LMB): BP_MapGrid_C (BP_MapGrid)
[2020.07.28-14.31.42:939][170]Cmd: DELETE
[2020.07.28-14.31.42:939][170]Cmd: ACTOR DELETE
[2020.07.28-14.31.42:940][170]LogEditorActor: Deleted Actor: BP_MapGrid_C
[2020.07.28-14.31.42:947][170]LogUObjectHash: Compacting FUObjectHashTables data took   0.34ms
[2020.07.28-14.31.42:949][170]LogEditorActor: Deleted 1 Actors (0.009 secs)
[2020.07.28-14.31.49:426][934]Cmd: DELETE
[2020.07.28-14.31.49:426][934]Cmd: ACTOR DELETE
[2020.07.28-14.31.49:427][934]LogEditorActor: Deleted Actor: BP_MapGrid_C
[2020.07.28-14.31.49:434][934]LogUObjectHash: Compacting FUObjectHashTables data took   0.38ms
[2020.07.28-14.31.49:436][934]LogEditorActor: Deleted 1 Actors (0.009 secs)
[2020.07.28-14.31.54:343][462]LogUObjectHash: Compacting FUObjectHashTables data took   0.52ms
[2020.07.28-14.31.59:374][462]LogSlate: Window 'Delete Assets' being destroyed
[2020.07.28-14.31.59:755][462]LogUObjectGlobals: Force Deleting 1 Package(s):
	Asset Name: /Game/Blueprints/Map/BP_MapGrid.BP_MapGrid
[2020.07.28-14.32.00:050][462]LogUObjectHash: Compacting FUObjectHashTables data took   0.59ms
[2020.07.28-14.32.00:101][462]LogUObjectHash: Compacting FUObjectHashTables data took   0.50ms
[2020.07.28-14.32.00:109][462]LogUObjectHash: Compacting FUObjectHashTables data took   0.52ms
[2020.07.28-14.32.00:116][462]LogUObjectHash: Compacting FUObjectHashTables data took   0.20ms
[2020.07.28-14.32.09:337][536]LogSlate: WidgetSwitcher ('None') active index changed to -1
[2020.07.28-14.32.09:337][536]LogSlate: WidgetSwitcher ('None') active index changed to 1
[2020.07.28-14.32.09:415][536]LogSlate: Took 0.000193 seconds to synchronously load lazily loaded font '../../../Engine/Content/Slate/Fonts/Roboto-BoldCondensed.ttf' (158K)
[2020.07.28-14.32.13:575][ 28]LogAssetEditorSubsystem: Opening Asset editor for Blueprint /Game/MyMapGrid.MyMapGrid
[2020.07.28-14.32.13:760][ 28]LogContentBrowser: Native class hierarchy updated for 'BlueprintGraph' in 0.0005 seconds. Added 125 classes and 0 folders.
[2020.07.28-14.32.14:495][ 28]LogSlate: Window 'Add Blueprint Class' being destroyed
[2020.07.28-14.32.27:814][491]Cmd: OBJ SAVEPACKAGE PACKAGE="/Game/MyMapGrid" FILE="../../../../../../Users/AleixParellada/Desktop/Bomberman/BombermanTest/Content/MyMapGrid.uasset" SILENT=true
[2020.07.28-14.32.27:827][491]LogSavePackage: Moving '../../../../../../Users/AleixParellada/Desktop/Bomberman/BombermanTest/Saved/MyMapGrid9AE451B64C98A3EEBE13F29A0460975B.tmp' to '../../../../../../Users/AleixParellada/Desktop/Bomberman/BombermanTest/Content/MyMapGrid.uasset'
[2020.07.28-14.32.27:844][491]AssetCheck: New page: Asset Save: MyMapGrid
[2020.07.28-14.32.27:844][491]LogContentValidation: Display: Validating Blueprint /Game/MyMapGrid.MyMapGrid
[2020.07.28-14.32.29:764][681]LogSlate: Took 0.000180 seconds to synchronously load lazily loaded font '../../../Engine/Content/Slate/Fonts/Roboto-Italic.ttf' (157K)
[2020.07.28-14.32.37:682][ 96]LogHotReload: New module detected: UE4Editor-BombermanTest-0005.dll
[2020.07.28-14.32.38:371][ 99]LogHotReload: Starting Hot-Reload from IDE
[2020.07.28-14.32.38:407][ 99]LogContentBrowser: Native class hierarchy updated for 'BombermanTest' in 0.0003 seconds. Added 2 classes and 2 folders.
[2020.07.28-14.32.38:410][ 99]Display: HotReload successful (0 functions remapped  0 scriptstructs remapped)
[2020.07.28-14.32.38:473][ 99]LogContentBrowser: Native class hierarchy populated in 0.0078 seconds. Added 3429 classes and 823 folders.
[2020.07.28-14.32.38:476][ 99]Display: HotReload took  0.1s.
[2020.07.28-14.32.41:565][207]BlueprintLog: New page: Compile MyMapGrid
[2020.07.28-14.32.41:644][207]LogUObjectHash: Compacting FUObjectHashTables data took   2.88ms
[2020.07.28-14.32.41:673][207]LogSlate: Took 0.000152 seconds to synchronously load lazily loaded font '../../../Engine/Content/Slate/Fonts/DroidSansMono.ttf' (77K)
[2020.07.28-14.32.42:667][307]LogSlate: Window 'MyMapGrid' being destroyed
[2020.07.28-14.32.42:683][307]LogWorld: UWorld::CleanupWorld for World_4, bSessionEnded=true, bCleanupResources=true
[2020.07.28-14.32.42:683][307]LogSlate: InvalidateAllWidgets triggered.  All widgets were invalidated
[2020.07.28-14.32.44:331][493]Cmd: DELETE
[2020.07.28-14.32.44:331][493]Cmd: ACTOR DELETE
[2020.07.28-14.32.44:332][493]LogEditorActor: Deleted Actor: MyMapGrid_C
[2020.07.28-14.32.44:369][493]LogUObjectHash: Compacting FUObjectHashTables data took   2.14ms
[2020.07.28-14.32.44:371][493]LogEditorActor: Deleted 1 Actors (0.040 secs)
[2020.07.28-14.32.46:764][771]Cmd: DELETE
[2020.07.28-14.32.46:764][771]Cmd: ACTOR DELETE
[2020.07.28-14.32.46:765][771]LogEditorActor: Deleted Actor: MyMapGrid_C
[2020.07.28-14.32.46:797][771]LogUObjectHash: Compacting FUObjectHashTables data took   2.07ms
[2020.07.28-14.32.46:799][771]LogEditorActor: Deleted 1 Actors (0.034 secs)
[2020.07.28-14.32.49:812][126]LogUObjectHash: Compacting FUObjectHashTables data took   1.32ms
[2020.07.28-14.32.51:075][126]LogSlate: Window 'Delete Assets' being destroyed
[2020.07.28-14.32.51:808][126]LogUObjectGlobals: Force Deleting 1 Package(s):
	Asset Name: /Game/MyMapGrid.MyMapGrid
[2020.07.28-14.32.52:007][126]LogUObjectHash: Compacting FUObjectHashTables data took   1.42ms
[2020.07.28-14.32.52:137][126]LogUObjectHash: Compacting FUObjectHashTables data took   1.33ms
[2020.07.28-14.32.52:150][126]LogUObjectHash: Compacting FUObjectHashTables data took   1.00ms
[2020.07.28-14.32.52:162][126]LogUObjectHash: Compacting FUObjectHashTables data took   0.36ms
[2020.07.28-14.32.55:556][519]LogEditor: Attempting to add actor of class 'MapGrid' to level at -3030.00,-670.00,560.00
[2020.07.28-14.32.56:337][610]LogEditor: Attempting to add actor of class 'MapGrid' to level at -2900.00,-590.00,670.00
[2020.07.28-14.33.18:930][839]LogHotReload: New module detected: UE4Editor-BombermanTest-0006.dll
[2020.07.28-14.33.19:967][843]LogHotReload: Starting Hot-Reload from IDE
[2020.07.28-14.33.19:999][843]LogContentBrowser: Native class hierarchy updated for 'BombermanTest' in 0.0003 seconds. Added 2 classes and 2 folders.
[2020.07.28-14.33.20:001][843]Display: HotReload successful (0 functions remapped  0 scriptstructs remapped)
[2020.07.28-14.33.20:054][843]LogContentBrowser: Native class hierarchy populated in 0.0075 seconds. Added 3429 classes and 823 folders.
[2020.07.28-14.33.20:056][843]Display: HotReload took  0.1s.
[2020.07.28-14.33.21:396][846]LogEditor: Attempting to add actor of class 'MapGrid' to level at -3020.00,-1060.00,210.00
[2020.07.28-14.33.21:793][892]LogEditor: Attempting to add actor of class 'MapGrid' to level at -2900.00,-1100.00,280.00
[2020.07.28-14.33.23:147][ 52]Cmd: DELETE
[2020.07.28-14.33.23:147][ 52]Cmd: ACTOR DELETE
[2020.07.28-14.33.23:148][ 52]LogEditorActor: Deleted Actor: MapGrid
[2020.07.28-14.33.23:195][ 52]LogUObjectHash: Compacting FUObjectHashTables data took   2.14ms
[2020.07.28-14.33.23:197][ 52]LogEditorActor: Deleted 1 Actors (0.050 secs)
[2020.07.28-14.33.24:503][209]LogEditorViewport: Clicking on Actor (LMB): MapGrid (MapGrid1)
[2020.07.28-14.33.24:712][231]Cmd: DELETE
[2020.07.28-14.33.24:712][231]Cmd: ACTOR DELETE
[2020.07.28-14.33.24:713][231]LogEditorActor: Deleted Actor: MapGrid
[2020.07.28-14.33.24:744][231]LogUObjectHash: Compacting FUObjectHashTables data took   1.65ms
[2020.07.28-14.33.24:745][231]LogEditorActor: Deleted 1 Actors (0.033 secs)
[2020.07.28-14.33.40:401][611]LogHotReload: New module detected: UE4Editor-BombermanTest-0007.dll
[2020.07.28-14.33.41:090][614]LogHotReload: Starting Hot-Reload from IDE
[2020.07.28-14.33.41:117][614]LogContentBrowser: Native class hierarchy updated for 'BombermanTest' in 0.0003 seconds. Added 2 classes and 2 folders.
[2020.07.28-14.33.41:119][614]Display: HotReload successful (0 functions remapped  0 scriptstructs remapped)
[2020.07.28-14.33.41:168][614]LogContentBrowser: Native class hierarchy populated in 0.0088 seconds. Added 3429 classes and 823 folders.
[2020.07.28-14.33.41:170][614]Display: HotReload took  0.1s.
[2020.07.28-14.33.43:903][629]LogEditor: Attempting to add actor of class 'MapGrid' to level at -3080.00,-1040.00,180.00
[2020.07.28-14.33.44:140][655]LogEditor: Attempting to add actor of class 'MapGrid' to level at -3000.00,-1090.00,240.00
[2020.07.28-14.33.47:049][  2]Cmd: DELETE
[2020.07.28-14.33.47:049][  2]Cmd: ACTOR DELETE
[2020.07.28-14.33.47:050][  2]LogEditorActor: Deleted Actor: MapGrid
[2020.07.28-14.33.47:092][  2]LogUObjectHash: Compacting FUObjectHashTables data took   2.03ms
[2020.07.28-14.33.47:093][  2]LogEditorActor: Deleted 1 Actors (0.044 secs)
[2020.07.28-14.33.48:244][136]LogAssetEditorSubsystem: Opening Asset editor for Class /Script/BombermanTest.MapGrid
[2020.07.28-14.34.04:901][ 54]LogEditor: Attempting to add actor of class 'MapGrid' to level at -3050.00,-1010.00,160.00
[2020.07.28-14.34.05:351][105]LogEditor: Attempting to add actor of class 'MapGrid' to level at -2890.00,-1030.00,220.00
[2020.07.28-14.34.11:973][890]LogSlate: Prevented a slow task dialog from being summoned while a context menu was open
[2020.07.28-14.34.23:172][171]LogHotReload: New module detected: UE4Editor-BombermanTest-0008.dll
[2020.07.28-14.34.23:857][174]LogHotReload: Starting Hot-Reload from IDE
[2020.07.28-14.34.23:902][174]LogContentBrowser: Native class hierarchy updated for 'BombermanTest' in 0.0003 seconds. Added 2 classes and 2 folders.
[2020.07.28-14.34.23:905][174]Display: HotReload successful (0 functions remapped  0 scriptstructs remapped)
[2020.07.28-14.34.23:968][174]LogContentBrowser: Native class hierarchy populated in 0.0080 seconds. Added 3429 classes and 823 folders.
[2020.07.28-14.34.23:971][174]Display: HotReload took  0.1s.
[2020.07.28-14.34.25:302][183]LogEditor: Attempting to add actor of class 'MapGrid' to level at -2780.00,-1520.00,-150.00
[2020.07.28-14.34.25:595][216]LogEditor: Attempting to add actor of class 'MapGrid' to level at -2680.00,-1550.00,-20.00
[2020.07.28-14.34.29:442][673]Cmd: DELETE
[2020.07.28-14.34.29:442][673]Cmd: ACTOR DELETE
[2020.07.28-14.34.29:443][673]LogEditorActor: Deleted Actor: MapGrid
[2020.07.28-14.34.29:496][673]LogUObjectHash: Compacting FUObjectHashTables data took   2.40ms
[2020.07.28-14.34.29:498][673]LogEditorActor: Deleted 1 Actors (0.056 secs)
[2020.07.28-14.34.30:649][811]LogEditorViewport: Clicking on Actor (LMB): MapGrid (MapGrid7)
[2020.07.28-14.34.31:321][889]Cmd: DELETE
[2020.07.28-14.34.31:321][889]Cmd: ACTOR DELETE
[2020.07.28-14.34.31:322][889]LogEditorActor: Deleted Actor: MapGrid
[2020.07.28-14.34.31:351][889]LogUObjectHash: Compacting FUObjectHashTables data took   1.11ms
[2020.07.28-14.34.31:352][889]LogEditorActor: Deleted 1 Actors (0.031 secs)
[2020.07.28-14.34.41:987][143]LogEditor: Attempting to add actor of class 'MapGrid' to level at -2770.00,-1480.00,-40.00
[2020.07.28-14.34.42:138][158]LogEditor: Attempting to add actor of class 'MapGrid' to level at -2680.00,-1460.00,40.00
[2020.07.28-14.34.44:349][421]Cmd: DELETE
[2020.07.28-14.34.44:349][421]Cmd: ACTOR DELETE
[2020.07.28-14.34.44:350][421]LogEditorActor: Deleted Actor: MapGrid
[2020.07.28-14.34.44:363][421]LogUObjectHash: Compacting FUObjectHashTables data took   1.01ms
[2020.07.28-14.34.44:365][421]LogEditorActor: Deleted 1 Actors (0.016 secs)
[2020.07.28-14.34.47:249][532]LogHotReload: New module detected: UE4Editor-BombermanTest-0009.dll
[2020.07.28-14.34.47:941][535]LogHotReload: Starting Hot-Reload from IDE
[2020.07.28-14.34.47:977][535]LogContentBrowser: Native class hierarchy updated for 'BombermanTest' in 0.0004 seconds. Added 2 classes and 2 folders.
[2020.07.28-14.34.47:979][535]Display: HotReload successful (0 functions remapped  0 scriptstructs remapped)
[2020.07.28-14.34.48:037][535]LogContentBrowser: Native class hierarchy populated in 0.0078 seconds. Added 3429 classes and 823 folders.
[2020.07.28-14.34.48:039][535]Display: HotReload took  0.1s.
[2020.07.28-14.34.49:483][556]LogEditor: Attempting to add actor of class 'MapGrid' to level at -2820.00,-1450.00,-120.00
[2020.07.28-14.34.49:722][583]LogEditor: Attempting to add actor of class 'MapGrid' to level at -2700.00,-1450.00,-10.00
[2020.07.28-14.35.04:261][ 96]LogHotReload: New module detected: UE4Editor-BombermanTest-0010.dll
[2020.07.28-14.35.04:941][ 99]LogHotReload: Starting Hot-Reload from IDE
[2020.07.28-14.35.04:978][ 99]LogOutputDevice: Warning: 

Script Stack (0 frames):

[2020.07.28-14.35.04:978][ 99]LogWindows: Windows GetLastError: La operación se completó correctamente. (0)
