﻿Log file open, 08/04/20 20:19:39
LogInit: Display: Running engine for game: BombermanTest
LogPlatformFile: Not using cached read wrapper
LogTaskGraph: Started task graph with 5 named threads and 23 total threads with 3 sets of task threads.
LogStats: Stats thread started at 0.151909
LogD3D11RHI: Loaded GFSDK_Aftermath_Lib.x64.dll
LogICUInternationalization: ICU TimeZone Detection - Raw Offset: +1:00, Platform Override: ''
LogPluginManager: Mounting plugin Paper2D
LogPluginManager: Mounting plugin AISupport
LogPluginManager: Mounting plugin LightPropagationVolume
LogPluginManager: Mounting plugin CameraShakePreviewer
LogPluginManager: Mounting plugin ActorLayerUtilities
LogPluginManager: Mounting plugin AnimationSharing
LogPluginManager: Mounting plugin CLionSourceCodeAccess
LogPluginManager: Mounting plugin CodeLiteSourceCodeAccess
LogPluginManager: Mounting plugin GitSourceControl
LogPluginManager: Mounting plugin KDevelopSourceCodeAccess
LogPluginManager: Mounting plugin NullSourceCodeAccess
LogPluginManager: Mounting plugin PerforceSourceControl
LogPluginManager: Mounting plugin PlasticSourceControl
LogPluginManager: Mounting plugin RiderSourceCodeAccess
LogPluginManager: Mounting plugin SubversionSourceControl
LogPluginManager: Mounting plugin UObjectPlugin
LogPluginManager: Mounting plugin VisualStudioCodeSourceCodeAccess
LogPluginManager: Mounting plugin VisualStudioSourceCodeAccess
LogPluginManager: Mounting plugin XCodeSourceCodeAccess
LogPluginManager: Mounting plugin AssetManagerEditor
LogPluginManager: Mounting plugin CryptoKeys
LogPluginManager: Mounting plugin CurveEditorTools
LogPluginManager: Mounting plugin DataValidation
LogPluginManager: Mounting plugin EditorScriptingUtilities
LogPluginManager: Mounting plugin FacialAnimation
LogPluginManager: Mounting plugin GameplayTagsEditor
LogPluginManager: Mounting plugin GeometryMode
LogPluginManager: Mounting plugin MacGraphicsSwitching
LogPluginManager: Mounting plugin MaterialAnalyzer
LogPluginManager: Mounting plugin MobileLauncherProfileWizard
LogPluginManager: Mounting plugin PluginBrowser
LogPluginManager: Mounting plugin SpeedTreeImporter
LogPluginManager: Mounting plugin DatasmithContent
LogPluginManager: Mounting plugin VariantManagerContent
LogPluginManager: Mounting plugin AlembicImporter
LogPluginManager: Mounting plugin AutomationUtils
LogPluginManager: Mounting plugin BackChannel
LogPluginManager: Mounting plugin ChaosCloth
LogPluginManager: Mounting plugin ChaosClothEditor
LogPluginManager: Mounting plugin ChaosEditor
LogPluginManager: Mounting plugin ChaosNiagara
LogPluginManager: Mounting plugin ChaosSolverPlugin
LogPluginManager: Mounting plugin CharacterAI
LogPluginManager: Mounting plugin GeometryCache
LogPluginManager: Mounting plugin GeometryCollectionPlugin
LogPluginManager: Mounting plugin GeometryProcessing
LogPluginManager: Mounting plugin PlanarCut
LogPluginManager: Mounting plugin PlatformCrypto
LogPluginManager: Mounting plugin ProxyLODPlugin
LogPluginManager: Mounting plugin SkeletalReduction
LogPluginManager: Mounting plugin Niagara
LogPluginManager: Mounting plugin MagicLeap
LogPluginManager: Mounting plugin MagicLeapLightEstimation
LogPluginManager: Mounting plugin MagicLeapMedia
LogPluginManager: Mounting plugin MagicLeapPassableWorld
LogPluginManager: Mounting plugin MLSDK
LogPluginManager: Mounting plugin AndroidMedia
LogPluginManager: Mounting plugin AvfMedia
LogPluginManager: Mounting plugin ImgMedia
LogPluginManager: Mounting plugin MediaCompositing
LogPluginManager: Mounting plugin MediaPlayerEditor
LogPluginManager: Mounting plugin WebMMedia
LogPluginManager: Mounting plugin WmfMedia
LogPluginManager: Mounting plugin MeshPainting
LogPluginManager: Mounting plugin TcpMessaging
LogPluginManager: Mounting plugin UdpMessaging
LogPluginManager: Mounting plugin ActorSequence
LogPluginManager: Mounting plugin LevelSequenceEditor
LogPluginManager: Mounting plugin MatineeToLevelSequence
LogPluginManager: Mounting plugin MovieRenderPipeline
LogPluginManager: Mounting plugin TemplateSequence
LogPluginManager: Mounting plugin NetcodeUnitTest
LogPluginManager: Mounting plugin NUTUnrealEngine4
LogPluginManager: Mounting plugin OnlineSubsystemGooglePlay
LogPluginManager: Mounting plugin OnlineSubsystemIOS
LogPluginManager: Mounting plugin OnlineSubsystem
LogPluginManager: Mounting plugin OnlineSubsystemNull
LogPluginManager: Mounting plugin OnlineSubsystemUtils
LogPluginManager: Mounting plugin LauncherChunkInstaller
LogPluginManager: Mounting plugin AndroidDeviceProfileSelector
LogPluginManager: Mounting plugin AndroidMoviePlayer
LogPluginManager: Mounting plugin AndroidPermission
LogPluginManager: Mounting plugin AppleImageUtils
LogPluginManager: Mounting plugin AppleMoviePlayer
LogPluginManager: Mounting plugin ArchVisCharacter
LogPluginManager: Mounting plugin AssetTags
LogPluginManager: Mounting plugin AudioCapture
LogPluginManager: Mounting plugin CableComponent
LogPluginManager: Mounting plugin CustomMeshComponent
LogPluginManager: Mounting plugin EditableMesh
LogPluginManager: Mounting plugin ExampleDeviceProfileSelector
LogPluginManager: Mounting plugin GoogleCloudMessaging
LogPluginManager: Mounting plugin GooglePAD
LogPluginManager: Mounting plugin IOSDeviceProfileSelector
LogPluginManager: Mounting plugin LinuxDeviceProfileSelector
LogPluginManager: Mounting plugin LocationServicesBPLibrary
LogPluginManager: Mounting plugin MobilePatchingUtils
LogPluginManager: Mounting plugin OculusVR
LogPluginManager: Mounting plugin PhysXVehicles
LogPluginManager: Mounting plugin PostSplashScreen
LogPluginManager: Mounting plugin ProceduralMeshComponent
LogPluginManager: Mounting plugin RuntimePhysXCooking
LogPluginManager: Mounting plugin SignificanceManager
LogPluginManager: Mounting plugin SoundFields
LogPluginManager: Mounting plugin SteamVR
LogPluginManager: Mounting plugin Synthesis
LogPluginManager: Mounting plugin WebMMoviePlayer
LogPluginManager: Mounting plugin WindowsMoviePlayer
LogPluginManager: Mounting plugin ScreenshotTools
LogInit: Using libcurl 7.55.1-DEV
LogInit:  - built for x86_64-pc-win32
LogInit:  - supports SSL with OpenSSL/1.1.1
LogInit:  - supports HTTP deflate (compression) using libz 1.2.8
LogInit:  - other features:
LogInit:      CURL_VERSION_SSL
LogInit:      CURL_VERSION_LIBZ
LogInit:      CURL_VERSION_IPV6
LogInit:      CURL_VERSION_ASYNCHDNS
LogInit:      CURL_VERSION_LARGEFILE
LogInit:      CURL_VERSION_IDN
LogInit:  CurlRequestOptions (configurable via config and command line):
LogInit:  - bVerifyPeer = true  - Libcurl will verify peer certificate
LogInit:  - bUseHttpProxy = false  - Libcurl will NOT use HTTP proxy
LogInit:  - bDontReuseConnections = false  - Libcurl will reuse connections
LogInit:  - MaxHostConnections = 16  - Libcurl will limit the number of connections to a host
LogInit:  - LocalHostAddr = Default
LogInit:  - BufferSize = 65536
LogOnline: OSS: Creating online subsystem instance for: NULL
LogInit: WinSock: version 1.1 (2.2), MaxSocks=32767, MaxUdp=65467
LogOnline: OSS: TryLoadSubsystemAndSetDefault: Loaded subsystem for module [NULL]
LogInit: Build: ++UE4+Release-4.25-CL-13908680
LogInit: Engine Version: 4.25.2-13908680+++UE4+Release-4.25
LogInit: Compatible Engine Version: 4.25.0-13144385+++UE4+Release-4.25
LogInit: Net CL: 13144385
LogInit: OS: Windows 10 (Release 1909) (), CPU: Intel(R) Core(TM) i7-7700K CPU @ 4.20GHz, GPU: Radeon Pro 580
LogInit: Compiled (64-bit): Jul 22 2020 02:11:51
LogInit: Compiled with Visual C++: 19.24.28315.00
LogInit: Build Configuration: Development
LogInit: Branch Name: ++UE4+Release-4.25
LogInit: Command Line: 
LogInit: Base Directory: C:/Program Files/Epic Games/UE_4.25/Engine/Binaries/Win64/
LogInit: Allocator: TBB
LogInit: Installed Engine Build: 1
LogDevObjectVersion: Number of dev versions registered: 26
LogDevObjectVersion:   Dev-Blueprints (B0D832E4-1F89-4F0D-ACCF-7EB736FD4AA2): 10
LogDevObjectVersion:   Dev-Build (E1C64328-A22C-4D53-A36C-8E866417BD8C): 0
LogDevObjectVersion:   Dev-Core (375EC13C-06E4-48FB-B500-84F0262A717E): 4
LogDevObjectVersion:   Dev-Editor (E4B068ED-F494-42E9-A231-DA0B2E46BB41): 38
LogDevObjectVersion:   Dev-Framework (CFFC743F-43B0-4480-9391-14DF171D2073): 37
LogDevObjectVersion:   Dev-Mobile (B02B49B5-BB20-44E9-A304-32B752E40360): 2
LogDevObjectVersion:   Dev-Networking (A4E4105C-59A1-49B5-A7C5-40C4547EDFEE): 0
LogDevObjectVersion:   Dev-Online (39C831C9-5AE6-47DC-9A44-9C173E1C8E7C): 0
LogDevObjectVersion:   Dev-Physics (78F01B33-EBEA-4F98-B9B4-84EACCB95AA2): 4
LogDevObjectVersion:   Dev-Platform (6631380F-2D4D-43E0-8009-CF276956A95A): 0
LogDevObjectVersion:   Dev-Rendering (12F88B9F-8875-4AFC-A67C-D90C383ABD29): 43
LogDevObjectVersion:   Dev-Sequencer (7B5AE74C-D270-4C10-A958-57980B212A5A): 12
LogDevObjectVersion:   Dev-VR (D7296918-1DD6-4BDD-9DE2-64A83CC13884): 3
LogDevObjectVersion:   Dev-LoadTimes (C2A15278-BFE7-4AFE-6C17-90FF531DF755): 1
LogDevObjectVersion:   Private-Geometry (6EACA3D4-40EC-4CC1-B786-8BED09428FC5): 3
LogDevObjectVersion:   Dev-AnimPhys (29E575DD-E0A3-4627-9D10-D276232CDCEA): 17
LogDevObjectVersion:   Dev-Anim (AF43A65D-7FD3-4947-9873-3E8ED9C1BB05): 7
LogDevObjectVersion:   Dev-ReflectionCapture (6B266CEC-1EC7-4B8F-A30B-E4D90942FC07): 1
LogDevObjectVersion:   Dev-Automation (0DF73D61-A23F-47EA-B727-89E90C41499A): 1
LogDevObjectVersion:   FortniteMain (601D1886-AC64-4F84-AA16-D3DE0DEAC7D6): 31
LogDevObjectVersion:   Dev-Enterprise (9DFFBCD6-494F-0158-E221-12823C92A888): 10
LogDevObjectVersion:   Dev-Niagara (F2AED0AC-9AFE-416F-8664-AA7FFA26D6FC): 1
LogDevObjectVersion:   Dev-Destruction (174F1F0B-B4C6-45A5-B13F-2EE8D0FB917D): 10
LogDevObjectVersion:   Dev-Physics-Ext (35F94A83-E258-406C-A318-09F59610247C): 37
LogDevObjectVersion:   Dev-PhysicsMaterial-Chaos (B68FC16E-8B1B-42E2-B453-215C058844FE): 1
LogDevObjectVersion:   Dev-CineCamera (B2E18506-4273-CFC2-A54E-F4BB758BBA07): 1
LogInit: Presizing for max 25165824 objects, including 0 objects not considered by GC, pre-allocating 0 bytes for permanent pool.
LogConfig: Applying CVar settings from Section [/Script/Engine.StreamingSettings] File [C:/Users/AleixParellada/Desktop/GitKraken/programming-test-bomberman/BombermanTest/Saved/Config/Windows/Engine.ini]
LogConfig: Setting CVar [[s.MinBulkDataSizeForAsyncLoading:131072]]
LogConfig: Setting CVar [[s.AsyncLoadingThreadEnabled:0]]
LogConfig: Setting CVar [[s.EventDrivenLoaderEnabled:1]]
LogConfig: Setting CVar [[s.WarnIfTimeLimitExceeded:0]]
LogConfig: Setting CVar [[s.TimeLimitExceededMultiplier:1.5]]
LogConfig: Setting CVar [[s.TimeLimitExceededMinTime:0.005]]
LogConfig: Setting CVar [[s.UseBackgroundLevelStreaming:1]]
LogConfig: Setting CVar [[s.PriorityAsyncLoadingExtraTime:15.0]]
LogConfig: Setting CVar [[s.LevelStreamingActorsUpdateTimeLimit:5.0]]
LogConfig: Setting CVar [[s.PriorityLevelStreamingActorsUpdateExtraTime:5.0]]
LogConfig: Setting CVar [[s.LevelStreamingComponentsRegistrationGranularity:10]]
LogConfig: Setting CVar [[s.UnregisterComponentsTimeLimit:1.0]]
LogConfig: Setting CVar [[s.LevelStreamingComponentsUnregistrationGranularity:5]]
LogConfig: Setting CVar [[s.FlushStreamingOnExit:1]]
LogInit: Object subsystem initialized
LogConfig: Setting CVar [[con.DebugEarlyDefault:1]]
LogConfig: Setting CVar [[r.setres:1280x720]]
[2020.08.04-18.19.40:134][  0]LogConfig: Setting CVar [[r.VSync:0]]
[2020.08.04-18.19.40:134][  0]LogConfig: Setting CVar [[r.RHICmdBypass:0]]
[2020.08.04-18.19.40:134][  0]LogConfig: Applying CVar settings from Section [/Script/Engine.RendererSettings] File [C:/Users/AleixParellada/Desktop/GitKraken/programming-test-bomberman/BombermanTest/Saved/Config/Windows/Engine.ini]
[2020.08.04-18.19.40:134][  0]LogConfig: Setting CVar [[r.GPUCrashDebugging:0]]
[2020.08.04-18.19.40:134][  0]LogConfig: Applying CVar settings from Section [/Script/Engine.RendererOverrideSettings] File [C:/Users/AleixParellada/Desktop/GitKraken/programming-test-bomberman/BombermanTest/Saved/Config/Windows/Engine.ini]
[2020.08.04-18.19.40:134][  0]LogConfig: Applying CVar settings from Section [/Script/Engine.StreamingSettings] File [C:/Users/AleixParellada/Desktop/GitKraken/programming-test-bomberman/BombermanTest/Saved/Config/Windows/Engine.ini]
[2020.08.04-18.19.40:134][  0]LogConfig: Setting CVar [[s.MinBulkDataSizeForAsyncLoading:131072]]
[2020.08.04-18.19.40:134][  0]LogConfig: Setting CVar [[s.AsyncLoadingThreadEnabled:0]]
[2020.08.04-18.19.40:134][  0]LogConfig: Setting CVar [[s.EventDrivenLoaderEnabled:1]]
[2020.08.04-18.19.40:134][  0]LogConfig: Setting CVar [[s.WarnIfTimeLimitExceeded:0]]
[2020.08.04-18.19.40:134][  0]LogConfig: Setting CVar [[s.TimeLimitExceededMultiplier:1.5]]
[2020.08.04-18.19.40:134][  0]LogConfig: Setting CVar [[s.TimeLimitExceededMinTime:0.005]]
[2020.08.04-18.19.40:134][  0]LogConfig: Setting CVar [[s.UseBackgroundLevelStreaming:1]]
[2020.08.04-18.19.40:134][  0]LogConfig: Setting CVar [[s.PriorityAsyncLoadingExtraTime:15.0]]
[2020.08.04-18.19.40:134][  0]LogConfig: Setting CVar [[s.LevelStreamingActorsUpdateTimeLimit:5.0]]
[2020.08.04-18.19.40:134][  0]LogConfig: Setting CVar [[s.PriorityLevelStreamingActorsUpdateExtraTime:5.0]]
[2020.08.04-18.19.40:134][  0]LogConfig: Setting CVar [[s.LevelStreamingComponentsRegistrationGranularity:10]]
[2020.08.04-18.19.40:134][  0]LogConfig: Setting CVar [[s.UnregisterComponentsTimeLimit:1.0]]
[2020.08.04-18.19.40:134][  0]LogConfig: Setting CVar [[s.LevelStreamingComponentsUnregistrationGranularity:5]]
[2020.08.04-18.19.40:134][  0]LogConfig: Setting CVar [[s.FlushStreamingOnExit:1]]
[2020.08.04-18.19.40:134][  0]LogConfig: Applying CVar settings from Section [/Script/Engine.GarbageCollectionSettings] File [C:/Users/AleixParellada/Desktop/GitKraken/programming-test-bomberman/BombermanTest/Saved/Config/Windows/Engine.ini]
[2020.08.04-18.19.40:134][  0]LogConfig: Setting CVar [[gc.MaxObjectsNotConsideredByGC:1]]
[2020.08.04-18.19.40:134][  0]LogConfig: Setting CVar [[gc.SizeOfPermanentObjectPool:0]]
[2020.08.04-18.19.40:134][  0]LogConfig: Setting CVar [[gc.FlushStreamingOnGC:0]]
[2020.08.04-18.19.40:134][  0]LogConfig: Setting CVar [[gc.NumRetriesBeforeForcingGC:10]]
[2020.08.04-18.19.40:134][  0]LogConfig: Setting CVar [[gc.AllowParallelGC:1]]
[2020.08.04-18.19.40:134][  0]LogConfig: Setting CVar [[gc.TimeBetweenPurgingPendingKillObjects:61.1]]
[2020.08.04-18.19.40:134][  0]LogConfig: Setting CVar [[gc.MaxObjectsInEditor:25165824]]
[2020.08.04-18.19.40:134][  0]LogConfig: Setting CVar [[gc.IncrementalBeginDestroyEnabled:1]]
[2020.08.04-18.19.40:134][  0]LogConfig: Setting CVar [[gc.CreateGCClusters:1]]
[2020.08.04-18.19.40:134][  0]LogConfig: Setting CVar [[gc.MinGCClusterSize:5]]
[2020.08.04-18.19.40:134][  0]LogConfig: Setting CVar [[gc.ActorClusteringEnabled:0]]
[2020.08.04-18.19.40:134][  0]LogConfig: Setting CVar [[gc.BlueprintClusteringEnabled:0]]
[2020.08.04-18.19.40:134][  0]LogConfig: Setting CVar [[gc.UseDisregardForGCOnDedicatedServers:0]]
[2020.08.04-18.19.40:134][  0]LogConfig: Applying CVar settings from Section [/Script/Engine.NetworkSettings] File [C:/Users/AleixParellada/Desktop/GitKraken/programming-test-bomberman/BombermanTest/Saved/Config/Windows/Engine.ini]
[2020.08.04-18.19.40:134][  0]LogConfig: Applying CVar settings from Section [/Script/UnrealEd.CookerSettings] File [C:/Users/AleixParellada/Desktop/GitKraken/programming-test-bomberman/BombermanTest/Saved/Config/Windows/Engine.ini]
[2020.08.04-18.19.40:140][  0]LogConfig: Applying CVar settings from Section [ViewDistanceQuality@3] File [C:/Users/AleixParellada/Desktop/GitKraken/programming-test-bomberman/BombermanTest/Saved/Config/Windows/Scalability.ini]
[2020.08.04-18.19.40:140][  0]LogConfig: Setting CVar [[r.SkeletalMeshLODBias:0]]
[2020.08.04-18.19.40:140][  0]LogConfig: Setting CVar [[r.ViewDistanceScale:1.0]]
[2020.08.04-18.19.40:140][  0]LogConfig: Applying CVar settings from Section [AntiAliasingQuality@3] File [C:/Users/AleixParellada/Desktop/GitKraken/programming-test-bomberman/BombermanTest/Saved/Config/Windows/Scalability.ini]
[2020.08.04-18.19.40:140][  0]LogConfig: Setting CVar [[r.PostProcessAAQuality:4]]
[2020.08.04-18.19.40:140][  0]LogConfig: Applying CVar settings from Section [ShadowQuality@3] File [C:/Users/AleixParellada/Desktop/GitKraken/programming-test-bomberman/BombermanTest/Saved/Config/Windows/Scalability.ini]
[2020.08.04-18.19.40:140][  0]LogConfig: Setting CVar [[r.LightFunctionQuality:1]]
[2020.08.04-18.19.40:140][  0]LogConfig: Setting CVar [[r.ShadowQuality:5]]
[2020.08.04-18.19.40:140][  0]LogConfig: Setting CVar [[r.Shadow.CSM.MaxCascades:10]]
[2020.08.04-18.19.40:140][  0]LogConfig: Setting CVar [[r.Shadow.MaxResolution:2048]]
[2020.08.04-18.19.40:140][  0]LogConfig: Setting CVar [[r.Shadow.MaxCSMResolution:2048]]
[2020.08.04-18.19.40:140][  0]LogConfig: Setting CVar [[r.Shadow.RadiusThreshold:0.01]]
[2020.08.04-18.19.40:140][  0]LogConfig: Setting CVar [[r.Shadow.DistanceScale:1.0]]
[2020.08.04-18.19.40:140][  0]LogConfig: Setting CVar [[r.Shadow.CSM.TransitionScale:1.0]]
[2020.08.04-18.19.40:140][  0]LogConfig: Setting CVar [[r.Shadow.PreShadowResolutionFactor:1.0]]
[2020.08.04-18.19.40:140][  0]LogConfig: Setting CVar [[r.DistanceFieldShadowing:1]]
[2020.08.04-18.19.40:140][  0]LogConfig: Setting CVar [[r.DistanceFieldAO:1]]
[2020.08.04-18.19.40:140][  0]LogConfig: Setting CVar [[r.AOQuality:2]]
[2020.08.04-18.19.40:140][  0]LogConfig: Setting CVar [[r.VolumetricFog:1]]
[2020.08.04-18.19.40:140][  0]LogConfig: Setting CVar [[r.VolumetricFog.GridPixelSize:8]]
[2020.08.04-18.19.40:140][  0]LogConfig: Setting CVar [[r.VolumetricFog.GridSizeZ:128]]
[2020.08.04-18.19.40:140][  0]LogConfig: Setting CVar [[r.VolumetricFog.HistoryMissSupersampleCount:4]]
[2020.08.04-18.19.40:140][  0]LogConfig: Setting CVar [[r.LightMaxDrawDistanceScale:1]]
[2020.08.04-18.19.40:140][  0]LogConfig: Setting CVar [[r.CapsuleShadows:1]]
[2020.08.04-18.19.40:140][  0]LogConfig: Applying CVar settings from Section [PostProcessQuality@3] File [C:/Users/AleixParellada/Desktop/GitKraken/programming-test-bomberman/BombermanTest/Saved/Config/Windows/Scalability.ini]
[2020.08.04-18.19.40:140][  0]LogConfig: Setting CVar [[r.MotionBlurQuality:4]]
[2020.08.04-18.19.40:140][  0]LogConfig: Setting CVar [[r.AmbientOcclusionMipLevelFactor:0.4]]
[2020.08.04-18.19.40:140][  0]LogConfig: Setting CVar [[r.AmbientOcclusionMaxQuality:100]]
[2020.08.04-18.19.40:140][  0]LogConfig: Setting CVar [[r.AmbientOcclusionLevels:-1]]
[2020.08.04-18.19.40:140][  0]LogConfig: Setting CVar [[r.AmbientOcclusionRadiusScale:1.0]]
[2020.08.04-18.19.40:140][  0]LogConfig: Setting CVar [[r.DepthOfFieldQuality:2]]
[2020.08.04-18.19.40:140][  0]LogConfig: Setting CVar [[r.RenderTargetPoolMin:400]]
[2020.08.04-18.19.40:140][  0]LogConfig: Setting CVar [[r.LensFlareQuality:2]]
[2020.08.04-18.19.40:140][  0]LogConfig: Setting CVar [[r.SceneColorFringeQuality:1]]
[2020.08.04-18.19.40:140][  0]LogConfig: Setting CVar [[r.EyeAdaptationQuality:2]]
[2020.08.04-18.19.40:140][  0]LogConfig: Setting CVar [[r.BloomQuality:5]]
[2020.08.04-18.19.40:140][  0]LogConfig: Setting CVar [[r.FastBlurThreshold:100]]
[2020.08.04-18.19.40:140][  0]LogConfig: Setting CVar [[r.Upscale.Quality:3]]
[2020.08.04-18.19.40:140][  0]LogConfig: Setting CVar [[r.Tonemapper.GrainQuantization:1]]
[2020.08.04-18.19.40:141][  0]LogConfig: Setting CVar [[r.LightShaftQuality:1]]
[2020.08.04-18.19.40:141][  0]LogConfig: Setting CVar [[r.Filter.SizeScale:1]]
[2020.08.04-18.19.40:141][  0]LogConfig: Setting CVar [[r.Tonemapper.Quality:5]]
[2020.08.04-18.19.40:141][  0]LogConfig: Setting CVar [[r.DOF.Gather.AccumulatorQuality:1        ; higher gathering accumulator quality]]
[2020.08.04-18.19.40:141][  0]LogConfig: Setting CVar [[r.DOF.Gather.PostfilterMethod:1          ; Median3x3 postfilering method]]
[2020.08.04-18.19.40:141][  0]LogConfig: Setting CVar [[r.DOF.Gather.EnableBokehSettings:0       ; no bokeh simulation when gathering]]
[2020.08.04-18.19.40:141][  0]LogConfig: Setting CVar [[r.DOF.Gather.RingCount:4                 ; medium number of samples when gathering]]
[2020.08.04-18.19.40:141][  0]LogConfig: Setting CVar [[r.DOF.Scatter.ForegroundCompositing:1    ; additive foreground scattering]]
[2020.08.04-18.19.40:141][  0]LogConfig: Setting CVar [[r.DOF.Scatter.BackgroundCompositing:2    ; additive background scattering]]
[2020.08.04-18.19.40:141][  0]LogConfig: Setting CVar [[r.DOF.Scatter.EnableBokehSettings:1      ; bokeh simulation when scattering]]
[2020.08.04-18.19.40:141][  0]LogConfig: Setting CVar [[r.DOF.Scatter.MaxSpriteRatio:0.1         ; only a maximum of 10% of scattered bokeh]]
[2020.08.04-18.19.40:141][  0]LogConfig: Setting CVar [[r.DOF.Recombine.Quality:1                ; cheap slight out of focus]]
[2020.08.04-18.19.40:141][  0]LogConfig: Setting CVar [[r.DOF.Recombine.EnableBokehSettings:0    ; no bokeh simulation on slight out of focus]]
[2020.08.04-18.19.40:141][  0]LogConfig: Setting CVar [[r.DOF.TemporalAAQuality:1                ; more stable temporal accumulation]]
[2020.08.04-18.19.40:141][  0]LogConfig: Setting CVar [[r.DOF.Kernel.MaxForegroundRadius:0.025]]
[2020.08.04-18.19.40:141][  0]LogConfig: Setting CVar [[r.DOF.Kernel.MaxBackgroundRadius:0.025]]
[2020.08.04-18.19.40:141][  0]LogConfig: Applying CVar settings from Section [TextureQuality@3] File [C:/Users/AleixParellada/Desktop/GitKraken/programming-test-bomberman/BombermanTest/Saved/Config/Windows/Scalability.ini]
[2020.08.04-18.19.40:141][  0]LogConfig: Setting CVar [[r.Streaming.MipBias:0]]
[2020.08.04-18.19.40:141][  0]LogConfig: Setting CVar [[r.Streaming.AmortizeCPUToGPUCopy:0]]
[2020.08.04-18.19.40:141][  0]LogConfig: Setting CVar [[r.Streaming.MaxNumTexturesToStreamPerFrame:0]]
[2020.08.04-18.19.40:141][  0]LogConfig: Setting CVar [[r.Streaming.Boost:1]]
[2020.08.04-18.19.40:141][  0]LogConfig: Setting CVar [[r.MaxAnisotropy:8]]
[2020.08.04-18.19.40:141][  0]LogConfig: Setting CVar [[r.VT.MaxAnisotropy:8]]
[2020.08.04-18.19.40:141][  0]LogConfig: Setting CVar [[r.Streaming.LimitPoolSizeToVRAM:0]]
[2020.08.04-18.19.40:141][  0]LogConfig: Setting CVar [[r.Streaming.PoolSize:1000]]
[2020.08.04-18.19.40:141][  0]LogConfig: Setting CVar [[r.Streaming.MaxEffectiveScreenSize:0]]
[2020.08.04-18.19.40:141][  0]LogConfig: Applying CVar settings from Section [EffectsQuality@3] File [C:/Users/AleixParellada/Desktop/GitKraken/programming-test-bomberman/BombermanTest/Saved/Config/Windows/Scalability.ini]
[2020.08.04-18.19.40:141][  0]LogConfig: Setting CVar [[r.TranslucencyLightingVolumeDim:64]]
[2020.08.04-18.19.40:141][  0]LogConfig: Setting CVar [[r.RefractionQuality:2]]
[2020.08.04-18.19.40:141][  0]LogConfig: Setting CVar [[r.SSR.Quality:3]]
[2020.08.04-18.19.40:141][  0]LogConfig: Setting CVar [[r.SSR.HalfResSceneColor:0]]
[2020.08.04-18.19.40:141][  0]LogConfig: Setting CVar [[r.SceneColorFormat:4]]
[2020.08.04-18.19.40:141][  0]LogConfig: Setting CVar [[r.DetailMode:2]]
[2020.08.04-18.19.40:141][  0]LogConfig: Setting CVar [[r.TranslucencyVolumeBlur:1]]
[2020.08.04-18.19.40:141][  0]LogConfig: Setting CVar [[r.MaterialQualityLevel:1 ; High quality]]
[2020.08.04-18.19.40:141][  0]LogConfig: Setting CVar [[r.SSS.Scale:1]]
[2020.08.04-18.19.40:141][  0]LogConfig: Setting CVar [[r.SSS.SampleSet:2]]
[2020.08.04-18.19.40:141][  0]LogConfig: Setting CVar [[r.SSS.Quality:1]]
[2020.08.04-18.19.40:141][  0]LogConfig: Setting CVar [[r.SSS.HalfRes:0]]
[2020.08.04-18.19.40:141][  0]LogConfig: Setting CVar [[r.SSGI.Quality:3]]
[2020.08.04-18.19.40:141][  0]LogConfig: Setting CVar [[r.EmitterSpawnRateScale:1.0]]
[2020.08.04-18.19.40:141][  0]LogConfig: Setting CVar [[r.ParticleLightQuality:2]]
[2020.08.04-18.19.40:141][  0]LogConfig: Setting CVar [[r.SkyAtmosphere.AerialPerspectiveLUT.FastApplyOnOpaque:1 ; Always have FastSkyLUT 1 in this case to avoid wrong sky]]
[2020.08.04-18.19.40:141][  0]LogConfig: Setting CVar [[r.SkyAtmosphere.AerialPerspectiveLUT.SampleCountPerSlice:1]]
[2020.08.04-18.19.40:141][  0]LogConfig: Setting CVar [[r.SkyAtmosphere.AerialPerspectiveLUT.DepthResolution:16.0]]
[2020.08.04-18.19.40:141][  0]LogConfig: Setting CVar [[r.SkyAtmosphere.FastSkyLUT:1]]
[2020.08.04-18.19.40:141][  0]LogConfig: Setting CVar [[r.SkyAtmosphere.FastSkyLUT.SampleCountMin:4.0]]
[2020.08.04-18.19.40:141][  0]LogConfig: Setting CVar [[r.SkyAtmosphere.FastSkyLUT.SampleCountMax:32.0]]
[2020.08.04-18.19.40:141][  0]LogConfig: Setting CVar [[r.SkyAtmosphere.SampleCountMin:4.0]]
[2020.08.04-18.19.40:141][  0]LogConfig: Setting CVar [[r.SkyAtmosphere.SampleCountMax:32.0]]
[2020.08.04-18.19.40:141][  0]LogConfig: Setting CVar [[r.SkyAtmosphere.TransmittanceLUT.UseSmallFormat:0]]
[2020.08.04-18.19.40:141][  0]LogConfig: Setting CVar [[r.SkyAtmosphere.TransmittanceLUT.SampleCount:10.0]]
[2020.08.04-18.19.40:141][  0]LogConfig: Setting CVar [[r.SkyAtmosphere.MultiScatteringLUT.SampleCount:15.0]]
[2020.08.04-18.19.40:141][  0]LogConfig: Applying CVar settings from Section [FoliageQuality@3] File [C:/Users/AleixParellada/Desktop/GitKraken/programming-test-bomberman/BombermanTest/Saved/Config/Windows/Scalability.ini]
[2020.08.04-18.19.40:141][  0]LogConfig: Setting CVar [[foliage.DensityScale:1.0]]
[2020.08.04-18.19.40:141][  0]LogConfig: Setting CVar [[grass.DensityScale:1.0]]
[2020.08.04-18.19.40:141][  0]LogConfig: Applying CVar settings from Section [ShadingQuality@3] File [C:/Users/AleixParellada/Desktop/GitKraken/programming-test-bomberman/BombermanTest/Saved/Config/Windows/Scalability.ini]
[2020.08.04-18.19.40:141][  0]LogConfig: Setting CVar [[r.HairStrands.SkyLighting.SampleCount:16]]
[2020.08.04-18.19.40:141][  0]LogConfig: Setting CVar [[r.HairStrands.SkyLighting.JitterIntegration:0]]
[2020.08.04-18.19.40:141][  0]LogConfig: Setting CVar [[r.HairStrands.SkyAO.SampleCount:16]]
[2020.08.04-18.19.40:141][  0]LogConfig: Setting CVar [[r.HairStrands.DeepShadow.SuperSampling:0]]
[2020.08.04-18.19.40:141][  0]LogConfig: Setting CVar [[r.HairStrands.VisibilityPPLL:0]]
[2020.08.04-18.19.40:141][  0]LogConfig: Setting CVar [[r.HairStrands.RasterizationScale:0.5]]
[2020.08.04-18.19.40:141][  0]LogConfig: Setting CVar [[r.HairStrands.VelocityRasterizationScale:1]]
[2020.08.04-18.19.40:141][  0]LogInit: Selected Device Profile: [Windows]
[2020.08.04-18.19.40:141][  0]LogInit: Applying CVar settings loaded from the selected device profile: [Windows]
[2020.08.04-18.19.40:141][  0]LogHAL: Display: Platform has ~ 40 GB [42842025984 / 68719476736 / 40], which maps to Largest [LargestMinGB=32, LargerMinGB=12, DefaultMinGB=8, SmallerMinGB=6, SmallestMinGB=0)
[2020.08.04-18.19.40:141][  0]LogInit: Going up to parent DeviceProfile []
[2020.08.04-18.19.40:141][  0]LogConfig: Applying CVar settings from Section [ViewDistanceQuality@3] File [C:/Users/AleixParellada/Desktop/GitKraken/programming-test-bomberman/BombermanTest/Saved/Config/Windows/Scalability.ini]
[2020.08.04-18.19.40:141][  0]LogConfig: Setting CVar [[r.SkeletalMeshLODBias:0]]
[2020.08.04-18.19.40:141][  0]LogConfig: Setting CVar [[r.ViewDistanceScale:1.0]]
[2020.08.04-18.19.40:141][  0]LogConfig: Applying CVar settings from Section [AntiAliasingQuality@3] File [C:/Users/AleixParellada/Desktop/GitKraken/programming-test-bomberman/BombermanTest/Saved/Config/Windows/Scalability.ini]
[2020.08.04-18.19.40:141][  0]LogConfig: Setting CVar [[r.PostProcessAAQuality:4]]
[2020.08.04-18.19.40:142][  0]LogConfig: Applying CVar settings from Section [ShadowQuality@3] File [C:/Users/AleixParellada/Desktop/GitKraken/programming-test-bomberman/BombermanTest/Saved/Config/Windows/Scalability.ini]
[2020.08.04-18.19.40:142][  0]LogConfig: Setting CVar [[r.LightFunctionQuality:1]]
[2020.08.04-18.19.40:142][  0]LogConfig: Setting CVar [[r.ShadowQuality:5]]
[2020.08.04-18.19.40:142][  0]LogConfig: Setting CVar [[r.Shadow.CSM.MaxCascades:10]]
[2020.08.04-18.19.40:142][  0]LogConfig: Setting CVar [[r.Shadow.MaxResolution:2048]]
[2020.08.04-18.19.40:142][  0]LogConfig: Setting CVar [[r.Shadow.MaxCSMResolution:2048]]
[2020.08.04-18.19.40:142][  0]LogConfig: Setting CVar [[r.Shadow.RadiusThreshold:0.01]]
[2020.08.04-18.19.40:142][  0]LogConfig: Setting CVar [[r.Shadow.DistanceScale:1.0]]
[2020.08.04-18.19.40:142][  0]LogConfig: Setting CVar [[r.Shadow.CSM.TransitionScale:1.0]]
[2020.08.04-18.19.40:142][  0]LogConfig: Setting CVar [[r.Shadow.PreShadowResolutionFactor:1.0]]
[2020.08.04-18.19.40:142][  0]LogConfig: Setting CVar [[r.DistanceFieldShadowing:1]]
[2020.08.04-18.19.40:142][  0]LogConfig: Setting CVar [[r.DistanceFieldAO:1]]
[2020.08.04-18.19.40:142][  0]LogConfig: Setting CVar [[r.AOQuality:2]]
[2020.08.04-18.19.40:142][  0]LogConfig: Setting CVar [[r.VolumetricFog:1]]
[2020.08.04-18.19.40:142][  0]LogConfig: Setting CVar [[r.VolumetricFog.GridPixelSize:8]]
[2020.08.04-18.19.40:142][  0]LogConfig: Setting CVar [[r.VolumetricFog.GridSizeZ:128]]
[2020.08.04-18.19.40:142][  0]LogConfig: Setting CVar [[r.VolumetricFog.HistoryMissSupersampleCount:4]]
[2020.08.04-18.19.40:142][  0]LogConfig: Setting CVar [[r.LightMaxDrawDistanceScale:1]]
[2020.08.04-18.19.40:142][  0]LogConfig: Setting CVar [[r.CapsuleShadows:1]]
[2020.08.04-18.19.40:142][  0]LogConfig: Applying CVar settings from Section [PostProcessQuality@3] File [C:/Users/AleixParellada/Desktop/GitKraken/programming-test-bomberman/BombermanTest/Saved/Config/Windows/Scalability.ini]
[2020.08.04-18.19.40:142][  0]LogConfig: Setting CVar [[r.MotionBlurQuality:4]]
[2020.08.04-18.19.40:142][  0]LogConfig: Setting CVar [[r.AmbientOcclusionMipLevelFactor:0.4]]
[2020.08.04-18.19.40:142][  0]LogConfig: Setting CVar [[r.AmbientOcclusionMaxQuality:100]]
[2020.08.04-18.19.40:142][  0]LogConfig: Setting CVar [[r.AmbientOcclusionLevels:-1]]
[2020.08.04-18.19.40:142][  0]LogConfig: Setting CVar [[r.AmbientOcclusionRadiusScale:1.0]]
[2020.08.04-18.19.40:142][  0]LogConfig: Setting CVar [[r.DepthOfFieldQuality:2]]
[2020.08.04-18.19.40:142][  0]LogConfig: Setting CVar [[r.RenderTargetPoolMin:400]]
[2020.08.04-18.19.40:142][  0]LogConfig: Setting CVar [[r.LensFlareQuality:2]]
[2020.08.04-18.19.40:142][  0]LogConfig: Setting CVar [[r.SceneColorFringeQuality:1]]
[2020.08.04-18.19.40:142][  0]LogConfig: Setting CVar [[r.EyeAdaptationQuality:2]]
[2020.08.04-18.19.40:142][  0]LogConfig: Setting CVar [[r.BloomQuality:5]]
[2020.08.04-18.19.40:142][  0]LogConfig: Setting CVar [[r.FastBlurThreshold:100]]
[2020.08.04-18.19.40:142][  0]LogConfig: Setting CVar [[r.Upscale.Quality:3]]
[2020.08.04-18.19.40:142][  0]LogConfig: Setting CVar [[r.Tonemapper.GrainQuantization:1]]
[2020.08.04-18.19.40:142][  0]LogConfig: Setting CVar [[r.LightShaftQuality:1]]
[2020.08.04-18.19.40:142][  0]LogConfig: Setting CVar [[r.Filter.SizeScale:1]]
[2020.08.04-18.19.40:142][  0]LogConfig: Setting CVar [[r.Tonemapper.Quality:5]]
[2020.08.04-18.19.40:142][  0]LogConfig: Setting CVar [[r.DOF.Gather.AccumulatorQuality:1        ; higher gathering accumulator quality]]
[2020.08.04-18.19.40:142][  0]LogConfig: Setting CVar [[r.DOF.Gather.PostfilterMethod:1          ; Median3x3 postfilering method]]
[2020.08.04-18.19.40:142][  0]LogConfig: Setting CVar [[r.DOF.Gather.EnableBokehSettings:0       ; no bokeh simulation when gathering]]
[2020.08.04-18.19.40:142][  0]LogConfig: Setting CVar [[r.DOF.Gather.RingCount:4                 ; medium number of samples when gathering]]
[2020.08.04-18.19.40:142][  0]LogConfig: Setting CVar [[r.DOF.Scatter.ForegroundCompositing:1    ; additive foreground scattering]]
[2020.08.04-18.19.40:142][  0]LogConfig: Setting CVar [[r.DOF.Scatter.BackgroundCompositing:2    ; additive background scattering]]
[2020.08.04-18.19.40:142][  0]LogConfig: Setting CVar [[r.DOF.Scatter.EnableBokehSettings:1      ; bokeh simulation when scattering]]
[2020.08.04-18.19.40:142][  0]LogConfig: Setting CVar [[r.DOF.Scatter.MaxSpriteRatio:0.1         ; only a maximum of 10% of scattered bokeh]]
[2020.08.04-18.19.40:142][  0]LogConfig: Setting CVar [[r.DOF.Recombine.Quality:1                ; cheap slight out of focus]]
[2020.08.04-18.19.40:142][  0]LogConfig: Setting CVar [[r.DOF.Recombine.EnableBokehSettings:0    ; no bokeh simulation on slight out of focus]]
[2020.08.04-18.19.40:142][  0]LogConfig: Setting CVar [[r.DOF.TemporalAAQuality:1                ; more stable temporal accumulation]]
[2020.08.04-18.19.40:142][  0]LogConfig: Setting CVar [[r.DOF.Kernel.MaxForegroundRadius:0.025]]
[2020.08.04-18.19.40:142][  0]LogConfig: Setting CVar [[r.DOF.Kernel.MaxBackgroundRadius:0.025]]
[2020.08.04-18.19.40:142][  0]LogConfig: Applying CVar settings from Section [TextureQuality@3] File [C:/Users/AleixParellada/Desktop/GitKraken/programming-test-bomberman/BombermanTest/Saved/Config/Windows/Scalability.ini]
[2020.08.04-18.19.40:142][  0]LogConfig: Setting CVar [[r.Streaming.MipBias:0]]
[2020.08.04-18.19.40:142][  0]LogConfig: Setting CVar [[r.Streaming.AmortizeCPUToGPUCopy:0]]
[2020.08.04-18.19.40:142][  0]LogConfig: Setting CVar [[r.Streaming.MaxNumTexturesToStreamPerFrame:0]]
[2020.08.04-18.19.40:142][  0]LogConfig: Setting CVar [[r.Streaming.Boost:1]]
[2020.08.04-18.19.40:142][  0]LogConfig: Setting CVar [[r.MaxAnisotropy:8]]
[2020.08.04-18.19.40:142][  0]LogConfig: Setting CVar [[r.VT.MaxAnisotropy:8]]
[2020.08.04-18.19.40:142][  0]LogConfig: Setting CVar [[r.Streaming.LimitPoolSizeToVRAM:0]]
[2020.08.04-18.19.40:142][  0]LogConfig: Setting CVar [[r.Streaming.PoolSize:1000]]
[2020.08.04-18.19.40:142][  0]LogConfig: Setting CVar [[r.Streaming.MaxEffectiveScreenSize:0]]
[2020.08.04-18.19.40:142][  0]LogConfig: Applying CVar settings from Section [EffectsQuality@3] File [C:/Users/AleixParellada/Desktop/GitKraken/programming-test-bomberman/BombermanTest/Saved/Config/Windows/Scalability.ini]
[2020.08.04-18.19.40:142][  0]LogConfig: Setting CVar [[r.TranslucencyLightingVolumeDim:64]]
[2020.08.04-18.19.40:142][  0]LogConfig: Setting CVar [[r.RefractionQuality:2]]
[2020.08.04-18.19.40:142][  0]LogConfig: Setting CVar [[r.SSR.Quality:3]]
[2020.08.04-18.19.40:142][  0]LogConfig: Setting CVar [[r.SSR.HalfResSceneColor:0]]
[2020.08.04-18.19.40:142][  0]LogConfig: Setting CVar [[r.SceneColorFormat:4]]
[2020.08.04-18.19.40:142][  0]LogConfig: Setting CVar [[r.DetailMode:2]]
[2020.08.04-18.19.40:142][  0]LogConfig: Setting CVar [[r.TranslucencyVolumeBlur:1]]
[2020.08.04-18.19.40:142][  0]LogConfig: Setting CVar [[r.MaterialQualityLevel:1 ; High quality]]
[2020.08.04-18.19.40:142][  0]LogConfig: Setting CVar [[r.SSS.Scale:1]]
[2020.08.04-18.19.40:142][  0]LogConfig: Setting CVar [[r.SSS.SampleSet:2]]
[2020.08.04-18.19.40:142][  0]LogConfig: Setting CVar [[r.SSS.Quality:1]]
[2020.08.04-18.19.40:142][  0]LogConfig: Setting CVar [[r.SSS.HalfRes:0]]
[2020.08.04-18.19.40:142][  0]LogConfig: Setting CVar [[r.SSGI.Quality:3]]
[2020.08.04-18.19.40:142][  0]LogConfig: Setting CVar [[r.EmitterSpawnRateScale:1.0]]
[2020.08.04-18.19.40:142][  0]LogConfig: Setting CVar [[r.ParticleLightQuality:2]]
[2020.08.04-18.19.40:142][  0]LogConfig: Setting CVar [[r.SkyAtmosphere.AerialPerspectiveLUT.FastApplyOnOpaque:1 ; Always have FastSkyLUT 1 in this case to avoid wrong sky]]
[2020.08.04-18.19.40:142][  0]LogConfig: Setting CVar [[r.SkyAtmosphere.AerialPerspectiveLUT.SampleCountPerSlice:1]]
[2020.08.04-18.19.40:142][  0]LogConfig: Setting CVar [[r.SkyAtmosphere.AerialPerspectiveLUT.DepthResolution:16.0]]
[2020.08.04-18.19.40:142][  0]LogConfig: Setting CVar [[r.SkyAtmosphere.FastSkyLUT:1]]
[2020.08.04-18.19.40:142][  0]LogConfig: Setting CVar [[r.SkyAtmosphere.FastSkyLUT.SampleCountMin:4.0]]
[2020.08.04-18.19.40:142][  0]LogConfig: Setting CVar [[r.SkyAtmosphere.FastSkyLUT.SampleCountMax:32.0]]
[2020.08.04-18.19.40:142][  0]LogConfig: Setting CVar [[r.SkyAtmosphere.SampleCountMin:4.0]]
[2020.08.04-18.19.40:142][  0]LogConfig: Setting CVar [[r.SkyAtmosphere.SampleCountMax:32.0]]
[2020.08.04-18.19.40:142][  0]LogConfig: Setting CVar [[r.SkyAtmosphere.TransmittanceLUT.UseSmallFormat:0]]
[2020.08.04-18.19.40:142][  0]LogConfig: Setting CVar [[r.SkyAtmosphere.TransmittanceLUT.SampleCount:10.0]]
[2020.08.04-18.19.40:142][  0]LogConfig: Setting CVar [[r.SkyAtmosphere.MultiScatteringLUT.SampleCount:15.0]]
[2020.08.04-18.19.40:143][  0]LogConfig: Applying CVar settings from Section [FoliageQuality@3] File [C:/Users/AleixParellada/Desktop/GitKraken/programming-test-bomberman/BombermanTest/Saved/Config/Windows/Scalability.ini]
[2020.08.04-18.19.40:143][  0]LogConfig: Setting CVar [[foliage.DensityScale:1.0]]
[2020.08.04-18.19.40:143][  0]LogConfig: Setting CVar [[grass.DensityScale:1.0]]
[2020.08.04-18.19.40:143][  0]LogConfig: Applying CVar settings from Section [ShadingQuality@3] File [C:/Users/AleixParellada/Desktop/GitKraken/programming-test-bomberman/BombermanTest/Saved/Config/Windows/Scalability.ini]
[2020.08.04-18.19.40:143][  0]LogConfig: Setting CVar [[r.HairStrands.SkyLighting.SampleCount:16]]
[2020.08.04-18.19.40:143][  0]LogConfig: Setting CVar [[r.HairStrands.SkyLighting.JitterIntegration:0]]
[2020.08.04-18.19.40:143][  0]LogConfig: Setting CVar [[r.HairStrands.SkyAO.SampleCount:16]]
[2020.08.04-18.19.40:143][  0]LogConfig: Setting CVar [[r.HairStrands.DeepShadow.SuperSampling:0]]
[2020.08.04-18.19.40:143][  0]LogConfig: Setting CVar [[r.HairStrands.VisibilityPPLL:0]]
[2020.08.04-18.19.40:143][  0]LogConfig: Setting CVar [[r.HairStrands.RasterizationScale:0.5]]
[2020.08.04-18.19.40:143][  0]LogConfig: Setting CVar [[r.HairStrands.VelocityRasterizationScale:1]]
[2020.08.04-18.19.40:143][  0]LogConfig: Applying CVar settings from Section [Startup] File [../../../Engine/Config/ConsoleVariables.ini]
[2020.08.04-18.19.40:143][  0]LogConfig: Setting CVar [[net.UseAdaptiveNetUpdateFrequency:0]]
[2020.08.04-18.19.40:143][  0]LogConfig: Setting CVar [[p.chaos.AllowCreatePhysxBodies:1]]
[2020.08.04-18.19.40:143][  0]LogConfig: Setting CVar [[fx.SkipVectorVMBackendOptimizations:1]]
[2020.08.04-18.19.40:143][  0]LogConfig: Applying CVar settings from Section [ConsoleVariables] File [C:/Users/AleixParellada/Desktop/GitKraken/programming-test-bomberman/BombermanTest/Saved/Config/Windows/Engine.ini]
[2020.08.04-18.19.40:143][  0]LogInit: Computer: DESKTOP-KJT7HP6
[2020.08.04-18.19.40:143][  0]LogInit: User: AleixParellada
[2020.08.04-18.19.40:143][  0]LogInit: CPU Page size=4096, Cores=4
[2020.08.04-18.19.40:143][  0]LogInit: High frequency timer resolution =10.000000 MHz
[2020.08.04-18.19.40:143][  0]LogMemory: Memory total: Physical=39.9GB (40GB approx)
[2020.08.04-18.19.40:143][  0]LogMemory: Platform Memory Stats for Windows
[2020.08.04-18.19.40:143][  0]LogMemory: Process Physical Memory: 115.56 MB used, 115.57 MB peak
[2020.08.04-18.19.40:143][  0]LogMemory: Process Virtual Memory: 101.16 MB used, 101.16 MB peak
[2020.08.04-18.19.40:143][  0]LogMemory: Physical Memory: 19532.57 MB used,  21324.77 MB free, 40857.34 MB total
[2020.08.04-18.19.40:143][  0]LogMemory: Virtual Memory: 5148.57 MB used,  134212576.00 MB free, 134217728.00 MB total
[2020.08.04-18.19.40:147][  0]LogWindows: WindowsPlatformFeatures enabled
[2020.08.04-18.19.40:169][  0]LogInit: Physics initialised using underlying interface: PhysX
[2020.08.04-18.19.40:170][  0]LogInit: Overriding language with editor language configuration option (en).
[2020.08.04-18.19.40:170][  0]LogInit: Overriding locale with editor locale configuration option (en).
[2020.08.04-18.19.40:321][  0]LogInit: Setting process to per monitor DPI aware
[2020.08.04-18.19.40:366][  0]LogSlate: New Slate User Created.  User Index 0, Is Virtual User: 0
[2020.08.04-18.19.40:366][  0]LogSlate: Slate User Registered.  User Index 0, Is Virtual User: 0
[2020.08.04-18.19.40:484][  0]LogHMD: Failed to initialize OpenVR with code 110
[2020.08.04-18.19.40:484][  0]LogD3D11RHI: D3D11 min allowed feature level: 11_0
[2020.08.04-18.19.40:484][  0]LogD3D11RHI: D3D11 max allowed feature level: 11_0
[2020.08.04-18.19.40:484][  0]LogD3D11RHI: D3D11 adapters:
[2020.08.04-18.19.40:560][  0]LogD3D11RHI:    0. 'Radeon Pro 580' (Feature Level 11_0)
[2020.08.04-18.19.40:560][  0]LogD3D11RHI:       8137/0/20428 MB DedicatedVideo/DedicatedSystem/SharedSystem, Outputs:2, VendorId:0x1002
[2020.08.04-18.19.40:562][  0]LogD3D11RHI:    1. 'Microsoft Basic Render Driver' (Feature Level 11_0)
[2020.08.04-18.19.40:562][  0]LogD3D11RHI:       0/0/20428 MB DedicatedVideo/DedicatedSystem/SharedSystem, Outputs:0, VendorId:0x1414
[2020.08.04-18.19.40:562][  0]LogD3D11RHI: Chosen D3D11 Adapter: 0
[2020.08.04-18.19.40:571][  0]LogD3D11RHI: Creating new Direct3DDevice
[2020.08.04-18.19.40:571][  0]LogD3D11RHI:     GPU DeviceId: 0x67df (for the marketing name, search the web for "GPU Device Id")
[2020.08.04-18.19.40:571][  0]LogWindows: EnumDisplayDevices:
[2020.08.04-18.19.40:571][  0]LogWindows:    0. 'Radeon Pro 580' (P:1 D:1)
[2020.08.04-18.19.40:572][  0]LogWindows:    1. 'Radeon Pro 580' (P:0 D:1)
[2020.08.04-18.19.40:572][  0]LogWindows:    2. 'Radeon Pro 580' (P:0 D:0)
[2020.08.04-18.19.40:572][  0]LogWindows:    3. 'Radeon Pro 580' (P:0 D:0)
[2020.08.04-18.19.40:573][  0]LogWindows:    4. 'Radeon Pro 580' (P:0 D:0)
[2020.08.04-18.19.40:573][  0]LogWindows:    5. 'Radeon Pro 580' (P:0 D:0)
[2020.08.04-18.19.40:573][  0]LogWindows:    6. 'Radeon Pro 580' (P:0 D:0)
[2020.08.04-18.19.40:574][  0]LogWindows:    7. 'Radeon Pro 580' (P:0 D:0)
[2020.08.04-18.19.40:574][  0]LogWindows: DebugString: FoundDriverCount:8 
[2020.08.04-18.19.40:574][  0]LogD3D11RHI:     Adapter Name: Radeon Pro 580
[2020.08.04-18.19.40:574][  0]LogD3D11RHI:   Driver Version: Adrenalin 19.30.01.33 (internal:26.20.13001.33012, unified:26.20.13001.33012)
[2020.08.04-18.19.40:574][  0]LogD3D11RHI:      Driver Date: 11-21-2019
[2020.08.04-18.19.40:574][  0]LogRHI: Texture pool is 4841 MB (70% of 6916 MB)
[2020.08.04-18.19.40:657][  0]LogD3D11RHI: RHI does not have support for 64 bit atomics
[2020.08.04-18.19.40:657][  0]LogD3D11RHI: Async texture creation enabled
[2020.08.04-18.19.40:657][  0]LogD3D11RHI: Array index from any shader is supported
[2020.08.04-18.19.40:670][  0]LogD3D11RHI: GPU Timing Frequency: 25.000000 (Debug: 2 1)
[2020.08.04-18.19.40:933][  0]LogTargetPlatformManager: Display: Loaded TargetPlatform 'AllDesktop'
[2020.08.04-18.19.40:951][  0]LogTargetPlatformManager: Display: Loaded TargetPlatform 'Android'
[2020.08.04-18.19.40:951][  0]LogTargetPlatformManager: Display: Loaded TargetPlatform 'Android_ASTC'
[2020.08.04-18.19.40:951][  0]LogTargetPlatformManager: Display: Loaded TargetPlatform 'Android_DXT'
[2020.08.04-18.19.40:951][  0]LogTargetPlatformManager: Display: Loaded TargetPlatform 'Android_ETC2'
[2020.08.04-18.19.40:951][  0]LogTargetPlatformManager: Display: Loaded TargetPlatform 'AndroidClient'
[2020.08.04-18.19.40:951][  0]LogTargetPlatformManager: Display: Loaded TargetPlatform 'Android_ASTCClient'
[2020.08.04-18.19.40:951][  0]LogTargetPlatformManager: Display: Loaded TargetPlatform 'Android_DXTClient'
[2020.08.04-18.19.40:951][  0]LogTargetPlatformManager: Display: Loaded TargetPlatform 'Android_ETC2Client'
[2020.08.04-18.19.40:951][  0]LogTargetPlatformManager: Display: Loaded TargetPlatform 'Android_Multi'
[2020.08.04-18.19.40:951][  0]LogTargetPlatformManager: Display: Loaded TargetPlatform 'Android_MultiClient'
[2020.08.04-18.19.40:971][  0]LogTargetPlatformManager: Display: Loaded TargetPlatform 'IOSClient'
[2020.08.04-18.19.40:971][  0]LogTargetPlatformManager: Display: Loaded TargetPlatform 'IOS'
[2020.08.04-18.19.40:979][  0]LogTargetPlatformManager: Display: Loaded TargetPlatform 'Linux'
[2020.08.04-18.19.40:987][  0]LogTargetPlatformManager: Display: Loaded TargetPlatform 'LinuxNoEditor'
[2020.08.04-18.19.40:995][  0]LogTargetPlatformManager: Display: Loaded TargetPlatform 'LinuxClient'
[2020.08.04-18.19.41:002][  0]LogTargetPlatformManager: Display: Loaded TargetPlatform 'LinuxServer'
[2020.08.04-18.19.41:010][  0]LogTargetPlatformManager: Display: Loaded TargetPlatform 'LinuxAArch64NoEditor'
[2020.08.04-18.19.41:017][  0]LogTargetPlatformManager: Display: Loaded TargetPlatform 'LinuxAArch64Client'
[2020.08.04-18.19.41:025][  0]LogTargetPlatformManager: Display: Loaded TargetPlatform 'LinuxAArch64Server'
[2020.08.04-18.19.41:046][  0]LogTargetPlatformManager: Display: Loaded TargetPlatform 'Lumin'
[2020.08.04-18.19.41:046][  0]LogTargetPlatformManager: Display: Loaded TargetPlatform 'LuminClient'
[2020.08.04-18.19.41:059][  0]LogTargetPlatformManager: Display: Loaded TargetPlatform 'TVOSClient'
[2020.08.04-18.19.41:059][  0]LogTargetPlatformManager: Display: Loaded TargetPlatform 'TVOS'
[2020.08.04-18.19.41:068][  0]LogTargetPlatformManager: Display: Loaded TargetPlatform 'WindowsNoEditor'
[2020.08.04-18.19.41:076][  0]LogTargetPlatformManager: Display: Loaded TargetPlatform 'Windows'
[2020.08.04-18.19.41:085][  0]LogTargetPlatformManager: Display: Loaded TargetPlatform 'WindowsClient'
[2020.08.04-18.19.41:092][  0]LogTargetPlatformManager: Display: Loaded TargetPlatform 'WindowsServer'
[2020.08.04-18.19.41:093][  0]LogTargetPlatformManager: Display: Building Assets For Windows
[2020.08.04-18.19.41:102][  0]LogAudioDebug: Display: Lib vorbis DLL was dynamically loaded.
[2020.08.04-18.19.41:152][  0]LogShaderCompilers: Guid format shader working directory is -43 characters bigger than the processId version (../../../../../../Users/AleixParellada/Desktop/GitKraken/programming-test-bomberman/BombermanTest/Intermediate/Shaders/WorkingDirectory/20232/).
[2020.08.04-18.19.41:152][  0]LogShaderCompilers: Cleaned the shader compiler working directory 'C:/Users/AleixParellada/AppData/Local/Temp/UnrealShaderWorkingDir/354225B14845820D020CD18CC75869BD/'.
[2020.08.04-18.19.41:152][  0]LogXGEController: Cleaning working directory: C:/Users/AleixParellada/AppData/Local/Temp/UnrealXGEWorkingDir/
[2020.08.04-18.19.41:153][  0]LogShaderCompilers: Display: Using XGE Shader Compiler (Interception Interface).
[2020.08.04-18.19.41:780][  0]LogDerivedDataCache: Display: Max Cache Size: 512 MB
[2020.08.04-18.19.41:824][  0]LogDerivedDataCache: Loaded boot cache 0.04s 76MB C:/Users/AleixParellada/AppData/Local/UnrealEngine/4.25/DerivedDataCache/Boot.ddc.
[2020.08.04-18.19.41:824][  0]LogDerivedDataCache: Display: Loaded Boot cache: C:/Users/AleixParellada/AppData/Local/UnrealEngine/4.25/DerivedDataCache/Boot.ddc
[2020.08.04-18.19.41:825][  0]LogDerivedDataCache: FDerivedDataBackendGraph:  Pak pak cache file ../../../../../../Users/AleixParellada/Desktop/GitKraken/programming-test-bomberman/BombermanTest/DerivedDataCache/DDC.ddp not found, will not use a pak cache.
[2020.08.04-18.19.41:825][  0]LogDerivedDataCache: Unable to find inner node Pak for hierarchical cache Hierarchy.
[2020.08.04-18.19.41:825][  0]LogDerivedDataCache: FDerivedDataBackendGraph:  CompressedPak pak cache file ../../../../../../Users/AleixParellada/Desktop/GitKraken/programming-test-bomberman/BombermanTest/DerivedDataCache/Compressed.ddp not found, will not use a pak cache.
[2020.08.04-18.19.41:825][  0]LogDerivedDataCache: Unable to find inner node CompressedPak for hierarchical cache Hierarchy.
[2020.08.04-18.19.41:833][  0]LogDerivedDataCache: Display: Pak cache opened for reading ../../../Engine/DerivedDataCache/Compressed.ddp.
[2020.08.04-18.19.41:833][  0]LogDerivedDataCache: FDerivedDataBackendGraph:  EnterprisePak pak cache file ../../../Enterprise/DerivedDataCache/Compressed.ddp not found, will not use a pak cache.
[2020.08.04-18.19.41:833][  0]LogDerivedDataCache: Unable to find inner node EnterprisePak for hierarchical cache Hierarchy.
[2020.08.04-18.19.41:834][  0]LogDerivedDataCache: Using Local data cache path C:/Users/AleixParellada/AppData/Local/UnrealEngine/Common/DerivedDataCache: Writable
[2020.08.04-18.19.41:834][  0]LogDerivedDataCache: Shared data cache path not found in *engine.ini, will not use an Shared cache.
[2020.08.04-18.19.41:834][  0]LogDerivedDataCache: Unable to find inner node Shared for hierarchical cache Hierarchy.
[2020.08.04-18.19.41:879][  0]LogSlate: Using FreeType 2.10.0
[2020.08.04-18.19.41:879][  0]LogSlate: SlateFontServices - WITH_FREETYPE: 1, WITH_HARFBUZZ: 1
[2020.08.04-18.19.41:898][  0]LogAssetRegistry: FAssetRegistry took 0.0022 seconds to start up
[2020.08.04-18.19.42:101][  0]LogInit: Selected Device Profile: [Windows]
[2020.08.04-18.19.42:190][  0]LogMeshReduction: Using QuadricMeshReduction for automatic static mesh reduction
[2020.08.04-18.19.42:190][  0]LogMeshReduction: Using SimplygonMeshReduction for automatic skeletal mesh reduction
[2020.08.04-18.19.42:190][  0]LogMeshReduction: Using ProxyLODMeshReduction for automatic mesh merging
[2020.08.04-18.19.42:190][  0]LogMeshReduction: No distributed automatic mesh merging module available
[2020.08.04-18.19.42:190][  0]LogMeshMerging: No distributed automatic mesh merging module available
[2020.08.04-18.19.42:207][  0]LogNetVersion: BombermanTest 1.0.0, NetCL: 13144385, EngineNetVer: 14, GameNetVer: 0 (Checksum: 2821703811)
[2020.08.04-18.19.42:554][  0]LogAISub: UAISubsystem::UAISubsystem AISubsystem (0000021DBEC15BC0), frame # 0
[2020.08.04-18.19.42:554][  0]LogAISub: UAISubsystem::UAISubsystem AIPerceptionSystem (0000021DC153CCC0), frame # 0
[2020.08.04-18.19.42:555][  0]LogAISub: UAISubsystem::UAISubsystem EnvQueryManager (0000021DC15A4A00), frame # 0
[2020.08.04-18.19.42:613][  0]LogPackageLocalizationCache: Processed 19 localized package path(s) for 1 prioritized culture(s) in 0.052881 seconds
[2020.08.04-18.19.42:618][  0]LogUObjectArray: 15917 objects as part of root set at end of initial load.
[2020.08.04-18.19.42:618][  0]LogUObjectAllocator: 3965568 out of 0 bytes used by permanent object pool.
[2020.08.04-18.19.42:618][  0]LogUObjectArray: CloseDisregardForGC: 0/0 objects in disregard for GC pool
[2020.08.04-18.19.42:884][  0]LogTcpMessaging: Initializing TcpMessaging bridge
[2020.08.04-18.19.42:888][  0]LogUdpMessaging: Initializing bridge on interface 0.0.0.0:0 to multicast group 230.0.0.1:6666.
[2020.08.04-18.19.42:975][  0]SourceControl: Source control is disabled
[2020.08.04-18.19.42:975][  0]SourceControl: Source control is disabled
[2020.08.04-18.19.42:977][  0]SourceControl: Source control is disabled
[2020.08.04-18.19.42:980][  0]SourceControl: Source control is disabled
[2020.08.04-18.19.42:985][  0]SourceControl: Source control is disabled
[2020.08.04-18.19.43:170][  0]LogAndroidPermission: UAndroidPermissionCallbackProxy::GetInstance
[2020.08.04-18.19.43:185][  0]LogAudioCaptureCore: Display: No Audio Capture implementations found. Audio input will be silent.
[2020.08.04-18.19.43:185][  0]LogAudioCaptureCore: Display: No Audio Capture implementations found. Audio input will be silent.
[2020.08.04-18.19.43:226][  0]LogOcInput: OculusInput pre-init called
[2020.08.04-18.19.43:235][  0]LogWindows: Failed to load 'OVRPlugin.dll' (GetLastError=126)
[2020.08.04-18.19.43:235][  0]LogWindows: File 'OVRPlugin.dll' does not exist
[2020.08.04-18.19.43:283][  0]LogEngine: Initializing Engine...
[2020.08.04-18.19.43:284][  0]LogHMD: Failed to initialize OpenVR with code 110
[2020.08.04-18.19.43:284][  0]LogMagicLeap: Warning: VR disabled because ZI is not enabled.  To enable, in the editor, Edit -> Project Settings -> Plugins -> Magic Leap Plugin -> Enable Zero Iteration
[2020.08.04-18.19.43:285][  0]LogStats: UGameplayTagsManager::InitializeManager -  0.000 s
[2020.08.04-18.19.43:386][  0]LogInit: Initializing FReadOnlyCVARCache
[2020.08.04-18.19.43:391][  0]LogAIModule: Creating AISystem for world Untitled
[2020.08.04-18.19.43:391][  0]LogAISub: UAISubsystem::UAISubsystem EnvQueryManager (0000021DCA1ED200), frame # 0
[2020.08.04-18.19.43:391][  0]LogAISub: UAISubsystem::UAISubsystem AIPerceptionSystem (0000021DCA1B7B00), frame # 0
[2020.08.04-18.19.43:410][  0]LogAudioMixer: Display: Audio Mixer Platform Settings:
[2020.08.04-18.19.43:410][  0]LogAudioMixer: Display: 	Sample Rate:						  48000
[2020.08.04-18.19.43:410][  0]LogAudioMixer: Display: 	Callback Buffer Frame Size Requested: 1024
[2020.08.04-18.19.43:410][  0]LogAudioMixer: Display: 	Callback Buffer Frame Size To Use:	  1024
[2020.08.04-18.19.43:410][  0]LogAudioMixer: Display: 	Number of buffers to queue:			  2
[2020.08.04-18.19.43:410][  0]LogAudioMixer: Display: 	Max Channels (voices):				  32
[2020.08.04-18.19.43:410][  0]LogAudioMixer: Display: 	Number of Async Source Workers:		  0
[2020.08.04-18.19.43:410][  0]LogAudio: Display: AudioDevice MaxSources: 32
[2020.08.04-18.19.43:410][  0]LogAudio: Display: Using built-in audio occlusion.
[2020.08.04-18.19.43:410][  0]LogAudioMixer: Display: Initializing audio mixer.
[2020.08.04-18.19.43:422][  0]LogAudioMixer: Display: 0: FrontLeft
[2020.08.04-18.19.43:422][  0]LogAudioMixer: Display: 1: FrontRight
[2020.08.04-18.19.43:422][  0]LogAudioMixer: Display: 2: BackLeft
[2020.08.04-18.19.43:422][  0]LogAudioMixer: Display: 3: BackRight
[2020.08.04-18.19.43:451][  0]LogAudioMixer: Display: Using Audio Device Altavoces (Cirrus Logic CS8409 (AB 16))
[2020.08.04-18.19.43:453][  0]LogAudioMixer: Display: Initializing Sound Submixes...
[2020.08.04-18.19.43:455][  0]LogAudioMixer: Display: Creating Master Submix 'MasterSubmixDefault'
[2020.08.04-18.19.43:455][  0]LogAudioMixer: Display: Creating Master Submix 'MasterReverbSubmixDefault'
[2020.08.04-18.19.43:456][  0]LogAudioMixer: Display: Creating Master Submix 'MasterEQSubmixDefault'
[2020.08.04-18.19.43:457][  0]LogInit: FAudioDevice initialized.
[2020.08.04-18.19.43:457][  0]LogNetVersion: Set ProjectVersion to 1.0.0.0. Version Checksum will be recalculated on next use.
[2020.08.04-18.19.43:612][  0]LogDerivedDataCache: Saved boot cache 0.15s 76MB C:/Users/AleixParellada/AppData/Local/UnrealEngine/4.25/DerivedDataCache/Boot.ddc.
[2020.08.04-18.19.43:615][  0]LogInit: Texture streaming: Enabled
[2020.08.04-18.19.43:628][  0]LogEngineSessionManager: EngineSessionManager initialized
[2020.08.04-18.19.43:628][  0]LogEngineSessionManager: EngineSessionManager sent abnormal shutdown report. Type=Crashed, SessionId={C2F30AD1-420E-ACA2-7B3D-3BB5665C7E21}
[2020.08.04-18.19.43:628][  0]LogEditorSessionSummary: Verbose: Initializing EditorSessionSummaryWriter for editor session tracking
[2020.08.04-18.19.43:630][  0]LogEditorSessionSummary: EditorSessionSummaryWriter initialized
[2020.08.04-18.19.43:681][  0]LogInit: Transaction tracking system initialized
[2020.08.04-18.19.43:698][  0]BlueprintLog: New page: Editor Load
[2020.08.04-18.19.43:750][  0]LocalizationService: Localization service is disabled
[2020.08.04-18.19.43:872][  0]LogCook: Display: Max memory allowance for cook 16384mb min free memory 0mb
[2020.08.04-18.19.43:872][  0]LogCook: Display: Mobile HDR setting 1
[2020.08.04-18.19.43:976][  0]LogFileCache: Scanning file cache for directory 'C:/Users/AleixParellada/Desktop/GitKraken/programming-test-bomberman/BombermanTest/Content/' took 0.00s
[2020.08.04-18.19.44:145][  0]SourceControl: Source control is disabled
[2020.08.04-18.19.44:145][  0]LogUnrealEdMisc: Loading editor; pre map load, took 5.351
[2020.08.04-18.19.44:145][  0]Cmd: MAP LOAD FILE="../../../../../../Users/AleixParellada/Desktop/GitKraken/programming-test-bomberman/BombermanTest/Content/Maps/TestMap.umap" TEMPLATE=0 SHOWPROGRESS=1 FEATURELEVEL=3
[2020.08.04-18.19.44:145][  0]LightingResults: New page: Lighting Build
[2020.08.04-18.19.44:146][  0]LogWorld: UWorld::CleanupWorld for Untitled, bSessionEnded=true, bCleanupResources=true
[2020.08.04-18.19.44:146][  0]LogSlate: InvalidateAllWidgets triggered.  All widgets were invalidated
[2020.08.04-18.19.44:146][  0]MapCheck: New page: Map Check
[2020.08.04-18.19.44:146][  0]LightingResults: New page: Lighting Build
[2020.08.04-18.19.44:154][  0]LogAISub: UAISubsystem::~UAISubsystem EnvQueryManager (0000021DCA1ED200), frame # 0
[2020.08.04-18.19.44:154][  0]LogAISub: UAISubsystem::~UAISubsystem AIPerceptionSystem (0000021DCA1B7B00), frame # 0
[2020.08.04-18.19.44:154][  0]LogUObjectHash: Compacting FUObjectHashTables data took   0.53ms
[2020.08.04-18.19.44:227][  0]LogProperty: Warning: Serialized Class /Script/Engine.Skeleton for a property of Class /Script/Engine.SkeletalMesh. Reference will be nullptred.
    Property = SoftObjectProperty /Script/Engine.PhysicsAsset:PreviewSkeletalMesh
    Item = Skeleton /Game/Assets/Bomberman/Bomberman_Skeleton.Bomberman_Skeleton
[2020.08.04-18.19.44:310][  0]LogAIModule: Creating AISystem for world TestMap
[2020.08.04-18.19.44:310][  0]LogAISub: UAISubsystem::UAISubsystem EnvQueryManager (0000021DB683E600), frame # 0
[2020.08.04-18.19.44:310][  0]LogAISub: UAISubsystem::UAISubsystem AIPerceptionSystem (0000021DB5ACD300), frame # 0
[2020.08.04-18.19.44:341][  0]LogEditorServer: Finished looking for orphan Actors (0.000 secs)
[2020.08.04-18.19.44:357][  0]LogUObjectHash: Compacting FUObjectHashTables data took   0.66ms
[2020.08.04-18.19.44:357][  0]Cmd: MAP CHECKDEP NOCLEARLOG
[2020.08.04-18.19.44:357][  0]MapCheck: Map check complete: 0 Error(s), 0 Warning(s), took 0.123ms to complete.
[2020.08.04-18.19.44:357][  0]LogFileHelpers: Loading map 'TestMap' took 0.212
[2020.08.04-18.19.44:360][  0]LogUnrealEdMisc: Total Editor Startup Time, took 5.565
[2020.08.04-18.19.44:506][  0]LogSlate: Updating window title bar state: overlay mode, drag disabled, window buttons hidden, title bar hidden
[2020.08.04-18.19.44:512][  0]LogSlate: Updating window title bar state: overlay mode, drag disabled, window buttons hidden, title bar hidden
[2020.08.04-18.19.44:518][  0]LogSlate: Updating window title bar state: overlay mode, drag disabled, window buttons hidden, title bar hidden
[2020.08.04-18.19.44:524][  0]LogSlate: Updating window title bar state: overlay mode, drag disabled, window buttons hidden, title bar hidden
[2020.08.04-18.19.44:529][  0]LogCollectionManager: Loaded 0 collections in 0.001519 seconds
[2020.08.04-18.19.44:544][  0]LogFileCache: Scanning file cache for directory 'C:/Users/AleixParellada/Desktop/GitKraken/programming-test-bomberman/BombermanTest/Saved/Collections/' took 0.00s
[2020.08.04-18.19.44:544][  0]LogFileCache: Scanning file cache for directory 'C:/Users/AleixParellada/Desktop/GitKraken/programming-test-bomberman/BombermanTest/Content/Developers/AleixParellada/Collections/' took 0.00s
[2020.08.04-18.19.44:544][  0]LogFileCache: Scanning file cache for directory 'C:/Users/AleixParellada/Desktop/GitKraken/programming-test-bomberman/BombermanTest/Content/Collections/' took 0.00s
[2020.08.04-18.19.44:544][  0]LogContentBrowser: Native class hierarchy populated in 0.0118 seconds. Added 3439 classes and 823 folders.
[2020.08.04-18.19.44:546][  0]LogContentBrowser: Native class hierarchy updated for 'WidgetCarousel' in 0.0003 seconds. Added 0 classes and 0 folders.
[2020.08.04-18.19.44:592][  0]LogContentBrowser: Native class hierarchy updated for 'AddContentDialog' in 0.0003 seconds. Added 0 classes and 0 folders.
[2020.08.04-18.19.44:593][  0]LogContentBrowser: Native class hierarchy updated for 'SceneOutliner' in 0.0003 seconds. Added 2 classes and 0 folders.
[2020.08.04-18.19.44:999][  0]LogSlate: Took 0.000147 seconds to synchronously load lazily loaded font '../../../Engine/Content/Slate/Fonts/Roboto-Regular.ttf' (155K)
[2020.08.04-18.19.45:001][  0]LogSlate: Took 0.000114 seconds to synchronously load lazily loaded font '../../../Engine/Content/Slate/Fonts/Roboto-Bold.ttf' (160K)
[2020.08.04-18.19.45:004][  0]LogSlate: Took 0.000110 seconds to synchronously load lazily loaded font '../../../Engine/Content/Editor/Slate/Fonts/FontAwesome.ttf' (139K)
[2020.08.04-18.19.45:006][  0]LogSlate: Took 0.000077 seconds to synchronously load lazily loaded font '../../../Engine/Content/Slate/Fonts/DroidSansMono.ttf' (77K)
[2020.08.04-18.19.45:109][  0]LogRenderer: Reallocating scene render targets to support 1264x580 Format 10 NumSamples 1 (Frame:1).
[2020.08.04-18.19.45:214][  0]LogContentBrowser: Native class hierarchy updated for 'HierarchicalLODOutliner' in 0.0004 seconds. Added 0 classes and 0 folders.
[2020.08.04-18.19.45:214][  0]LogLoad: (Engine Initialization) Total time: 6.42 seconds
[2020.08.04-18.19.45:214][  0]LogLoad: (Engine Initialization) Total Blueprint compile time: 0.00 seconds
[2020.08.04-18.19.45:264][  0]LogAssetRegistry: Asset discovery search completed in 3.3660 seconds
[2020.08.04-18.19.45:269][  0]LogCollectionManager: Fixed up redirectors for 0 collections in 0.000003 seconds (updated 0 objects)
[2020.08.04-18.19.45:271][  0]LogContentStreaming: Texture pool size now 1000 MB
[2020.08.04-18.19.45:295][  0]LogSlate: Took 0.000088 seconds to synchronously load lazily loaded font '../../../Engine/Content/Slate/Fonts/Roboto-Light.ttf' (167K)
[2020.08.04-18.19.45:307][  1]LogFileCache: Retrieving MD5 hashes for directory 'C:/Users/AleixParellada/Desktop/GitKraken/programming-test-bomberman/BombermanTest/Content/' took 0.07s
[2020.08.04-18.19.47:283][223]LogTemp: Repeating last play command: Selected Viewport
[2020.08.04-18.19.47:303][223]LogPlayLevel: PlayLevel: No blueprints needed recompiling
[2020.08.04-18.19.47:303][223]PIE: New page: PIE session: TestMap (Aug 4, 2020, 10:19:47 PM)
[2020.08.04-18.19.47:304][223]LogOnline: OSS: Creating online subsystem instance for: NULL
[2020.08.04-18.19.47:305][223]LogOnline: OSS: TryLoadSubsystemAndSetDefault: Loaded subsystem for module [NULL]
[2020.08.04-18.19.47:305][223]LogPlayLevel: Creating play world package: /Game/Maps/UEDPIE_0_TestMap
[2020.08.04-18.19.47:310][223]LogPlayLevel: PIE: StaticDuplicateObject took: (0.004561s)
[2020.08.04-18.19.47:311][223]LogAIModule: Creating AISystem for world TestMap
[2020.08.04-18.19.47:311][223]LogAISub: UAISubsystem::UAISubsystem EnvQueryManager (0000021E027C9C00), frame # 223
[2020.08.04-18.19.47:311][223]LogAISub: UAISubsystem::UAISubsystem AIPerceptionSystem (0000021DB5ACE480), frame # 223
[2020.08.04-18.19.47:311][223]LogPlayLevel: PIE: World Init took: (0.001406s)
[2020.08.04-18.19.47:311][223]LogPlayLevel: PIE: Created PIE world by copying editor world from /Game/Maps/TestMap.TestMap to /Game/Maps/UEDPIE_0_TestMap.TestMap (0.006178s)
[2020.08.04-18.19.47:319][223]LogUObjectHash: Compacting FUObjectHashTables data took   0.78ms
[2020.08.04-18.19.47:321][223]LogAudioMixer: Display: Audio Mixer Platform Settings:
[2020.08.04-18.19.47:321][223]LogAudioMixer: Display: 	Sample Rate:						  48000
[2020.08.04-18.19.47:321][223]LogAudioMixer: Display: 	Callback Buffer Frame Size Requested: 1024
[2020.08.04-18.19.47:321][223]LogAudioMixer: Display: 	Callback Buffer Frame Size To Use:	  1024
[2020.08.04-18.19.47:321][223]LogAudioMixer: Display: 	Number of buffers to queue:			  2
[2020.08.04-18.19.47:321][223]LogAudioMixer: Display: 	Max Channels (voices):				  32
[2020.08.04-18.19.47:321][223]LogAudioMixer: Display: 	Number of Async Source Workers:		  0
[2020.08.04-18.19.47:321][223]LogAudio: Display: AudioDevice MaxSources: 32
[2020.08.04-18.19.47:321][223]LogAudio: Display: Using built-in audio occlusion.
[2020.08.04-18.19.47:321][223]LogAudioMixer: Display: Initializing audio mixer.
[2020.08.04-18.19.47:325][223]LogAudioMixer: Display: 0: FrontLeft
[2020.08.04-18.19.47:325][223]LogAudioMixer: Display: 1: FrontRight
[2020.08.04-18.19.47:325][223]LogAudioMixer: Display: 2: BackLeft
[2020.08.04-18.19.47:325][223]LogAudioMixer: Display: 3: BackRight
[2020.08.04-18.19.47:343][223]LogAudioMixer: Display: Using Audio Device Altavoces (Cirrus Logic CS8409 (AB 16))
[2020.08.04-18.19.47:343][223]LogAudioMixer: Display: Initializing Sound Submixes...
[2020.08.04-18.19.47:343][223]LogAudioMixer: Display: Creating Master Submix 'MasterSubmixDefault'
[2020.08.04-18.19.47:343][223]LogAudioMixer: Display: Creating Master Submix 'MasterReverbSubmixDefault'
[2020.08.04-18.19.47:344][223]LogAudioMixer: Display: Creating Master Submix 'MasterEQSubmixDefault'
[2020.08.04-18.19.47:356][223]LogInit: FAudioDevice initialized.
[2020.08.04-18.19.47:363][223]LogLoad: Game class is 'BP_BombermanTestGameModeBase_C'
[2020.08.04-18.19.47:365][223]LogWorld: Bringing World /Game/Maps/UEDPIE_0_TestMap.TestMap up for play (max tick rate 0) at 2020.08.04-20.19.47
[2020.08.04-18.19.47:377][223]LogWorld: Bringing up level for play took: 0.012183
[2020.08.04-18.19.47:377][223]LogOnline: OSS: Creating online subsystem instance for: :Context_3
[2020.08.04-18.19.47:381][223]LogContentBrowser: Native class hierarchy updated for 'MovieSceneCapture' in 0.0004 seconds. Added 20 classes and 0 folders.
[2020.08.04-18.19.47:387][223]PIE: Server logged in
[2020.08.04-18.19.47:389][223]PIE: Play in editor total start time 0.087 seconds.
[2020.08.04-18.20.08:941][253]LogEditorViewport: Clicking on Actor (LMB): BP_BombExplosionFire_C (BP_BombExplosionFire8)
[2020.08.04-18.20.25:394][347]LogSlate: Updating window title bar state: overlay mode, drag disabled, window buttons hidden, title bar hidden
[2020.08.04-18.20.25:394][347]LogWorld: BeginTearingDown for /Game/Maps/UEDPIE_0_TestMap
[2020.08.04-18.20.25:395][347]LogWorld: UWorld::CleanupWorld for TestMap, bSessionEnded=true, bCleanupResources=true
[2020.08.04-18.20.25:395][347]LogSlate: InvalidateAllWidgets triggered.  All widgets were invalidated
[2020.08.04-18.20.25:405][347]LogPlayLevel: Display: Shutting down PIE online subsystems
[2020.08.04-18.20.25:406][347]LogSlate: InvalidateAllWidgets triggered.  All widgets were invalidated
[2020.08.04-18.20.25:427][347]LogSlate: Updating window title bar state: overlay mode, drag disabled, window buttons hidden, title bar hidden
[2020.08.04-18.20.25:429][347]LogAISub: UAISubsystem::~UAISubsystem AIPerceptionSystem (0000021DB5ACE480), frame # 3347
[2020.08.04-18.20.25:429][347]LogAISub: UAISubsystem::~UAISubsystem EnvQueryManager (0000021E027C9C00), frame # 3347
[2020.08.04-18.20.25:430][347]LogUObjectHash: Compacting FUObjectHashTables data took   0.68ms
[2020.08.04-18.20.25:465][349]LogPlayLevel: Display: Destroying online subsystem :Context_3
[2020.08.04-18.20.28:208][395]LogHotReload: New module detected: UE4Editor-BombermanTest-0001.dll
[2020.08.04-18.20.28:902][398]LogHotReload: Starting Hot-Reload from IDE
[2020.08.04-18.20.28:905][398]LogSlate: Took 0.000131 seconds to synchronously load lazily loaded font '../../../Engine/Content/Slate/Fonts/Roboto-Light.ttf' (167K)
[2020.08.04-18.20.28:946][398]LogContentBrowser: Native class hierarchy updated for 'BombermanTest' in 0.0004 seconds. Added 12 classes and 2 folders.
[2020.08.04-18.20.28:947][398]Display: HotReload successful (9 functions remapped  0 scriptstructs remapped)
[2020.08.04-18.20.28:991][398]LogContentBrowser: Native class hierarchy populated in 0.0110 seconds. Added 3439 classes and 823 folders.
[2020.08.04-18.20.28:995][398]Display: HotReload took  0.1s.
[2020.08.04-18.21.43:534][680]LogHotReload: New module detected: UE4Editor-BombermanTest-0002.dll
[2020.08.04-18.21.44:413][716]LogHotReload: Starting Hot-Reload from IDE
[2020.08.04-18.21.44:462][716]LogContentBrowser: Native class hierarchy updated for 'BombermanTest' in 0.0003 seconds. Added 12 classes and 2 folders.
[2020.08.04-18.21.44:463][716]Display: HotReload successful (9 functions remapped  0 scriptstructs remapped)
[2020.08.04-18.21.44:498][716]LogContentBrowser: Native class hierarchy populated in 0.0073 seconds. Added 3439 classes and 823 folders.
[2020.08.04-18.21.44:501][716]Display: HotReload took  0.1s.
[2020.08.04-18.21.45:968][841]LogTemp: Repeating last play command: Selected Viewport
[2020.08.04-18.21.45:988][841]LogPlayLevel: PlayLevel: No blueprints needed recompiling
[2020.08.04-18.21.45:989][841]PIE: New page: PIE session: TestMap (Aug 4, 2020, 10:21:45 PM)
[2020.08.04-18.21.45:989][841]LogPlayLevel: Creating play world package: /Game/Maps/UEDPIE_0_TestMap
[2020.08.04-18.21.45:992][841]LogPlayLevel: PIE: StaticDuplicateObject took: (0.003343s)
[2020.08.04-18.21.45:993][841]LogAIModule: Creating AISystem for world TestMap
[2020.08.04-18.21.45:993][841]LogAISub: UAISubsystem::UAISubsystem EnvQueryManager (0000021DD37DBE00), frame # 3841
[2020.08.04-18.21.45:993][841]LogAISub: UAISubsystem::UAISubsystem AIPerceptionSystem (0000021DEE47DA80), frame # 3841
[2020.08.04-18.21.45:993][841]LogPlayLevel: PIE: World Init took: (0.001216s)
[2020.08.04-18.21.45:993][841]LogPlayLevel: PIE: Created PIE world by copying editor world from /Game/Maps/TestMap.TestMap to /Game/Maps/UEDPIE_0_TestMap.TestMap (0.004698s)
[2020.08.04-18.21.46:001][841]LogUObjectHash: Compacting FUObjectHashTables data took   0.52ms
[2020.08.04-18.21.46:002][841]LogAudioMixer: Display: Audio Mixer Platform Settings:
[2020.08.04-18.21.46:002][841]LogAudioMixer: Display: 	Sample Rate:						  48000
[2020.08.04-18.21.46:002][841]LogAudioMixer: Display: 	Callback Buffer Frame Size Requested: 1024
[2020.08.04-18.21.46:002][841]LogAudioMixer: Display: 	Callback Buffer Frame Size To Use:	  1024
[2020.08.04-18.21.46:002][841]LogAudioMixer: Display: 	Number of buffers to queue:			  2
[2020.08.04-18.21.46:002][841]LogAudioMixer: Display: 	Max Channels (voices):				  32
[2020.08.04-18.21.46:002][841]LogAudioMixer: Display: 	Number of Async Source Workers:		  0
[2020.08.04-18.21.46:002][841]LogAudio: Display: AudioDevice MaxSources: 32
[2020.08.04-18.21.46:003][841]LogAudio: Display: Using built-in audio occlusion.
[2020.08.04-18.21.46:003][841]LogAudioMixer: Display: Initializing audio mixer.
[2020.08.04-18.21.46:007][841]LogAudioMixer: Display: 0: FrontLeft
[2020.08.04-18.21.46:007][841]LogAudioMixer: Display: 1: FrontRight
[2020.08.04-18.21.46:007][841]LogAudioMixer: Display: 2: BackLeft
[2020.08.04-18.21.46:007][841]LogAudioMixer: Display: 3: BackRight
[2020.08.04-18.21.46:022][841]LogAudioMixer: Display: Using Audio Device Altavoces (Cirrus Logic CS8409 (AB 16))
[2020.08.04-18.21.46:022][841]LogAudioMixer: Display: Initializing Sound Submixes...
[2020.08.04-18.21.46:022][841]LogAudioMixer: Display: Creating Master Submix 'MasterSubmixDefault'
[2020.08.04-18.21.46:022][841]LogAudioMixer: Display: Creating Master Submix 'MasterReverbSubmixDefault'
[2020.08.04-18.21.46:022][841]LogAudioMixer: Display: Creating Master Submix 'MasterEQSubmixDefault'
[2020.08.04-18.21.46:035][841]LogInit: FAudioDevice initialized.
[2020.08.04-18.21.46:046][841]LogLoad: Game class is 'BP_BombermanTestGameModeBase_C'
[2020.08.04-18.21.46:048][841]LogWorld: Bringing World /Game/Maps/UEDPIE_0_TestMap.TestMap up for play (max tick rate 0) at 2020.08.04-20.21.46
[2020.08.04-18.21.46:049][841]LogWorld: Bringing up level for play took: 0.001804
[2020.08.04-18.21.46:049][841]LogOnline: OSS: Creating online subsystem instance for: :Context_8
[2020.08.04-18.21.46:057][841]PIE: Server logged in
[2020.08.04-18.21.46:058][841]PIE: Play in editor total start time 0.073 seconds.
[2020.08.04-18.21.55:254][782]LogSlate: Updating window title bar state: overlay mode, drag disabled, window buttons hidden, title bar hidden
[2020.08.04-18.21.55:255][782]LogWorld: BeginTearingDown for /Game/Maps/UEDPIE_0_TestMap
[2020.08.04-18.21.55:255][782]LogWorld: UWorld::CleanupWorld for TestMap, bSessionEnded=true, bCleanupResources=true
[2020.08.04-18.21.55:255][782]LogSlate: InvalidateAllWidgets triggered.  All widgets were invalidated
[2020.08.04-18.21.55:265][782]LogPlayLevel: Display: Shutting down PIE online subsystems
[2020.08.04-18.21.55:266][782]LogSlate: InvalidateAllWidgets triggered.  All widgets were invalidated
[2020.08.04-18.21.55:288][782]LogSlate: Updating window title bar state: overlay mode, drag disabled, window buttons hidden, title bar hidden
[2020.08.04-18.21.55:289][782]LogAISub: UAISubsystem::~UAISubsystem AIPerceptionSystem (0000021DEE47DA80), frame # 4782
[2020.08.04-18.21.55:289][782]LogAISub: UAISubsystem::~UAISubsystem EnvQueryManager (0000021DD37DBE00), frame # 4782
[2020.08.04-18.21.55:289][782]LogUObjectHash: Compacting FUObjectHashTables data took   0.56ms
[2020.08.04-18.21.55:350][784]LogPlayLevel: Display: Destroying online subsystem :Context_8
[2020.08.04-18.22.03:815][961]LogHotReload: New module detected: UE4Editor-BombermanTest-0003.dll
[2020.08.04-18.22.04:508][964]LogHotReload: Starting Hot-Reload from IDE
[2020.08.04-18.22.04:557][964]LogContentBrowser: Native class hierarchy updated for 'BombermanTest' in 0.0005 seconds. Added 12 classes and 2 folders.
[2020.08.04-18.22.04:559][964]Display: HotReload successful (9 functions remapped  0 scriptstructs remapped)
[2020.08.04-18.22.04:597][964]LogContentBrowser: Native class hierarchy populated in 0.0110 seconds. Added 3439 classes and 823 folders.
[2020.08.04-18.22.04:600][964]Display: HotReload took  0.1s.
[2020.08.04-18.22.05:820][967]LogTemp: Repeating last play command: Selected Viewport
[2020.08.04-18.22.05:840][967]LogPlayLevel: PlayLevel: No blueprints needed recompiling
[2020.08.04-18.22.05:840][967]PIE: New page: PIE session: TestMap (Aug 4, 2020, 10:22:05 PM)
[2020.08.04-18.22.05:841][967]LogPlayLevel: Creating play world package: /Game/Maps/UEDPIE_0_TestMap
[2020.08.04-18.22.05:844][967]LogPlayLevel: PIE: StaticDuplicateObject took: (0.003451s)
[2020.08.04-18.22.05:845][967]LogAIModule: Creating AISystem for world TestMap
[2020.08.04-18.22.05:845][967]LogAISub: UAISubsystem::UAISubsystem EnvQueryManager (0000021DF876D400), frame # 4967
[2020.08.04-18.22.05:845][967]LogAISub: UAISubsystem::UAISubsystem AIPerceptionSystem (0000021DF8754B80), frame # 4967
[2020.08.04-18.22.05:845][967]LogPlayLevel: PIE: World Init took: (0.000864s)
[2020.08.04-18.22.05:845][967]LogPlayLevel: PIE: Created PIE world by copying editor world from /Game/Maps/TestMap.TestMap to /Game/Maps/UEDPIE_0_TestMap.TestMap (0.004437s)
[2020.08.04-18.22.05:852][967]LogUObjectHash: Compacting FUObjectHashTables data took   0.50ms
[2020.08.04-18.22.05:853][967]LogAudioMixer: Display: Audio Mixer Platform Settings:
[2020.08.04-18.22.05:853][967]LogAudioMixer: Display: 	Sample Rate:						  48000
[2020.08.04-18.22.05:853][967]LogAudioMixer: Display: 	Callback Buffer Frame Size Requested: 1024
[2020.08.04-18.22.05:853][967]LogAudioMixer: Display: 	Callback Buffer Frame Size To Use:	  1024
[2020.08.04-18.22.05:853][967]LogAudioMixer: Display: 	Number of buffers to queue:			  2
[2020.08.04-18.22.05:853][967]LogAudioMixer: Display: 	Max Channels (voices):				  32
[2020.08.04-18.22.05:853][967]LogAudioMixer: Display: 	Number of Async Source Workers:		  0
[2020.08.04-18.22.05:853][967]LogAudio: Display: AudioDevice MaxSources: 32
[2020.08.04-18.22.05:854][967]LogAudio: Display: Using built-in audio occlusion.
[2020.08.04-18.22.05:854][967]LogAudioMixer: Display: Initializing audio mixer.
[2020.08.04-18.22.05:857][967]LogAudioMixer: Display: 0: FrontLeft
[2020.08.04-18.22.05:857][967]LogAudioMixer: Display: 1: FrontRight
[2020.08.04-18.22.05:857][967]LogAudioMixer: Display: 2: BackLeft
[2020.08.04-18.22.05:857][967]LogAudioMixer: Display: 3: BackRight
[2020.08.04-18.22.05:872][967]LogAudioMixer: Display: Using Audio Device Altavoces (Cirrus Logic CS8409 (AB 16))
[2020.08.04-18.22.05:872][967]LogAudioMixer: Display: Initializing Sound Submixes...
[2020.08.04-18.22.05:872][967]LogAudioMixer: Display: Creating Master Submix 'MasterSubmixDefault'
[2020.08.04-18.22.05:872][967]LogAudioMixer: Display: Creating Master Submix 'MasterReverbSubmixDefault'
[2020.08.04-18.22.05:872][967]LogAudioMixer: Display: Creating Master Submix 'MasterEQSubmixDefault'
[2020.08.04-18.22.05:885][967]LogInit: FAudioDevice initialized.
[2020.08.04-18.22.05:896][967]LogLoad: Game class is 'BP_BombermanTestGameModeBase_C'
[2020.08.04-18.22.05:897][967]LogWorld: Bringing World /Game/Maps/UEDPIE_0_TestMap.TestMap up for play (max tick rate 0) at 2020.08.04-20.22.05
[2020.08.04-18.22.05:898][967]LogWorld: Bringing up level for play took: 0.001798
[2020.08.04-18.22.05:898][967]LogOnline: OSS: Creating online subsystem instance for: :Context_10
[2020.08.04-18.22.05:906][967]PIE: Server logged in
[2020.08.04-18.22.05:906][967]PIE: Play in editor total start time 0.069 seconds.
[2020.08.04-18.22.33:135][824]LogSlate: Updating window title bar state: overlay mode, drag disabled, window buttons hidden, title bar hidden
[2020.08.04-18.22.33:135][824]LogWorld: BeginTearingDown for /Game/Maps/UEDPIE_0_TestMap
[2020.08.04-18.22.33:135][824]LogWorld: UWorld::CleanupWorld for TestMap, bSessionEnded=true, bCleanupResources=true
[2020.08.04-18.22.33:135][824]LogSlate: InvalidateAllWidgets triggered.  All widgets were invalidated
[2020.08.04-18.22.33:145][824]LogPlayLevel: Display: Shutting down PIE online subsystems
[2020.08.04-18.22.33:146][824]LogSlate: InvalidateAllWidgets triggered.  All widgets were invalidated
[2020.08.04-18.22.33:167][824]LogSlate: Updating window title bar state: overlay mode, drag disabled, window buttons hidden, title bar hidden
[2020.08.04-18.22.33:168][824]LogAISub: UAISubsystem::~UAISubsystem AIPerceptionSystem (0000021DF8754B80), frame # 7824
[2020.08.04-18.22.33:168][824]LogAISub: UAISubsystem::~UAISubsystem EnvQueryManager (0000021DF876D400), frame # 7824
[2020.08.04-18.22.33:169][824]LogUObjectHash: Compacting FUObjectHashTables data took   0.51ms
[2020.08.04-18.22.33:198][825]LogPlayLevel: Display: Destroying online subsystem :Context_10
[2020.08.04-18.30.02:180][973]LogHotReload: New module detected: UE4Editor-BombermanTest-0004.dll
[2020.08.04-18.30.02:877][976]LogHotReload: Starting Hot-Reload from IDE
[2020.08.04-18.30.02:933][976]LogContentBrowser: Native class hierarchy updated for 'BombermanTest' in 0.0005 seconds. Added 12 classes and 2 folders.
[2020.08.04-18.30.02:935][976]Display: HotReload successful (9 functions remapped  0 scriptstructs remapped)
[2020.08.04-18.30.02:983][976]LogContentBrowser: Native class hierarchy populated in 0.0090 seconds. Added 3439 classes and 823 folders.
[2020.08.04-18.30.02:986][976]Display: HotReload took  0.1s.
[2020.08.04-18.30.05:520][983]LogTemp: Repeating last play command: Selected Viewport
[2020.08.04-18.30.05:541][983]LogPlayLevel: PlayLevel: No blueprints needed recompiling
[2020.08.04-18.30.05:541][983]PIE: New page: PIE session: TestMap (Aug 4, 2020, 10:30:05 PM)
[2020.08.04-18.30.05:541][983]LogPlayLevel: Creating play world package: /Game/Maps/UEDPIE_0_TestMap
[2020.08.04-18.30.05:545][983]LogPlayLevel: PIE: StaticDuplicateObject took: (0.003664s)
[2020.08.04-18.30.05:546][983]LogAIModule: Creating AISystem for world TestMap
[2020.08.04-18.30.05:546][983]LogAISub: UAISubsystem::UAISubsystem EnvQueryManager (0000021DD37DB600), frame # 9983
[2020.08.04-18.30.05:546][983]LogAISub: UAISubsystem::UAISubsystem AIPerceptionSystem (0000021E02682AC0), frame # 9983
[2020.08.04-18.30.05:546][983]LogPlayLevel: PIE: World Init took: (0.000998s)
[2020.08.04-18.30.05:546][983]LogPlayLevel: PIE: Created PIE world by copying editor world from /Game/Maps/TestMap.TestMap to /Game/Maps/UEDPIE_0_TestMap.TestMap (0.004782s)
[2020.08.04-18.30.05:554][983]LogUObjectHash: Compacting FUObjectHashTables data took   0.82ms
[2020.08.04-18.30.05:555][983]LogAudioMixer: Display: Audio Mixer Platform Settings:
[2020.08.04-18.30.05:555][983]LogAudioMixer: Display: 	Sample Rate:						  48000
[2020.08.04-18.30.05:555][983]LogAudioMixer: Display: 	Callback Buffer Frame Size Requested: 1024
[2020.08.04-18.30.05:556][983]LogAudioMixer: Display: 	Callback Buffer Frame Size To Use:	  1024
[2020.08.04-18.30.05:556][983]LogAudioMixer: Display: 	Number of buffers to queue:			  2
[2020.08.04-18.30.05:556][983]LogAudioMixer: Display: 	Max Channels (voices):				  32
[2020.08.04-18.30.05:556][983]LogAudioMixer: Display: 	Number of Async Source Workers:		  0
[2020.08.04-18.30.05:556][983]LogAudio: Display: AudioDevice MaxSources: 32
[2020.08.04-18.30.05:556][983]LogAudio: Display: Using built-in audio occlusion.
[2020.08.04-18.30.05:556][983]LogAudioMixer: Display: Initializing audio mixer.
[2020.08.04-18.30.05:561][983]LogAudioMixer: Display: 0: FrontLeft
[2020.08.04-18.30.05:561][983]LogAudioMixer: Display: 1: FrontRight
[2020.08.04-18.30.05:562][983]LogAudioMixer: Display: 2: BackLeft
[2020.08.04-18.30.05:562][983]LogAudioMixer: Display: 3: BackRight
[2020.08.04-18.30.05:576][983]LogAudioMixer: Display: Using Audio Device Altavoces (Cirrus Logic CS8409 (AB 16))
[2020.08.04-18.30.05:576][983]LogAudioMixer: Display: Initializing Sound Submixes...
[2020.08.04-18.30.05:576][983]LogAudioMixer: Display: Creating Master Submix 'MasterSubmixDefault'
[2020.08.04-18.30.05:576][983]LogAudioMixer: Display: Creating Master Submix 'MasterReverbSubmixDefault'
[2020.08.04-18.30.05:577][983]LogAudioMixer: Display: Creating Master Submix 'MasterEQSubmixDefault'
[2020.08.04-18.30.05:588][983]LogInit: FAudioDevice initialized.
[2020.08.04-18.30.05:597][983]LogLoad: Game class is 'BP_BombermanTestGameModeBase_C'
[2020.08.04-18.30.05:599][983]LogWorld: Bringing World /Game/Maps/UEDPIE_0_TestMap.TestMap up for play (max tick rate 0) at 2020.08.04-20.30.05
[2020.08.04-18.30.05:600][983]LogWorld: Bringing up level for play took: 0.001905
[2020.08.04-18.30.05:600][983]LogOnline: OSS: Creating online subsystem instance for: :Context_11
[2020.08.04-18.30.05:607][983]PIE: Server logged in
[2020.08.04-18.30.05:608][983]PIE: Play in editor total start time 0.07 seconds.
[2020.08.04-18.30.20:304][439]LogSlate: Updating window title bar state: overlay mode, drag disabled, window buttons hidden, title bar hidden
[2020.08.04-18.30.20:304][439]LogWorld: BeginTearingDown for /Game/Maps/UEDPIE_0_TestMap
[2020.08.04-18.30.20:304][439]LogWorld: UWorld::CleanupWorld for TestMap, bSessionEnded=true, bCleanupResources=true
[2020.08.04-18.30.20:304][439]LogSlate: InvalidateAllWidgets triggered.  All widgets were invalidated
[2020.08.04-18.30.20:311][439]LogPlayLevel: Display: Shutting down PIE online subsystems
[2020.08.04-18.30.20:312][439]LogSlate: InvalidateAllWidgets triggered.  All widgets were invalidated
[2020.08.04-18.30.20:333][439]LogSlate: Updating window title bar state: overlay mode, drag disabled, window buttons hidden, title bar hidden
[2020.08.04-18.30.20:334][439]LogAISub: UAISubsystem::~UAISubsystem AIPerceptionSystem (0000021E02682AC0), frame # 11439
[2020.08.04-18.30.20:334][439]LogAISub: UAISubsystem::~UAISubsystem EnvQueryManager (0000021DD37DB600), frame # 11439
[2020.08.04-18.30.20:335][439]LogUObjectHash: Compacting FUObjectHashTables data took   0.58ms
[2020.08.04-18.30.20:398][441]LogPlayLevel: Display: Destroying online subsystem :Context_11
[2020.08.04-18.30.29:026][887]LogHotReload: New module detected: UE4Editor-BombermanTest-0005.dll
[2020.08.04-18.30.29:717][890]LogHotReload: Starting Hot-Reload from IDE
[2020.08.04-18.30.29:770][890]LogContentBrowser: Native class hierarchy updated for 'BombermanTest' in 0.0004 seconds. Added 12 classes and 2 folders.
[2020.08.04-18.30.29:770][890]Display: HotReload successful (9 functions remapped  0 scriptstructs remapped)
[2020.08.04-18.30.29:803][890]LogContentBrowser: Native class hierarchy populated in 0.0078 seconds. Added 3439 classes and 823 folders.
[2020.08.04-18.30.29:806][890]Display: HotReload took  0.1s.
[2020.08.04-18.30.32:714][898]LogTemp: Repeating last play command: Selected Viewport
[2020.08.04-18.30.32:733][898]LogPlayLevel: PlayLevel: No blueprints needed recompiling
[2020.08.04-18.30.32:733][898]PIE: New page: PIE session: TestMap (Aug 4, 2020, 10:30:32 PM)
[2020.08.04-18.30.32:733][898]LogPlayLevel: Creating play world package: /Game/Maps/UEDPIE_0_TestMap
[2020.08.04-18.30.32:737][898]LogPlayLevel: PIE: StaticDuplicateObject took: (0.003156s)
[2020.08.04-18.30.32:737][898]LogAIModule: Creating AISystem for world TestMap
[2020.08.04-18.30.32:737][898]LogAISub: UAISubsystem::UAISubsystem EnvQueryManager (0000021E026D2200), frame # 11898
[2020.08.04-18.30.32:737][898]LogAISub: UAISubsystem::UAISubsystem AIPerceptionSystem (0000021E02682FC0), frame # 11898
[2020.08.04-18.30.32:738][898]LogPlayLevel: PIE: World Init took: (0.000919s)
[2020.08.04-18.30.32:738][898]LogPlayLevel: PIE: Created PIE world by copying editor world from /Game/Maps/TestMap.TestMap to /Game/Maps/UEDPIE_0_TestMap.TestMap (0.004184s)
[2020.08.04-18.30.32:744][898]LogUObjectHash: Compacting FUObjectHashTables data took   0.49ms
[2020.08.04-18.30.32:745][898]LogAudioMixer: Display: Audio Mixer Platform Settings:
[2020.08.04-18.30.32:745][898]LogAudioMixer: Display: 	Sample Rate:						  48000
[2020.08.04-18.30.32:745][898]LogAudioMixer: Display: 	Callback Buffer Frame Size Requested: 1024
[2020.08.04-18.30.32:745][898]LogAudioMixer: Display: 	Callback Buffer Frame Size To Use:	  1024
[2020.08.04-18.30.32:745][898]LogAudioMixer: Display: 	Number of buffers to queue:			  2
[2020.08.04-18.30.32:745][898]LogAudioMixer: Display: 	Max Channels (voices):				  32
[2020.08.04-18.30.32:745][898]LogAudioMixer: Display: 	Number of Async Source Workers:		  0
[2020.08.04-18.30.32:745][898]LogAudio: Display: AudioDevice MaxSources: 32
[2020.08.04-18.30.32:746][898]LogAudio: Display: Using built-in audio occlusion.
[2020.08.04-18.30.32:746][898]LogAudioMixer: Display: Initializing audio mixer.
[2020.08.04-18.30.32:750][898]LogAudioMixer: Display: 0: FrontLeft
[2020.08.04-18.30.32:750][898]LogAudioMixer: Display: 1: FrontRight
[2020.08.04-18.30.32:750][898]LogAudioMixer: Display: 2: BackLeft
[2020.08.04-18.30.32:750][898]LogAudioMixer: Display: 3: BackRight
[2020.08.04-18.30.32:763][898]LogAudioMixer: Display: Using Audio Device Altavoces (Cirrus Logic CS8409 (AB 16))
[2020.08.04-18.30.32:763][898]LogAudioMixer: Display: Initializing Sound Submixes...
[2020.08.04-18.30.32:763][898]LogAudioMixer: Display: Creating Master Submix 'MasterSubmixDefault'
[2020.08.04-18.30.32:763][898]LogAudioMixer: Display: Creating Master Submix 'MasterReverbSubmixDefault'
[2020.08.04-18.30.32:763][898]LogAudioMixer: Display: Creating Master Submix 'MasterEQSubmixDefault'
[2020.08.04-18.30.32:775][898]LogInit: FAudioDevice initialized.
[2020.08.04-18.30.32:783][898]LogLoad: Game class is 'BP_BombermanTestGameModeBase_C'
[2020.08.04-18.30.32:785][898]LogWorld: Bringing World /Game/Maps/UEDPIE_0_TestMap.TestMap up for play (max tick rate 0) at 2020.08.04-20.30.32
[2020.08.04-18.30.32:786][898]LogWorld: Bringing up level for play took: 0.001955
[2020.08.04-18.30.32:786][898]LogOnline: OSS: Creating online subsystem instance for: :Context_12
[2020.08.04-18.30.32:792][898]PIE: Server logged in
[2020.08.04-18.30.32:793][898]PIE: Play in editor total start time 0.063 seconds.
